{
  "kind": "collectionType",
  "collectionName": "lut_habitats",
  "info": {
    "singularName": "lut-habitat",
    "pluralName": "lut-habitats",
    "displayName": "Lut-habitat",
    "name": "lut-habitat",
    "uri": "https://linked.data.gov.au/def/nrm/c19a0098-1f3f-4bc2-b84d-fdb6d4e24d6f"
  },
  "options": {
    "increments": true,
    "timestamps": true,
    "draftAndPublish": false
  },
  "attributes": {
    "symbol": {
      "type": "string",
      "required": true,
      "unique": true
    },
    "label": {
      "type": "string",
      "required": true,
      "unique": true
    },
    "description": {
      "type": "text"
    },
    "uri": {
      "type": "string"
    }
  },
  "initialData": [
    [
      "CD",
      "Closed chenopod shrubland",
      "Refers to the NVIS dominant vegetation structural formation class, with a percent cover of about >80% members of Chenopodiaceae. ",
      "https://linked.data.gov.au/def/nrm/7cf0b84b-3277-5bfd-9fd0-0a799cda4588"
    ],
    [
      "CI",
      "Isolated chenopod shrub",
      "",
      ""
    ],
    [
      "CL",
      "Isolated clump of chenopod shrubs",
      "Refers to the type of habitat characterised by isolated clumps of chenopod shrubs.",
      "https://linked.data.gov.au/def/nrm/1928d26f-10b6-5a61-84cb-feac377781b0"
    ],
    [
      "CM",
      "Chenopod shrubland",
      "Refers to the NVIS dominant vegetation structural formation class, with a percent cover of about 50-80% members of Chenopodiaceae. ",
      "https://linked.data.gov.au/def/nrm/99807739-a552-5004-9105-6e580a123002"
    ],
    [
      "CS",
      "Open chenopod shrubland",
      "Refers to the NVIS dominant vegetation structural formation class, with a percent cover of about 20-50% of members of Chenopodiaceae.",
      "https://linked.data.gov.au/def/nrm/740661b3-4178-508a-a7a4-64f07c6c3a8a"
    ],
    [
      "CV",
      "Sparse chenopod shrubland",
      "Refers to the NVIS dominant vegetation structural formation class, with a percent cover of about 0.25-20% of members of Chenopodiaceae. ",
      "https://linked.data.gov.au/def/nrm/c8a4a268-54ef-5327-9530-3acb1c6bb048"
    ],
    [
      "DD",
      "Closed sod grassland",
      "Refers to the type of habitat representative of a characteristic sod-like (turf) grass.",
      "https://linked.data.gov.au/def/nrm/18d6c67c-5a1e-5146-a49a-a17615eb6656"
    ],
    [
      "DI",
      "Isolated sod grasses",
      "Refers to the type of habitat characterised by isolated or sparse sod or turf-like grasses.",
      "https://linked.data.gov.au/def/nrm/cf2c27f3-1f44-50cc-a382-4a18c5c24985"
    ],
    [
      "DL",
      "Isolated clump of sod grasses",
      "Refers to the type of habitat characterised by isolated clumps of sod grass.",
      "https://linked.data.gov.au/def/nrm/f2c496b6-ea23-546b-83f2-14ebb6f5ca82"
    ],
    [
      "DM",
      "Sod grassland",
      "Refers to the type of habitat characterised by mid-dense (30-70% cover) sod or turf-like grasses.",
      "https://linked.data.gov.au/def/nrm/585bbfcc-cb43-5d7a-9a58-1c90031300fd"
    ],
    [
      "DS",
      "Open sod grassland",
      "Refers to the type of habitat characterised by open or sparse (10-30% ground cover) of a characteristic sod-like (turf) grass.",
      "https://linked.data.gov.au/def/nrm/a0aa9bd3-3256-54f1-a5bf-746b3025743f"
    ],
    [
      "DV",
      "Sparse sod grassland",
      "Refers to the type of habitat characterised by very sparse (<10% cover) sod or turf-like grasses.",
      "https://linked.data.gov.au/def/nrm/a4fccf87-04df-5982-a89f-4aaf6b089777"
    ],
    [
      "ED",
      "Closed fernland",
      "Refers to the NVIS dominant vegetation structural formation class, with a percent cover of about >80% members of Fern and Fern-allies. ",
      "https://linked.data.gov.au/def/nrm/77dc385f-c9a0-56f3-b14e-4485f7adcb78"
    ],
    [
      "EI",
      "Isolated ferns",
      "Refers to the NVIS dominant vegetation structural formation class, with a percent cover of about <0.25% of fern and fern allies. ",
      "https://linked.data.gov.au/def/nrm/aa9b68be-a749-537e-baf9-6880088198cc"
    ],
    [
      "EL",
      "Isolated clumps of ferns",
      "Refers to the NVIS dominant vegetation structural formation class, with a percent cover of about 0-5% members of Fern and Fern-allies. ",
      "https://linked.data.gov.au/def/nrm/e692ff93-02cd-5bdf-bc4e-8f76de59089a"
    ],
    [
      "EM",
      "Fernland",
      "Refers to the NVIS dominant vegetation structural formation class, with a percent cover of about 50-80% members of Fern and Fern-allies. ",
      "https://linked.data.gov.au/def/nrm/87e02dde-35a9-5ee3-b919-5bd34d83a2ff"
    ],
    [
      "ES",
      "Open fernland",
      "Refers to the NVIS dominant vegetation structural formation class, with a percent cover of about 20-50% of ferns and fern allies. ",
      "https://linked.data.gov.au/def/nrm/5deef8a7-e536-57a9-9b7a-caf9f5d4d39d"
    ],
    [
      "EV",
      "Sparse fernland",
      "Refers to the NVIS dominant vegetation structural formation class, with a percent cover of about 0.25-20% of members of fern and fern-allies. ",
      "https://linked.data.gov.au/def/nrm/30c6a39a-211b-5526-93b3-467bbb9e56b4"
    ],
    [
      "FD",
      "Closed forbland",
      "Refers to the NVIS dominant vegetation structural formation class, with a percent cover of about >80% members of Forbs or herbs other than grasses. ",
      "https://linked.data.gov.au/def/nrm/7a9329ca-a03d-5c22-9c3c-3ca03d038fb9"
    ],
    [
      "FI",
      "Isolated forbs",
      "Refers to the NVIS dominant vegetation structural formation class, with a percent cover of about <0.25% of forbs or herbs other than grasses. ",
      "https://linked.data.gov.au/def/nrm/f03afa59-394c-50e6-ba58-3b7dc38a1363"
    ],
    [
      "FL",
      "Isolated clumps of forbs",
      "Refers to the NVIS dominant vegetation structural formation class, with a percent cover of about 0-5% members of Forbs or herbs other than grasses. ",
      "https://linked.data.gov.au/def/nrm/37b756c2-5607-58de-a31b-eb5b1ce626ed"
    ],
    [
      "FM",
      "Forbland",
      "Refers to the NVIS dominant vegetation structural formation class, with a percent cover of about 50-80% members of Forbs or herbaceous plants other than grasses. ",
      "https://linked.data.gov.au/def/nrm/6f68413c-4dcd-5d02-a0c7-0ad3a56d62d3"
    ],
    [
      "FS",
      "Open forbland",
      "Refers to the NVIS dominant vegetation structural formation class, with a percent cover of about 20-50% of forbs or herbs other than grasses. ",
      "https://linked.data.gov.au/def/nrm/32532a0a-3b85-5ebd-b72e-2b87666baf62"
    ],
    [
      "FV",
      "Sparse forbland",
      "Refers to the NVIS dominant vegetation structural formation class, with a percent cover of about 0.25-20% of members of forbs and herbs other than grasses. ",
      "https://linked.data.gov.au/def/nrm/bff147ed-4af8-50d5-be4e-b2d817686767"
    ],
    [
      "GD",
      "Closed tussock grassland",
      "Refers to the NVIS dominant vegetation structural formation class, with a percent cover of about >80% members of tussock grasses (e.g., Poa).",
      "https://linked.data.gov.au/def/nrm/2879f1a4-9a89-5faa-b43c-ae04aeeb9d23"
    ],
    [
      "GI",
      "Isolated tussock grasses",
      "Refers to the NVIS dominant vegetation structural formation class, with a percent cover of about <0.25% of tussock grass (e.g. Poa species). ",
      "https://linked.data.gov.au/def/nrm/d958b180-ff63-56c5-a39a-4d04bd07207b"
    ],
    [
      "GL",
      "Isolated clump of tussock grasses",
      "Refers to the type of habitat characterised by isolated clumps of tussock grasses (e.g., Poa spp).",
      "https://linked.data.gov.au/def/nrm/f51c20dd-6026-5b24-9f5f-a705b8d88a95"
    ],
    [
      "GM",
      "Tussock grassland",
      "Refers to the NVIS dominant vegetation structural formation class, with a percent cover of about 50-80% of tussock grass (e.g., Poa species). ",
      "https://linked.data.gov.au/def/nrm/d474a334-fb65-5496-917c-7f879697157e"
    ],
    [
      "GS",
      "Open tussock grassland",
      "Refers to the NVIS dominant vegetation structural formation class, with a percent cover of about 20-50% of tussock grasses (e.g. Poa species).",
      "https://linked.data.gov.au/def/nrm/021ac7e0-af3f-5c5f-9835-6566cd7d45dd"
    ],
    [
      "GV",
      "Sparse tussock grassland",
      "Refers to the NVIS dominant vegetation structural formation class, with a percent cover of about 0.25-20% of tussock grass (e.g., Poa species). ",
      "https://linked.data.gov.au/def/nrm/eba388b7-bf44-5c65-b468-aebb1afbc5e2"
    ],
    [
      "HD",
      "Closed hummock grassland",
      "Refers to the NVIS dominant vegetation structural formation class, with a percent cover of about >80% members of hummock (e.g., Triodia) grasses. ",
      "https://linked.data.gov.au/def/nrm/5a0039b6-1652-59cf-95ba-0ea41b7626e8"
    ],
    [
      "HI",
      "Isolated hummock grass",
      "",
      ""
    ],
    [
      "HL",
      "Isolated clump of hummock grasses",
      "Refers to the type of habitat characterised by isolated clumps of hummocky grass (e.g., Triodia spp., Spinifex spp.).",
      "https://linked.data.gov.au/def/nrm/f62e2bf1-408f-536e-9da1-82d7e980498c"
    ],
    [
      "HM",
      "Hummock grassland",
      "Refers to the NVIS dominant vegetation structural formation class, with a percent cover of about 50-80% members of hummock grasses (e.g., Triodia). ",
      "https://linked.data.gov.au/def/nrm/b77c7b89-0dd2-52cb-9eb3-7319d4465cfe"
    ],
    [
      "HS",
      "Open hummock grassland",
      "Refers to the NVIS dominant vegetation structural formation class, with a percent cover of about 20-50% of hummock grasses (e.g., Triodia). ",
      "https://linked.data.gov.au/def/nrm/9c0fd421-510f-56f5-92e6-e18ceb62419d"
    ],
    [
      "HV",
      "Sparse grassland",
      "Refers to the NVIS dominant vegetation structural formation class, with a percent cover of about 0.25-20% of grasses. ",
      "https://linked.data.gov.au/def/nrm/e28adc38-5e40-5795-93d1-6582d0013f7e"
    ],
    [
      "LD",
      "Closed vineland",
      "Refers to the type of habitat represented by a closed vegetation dominated by stragglers and woody climbers.",
      "https://linked.data.gov.au/def/nrm/49b4614a-b1ad-5ba3-8157-f884b61d09c5"
    ],
    [
      "LI",
      "Isolated vines",
      "Refers to the type of habitat characterised by isolated or sparse stragglers or climbing woody vines.",
      "https://linked.data.gov.au/def/nrm/d42312a8-1e09-5dc4-ae32-df980671e7d7"
    ],
    [
      "LL",
      "Isolated clump of vines",
      "Refers to the type of habitat characterised by isolated clumps of vines.",
      "https://linked.data.gov.au/def/nrm/f8c0c37c-3021-5f90-bb23-658966b5326d"
    ],
    [
      "LM",
      "Vineland",
      "Refers to the type of habitat characterised by woody climbers/straggling vines. ",
      "https://linked.data.gov.au/def/nrm/329d8b4e-fb69-5786-af63-8fc92ec018f7"
    ],
    [
      "LS",
      "Open vineland",
      "Refers to the type of habitat represented by a closed vegetation dominated by stragglers and woody climbers.",
      "https://linked.data.gov.au/def/nrm/4bc3fcb1-26c6-5b11-93df-9381fa12282e"
    ],
    [
      "LV",
      "Sparse vineland",
      "Refers to the type of habitat characterised by well separated or very sparse crown stragglers or woody vines. ",
      "https://linked.data.gov.au/def/nrm/f20b4449-da26-5423-ad11-eeed042e4072"
    ],
    [
      "MD",
      "Closed mallee forest",
      "Refers to the NVIS dominant vegetation structural formation class, with a percent cover of about >80% members of tree mallee (e.g., some members of Eucalyptus). ",
      "https://linked.data.gov.au/def/nrm/36a6499f-b1f6-5405-a2ec-73498ac874eb"
    ],
    [
      "MI",
      "Isolated mallee trees",
      "Refers to the NVIS dominant vegetation structural formation class, with a percent cover of about <0.25% of tree mallee (e.g., some multistemmed individuals from base of Eucalyptus). ",
      "https://linked.data.gov.au/def/nrm/8c26e6d6-6287-5139-89c3-03c730b544e0"
    ],
    [
      "ML",
      "Isolated clump of mallee trees",
      "Refers to the type of habitat characterised by isolated clumps of tree mallee (members of Eucalyptus spp., multistemmed from base).",
      "https://linked.data.gov.au/def/nrm/541a8566-33f2-5998-af10-c89046b17a1c"
    ],
    [
      "MM",
      "Open mallee forest",
      "Refers to the NVIS dominant vegetation structural formation class, with a percent cover of about 50-80% of tree Mallee (e.g., certain individuals of Eucalypts multistemmed from base). ",
      "https://linked.data.gov.au/def/nrm/3f0f6d0b-e136-5cad-bd74-f229aeb6fe04"
    ],
    [
      "MS",
      "Mallee woodland",
      "Refers to the dominant vegetation structural formation, with a percent cover of about 20-50% of Tree Mallee. ",
      "https://linked.data.gov.au/def/nrm/3de3bfd1-7d1c-5656-8439-85f56f487c40"
    ],
    [
      "MV",
      "Open mallee woodland",
      "Refers to the NVIS dominant vegetation structural formation class, with a percent cover of about 0.25-20% of tree mallee (e.g., certain individuals of Eucalypts multistemmed from base). ",
      "https://linked.data.gov.au/def/nrm/484d51eb-c1ee-597c-aed0-664a28e7b1d1"
    ],
    [
      "ND",
      "Closed lichenland",
      "Refers to the type of habitat characterised by lichenised tree trunks and rocks.",
      "https://linked.data.gov.au/def/nrm/936bf21a-191e-50c2-a767-695931abefeb"
    ],
    [
      "NI",
      "Isolated lichens",
      "Refers to the type of habitat characterised by isolated or sparse lichens.",
      "https://linked.data.gov.au/def/nrm/69a2aa31-2a87-5306-87e0-baa53745032b"
    ],
    [
      "NL",
      "Isolated clup of lichens",
      "Refers to the type of habitat characterised by isolated clumps of lichens.",
      "https://linked.data.gov.au/def/nrm/f5a80ba0-7b0b-51ee-bfd3-8e96199e8298"
    ],
    [
      "NM",
      "Lichenland",
      "Refers to the type of habitat predominated by lichens on rocks, trees or tree stumps, etc.",
      "https://linked.data.gov.au/def/nrm/700fd743-4b00-59cf-87fd-a2bb56d93002"
    ],
    [
      "NS",
      "Open lichenland",
      "Refers to the type of habitat represented by open or sparse (i.e., 10-30%) hummocky grasses (e.g., Spinifex spp., Triodia spp.).",
      "https://linked.data.gov.au/def/nrm/5291eed4-b125-51fc-bf5a-6deff5d3e0d8"
    ],
    [
      "NV",
      "Sparse lichenland",
      "Refers to the type of habitat characterised by very sparse (<10% cover) lichens.",
      "https://linked.data.gov.au/def/nrm/3a884e64-9ead-5a93-96af-594709e77fd4"
    ],
    [
      "OA",
      "Beach",
      "Type of Landform Element, which is usually short; low; very wide slope; gently or moderately inclined; built up or eroded by waves; forming the shore of a lake or sea.",
      "https://linked.data.gov.au/def/nrm/63960cfe-9e04-52b7-8940-4d6c2ebe0a02"
    ],
    [
      "OB",
      "Billabong or Swamp",
      "A swamp is a wetland that features temporary or permanent inundation of large areas of land by shallow bodies of water, generally with a substantial number of hammocks, or dry-land protrusions, and covered by aquatic vegetation, or vegetation that tolerates periodical inundation.",
      "https://linked.data.gov.au/def/nrm/55f988ef-b922-5ae6-a23e-748aefd62d21"
    ],
    [
      "OC",
      "Coastal Waters",
      "Refers to the type of habitat representative of an aquatic body typically characterized by a shallow continental shelf, gently sloping seaward to a continental slope, which drops relatively abruptly to the deep ocean. ",
      "https://linked.data.gov.au/def/nrm/09b57b74-ee2d-5270-8e32-4368989eac08"
    ],
    [
      "OE",
      "Estuary",
      "Type of Landform Element which has a stream channel close to its junction with a sea or lake; where the action of channelled stream flow is modified by tide and waves. The width typically increases downstream.",
      "https://linked.data.gov.au/def/nrm/7cb2f197-c3e8-5491-b0db-78b839405fd7"
    ],
    [
      "OF",
      "Freshwater Lake",
      "Refers to the type of habitat representative of an enclosed aquatic body having a relatively low mineral content, generally less than 500 mg/l of dissolved solids.",
      "https://linked.data.gov.au/def/nrm/9f69fdbd-4d86-5116-8822-8c79ee64702e"
    ],
    [
      "OG",
      "Grazing Land",
      "Refers to the type of habitat representative of a land predominantly used for grazing.",
      "https://linked.data.gov.au/def/nrm/4f1acfe6-f8bc-5318-ba80-d40402109504"
    ],
    [
      "OL",
      "Saltwater Lake",
      "Refers to the type of habitat representative of an aquatic body filled with water (with high salinity) of considerable size contained in a depression on a landmass.",
      "https://linked.data.gov.au/def/nrm/1b65f313-89bd-57ac-8506-07cfdc72e757"
    ],
    [
      "OM",
      "Mudflat",
      "Refers to the type of habitat characterised by a wetland that forms when mud is deposited by the tides, rivers, sea or oceans.",
      "https://linked.data.gov.au/def/nrm/3e8b4e76-de24-557c-93c0-a71219a0931b"
    ],
    [
      "OO",
      "Open Ocean",
      "Refers to the type of habitat surrounded by ocean, i.e., a continuous saline-water bodies that surround the continents and fill the Earth's great depressions. ",
      "https://linked.data.gov.au/def/nrm/b17ea99e-d037-5f41-adc1-1323fe3fbdce"
    ],
    [
      "OP",
      "Crop Land",
      "Refers to the type of habitat representative of a cultivated land or land on which agricultural crops are grown or land that is set aside or temporarily not being used for crop production.",
      "https://linked.data.gov.au/def/nrm/c742f5dd-15e7-5212-8304-a34a46b93d78"
    ],
    [
      "OR",
      "Rock Outcrop",
      "Refers to the type of habitat characterised by rocks, which protrudes through the surface layer.",
      "https://linked.data.gov.au/def/nrm/dc4aeb3c-5a67-5232-89d3-9ee250cf3cda"
    ],
    [
      "OS",
      "Stream or River",
      "Refers to the type of habitat representative of an aquatic body with a watercourse which is linear and flows across the solid portion of a planetary surface.",
      "https://linked.data.gov.au/def/nrm/353214cb-0cda-55f9-9e5e-e3c0bd8dd07c"
    ],
    [
      "OU",
      "Urban",
      "Refers to the type of habitat relating to, located in, or characteristic of a city or densely populated area.",
      "https://linked.data.gov.au/def/nrm/6fb7d262-c3d5-5b65-baf0-3fd82fa924a7"
    ],
    [
      "OV",
      "Cave",
      "The type of habitat representative of a naturally formed, subterranean open area or chamber.",
      "https://linked.data.gov.au/def/nrm/03ee0064-f289-52ae-91a8-ed0aace9a1f2"
    ],
    [
      "RD",
      "Closed rushland",
      "Refers to the NVIS dominant vegetation structural formation class, with a percent cover of about >80% members of Rushes (e.g., Juncaceae).",
      "https://linked.data.gov.au/def/nrm/230bb275-6421-539b-9852-07a5f76c660f"
    ],
    [
      "RI",
      "Isolated rushes",
      "Refers to the NVIS dominant vegetation structural formation class, with a percent cover of about <0.25% of rushes (e.g., Juncaceae).",
      "https://linked.data.gov.au/def/nrm/3a1e4a07-df4a-5a18-9f61-72f7c87306f5"
    ],
    [
      "RL",
      "Isolated clump of rushes",
      "Refers to the type of habitat characterised by isolated clumps of rushes.",
      "https://linked.data.gov.au/def/nrm/9a309ff4-8499-5bf4-92cc-8d394a53e6b9"
    ],
    [
      "RM",
      "Rushland",
      "Refers to the NVIS dominant vegetation structural formation class, with a percent cover of about 50-80% of rushes (e.g. Juncaceae).",
      "https://linked.data.gov.au/def/nrm/3de9060b-389c-5340-9e1c-288719d05007"
    ],
    [
      "RS",
      "Open rushland",
      "Refers to the NVIS dominant vegetation structural formation class, with a percent cover of about 20-50% of rushes (e.g. Juncaceae).",
      "https://linked.data.gov.au/def/nrm/4e22f9a2-1bc6-53ba-8226-e18fef762fb9"
    ],
    [
      "RV",
      "Sparse rushland",
      "Refers to the NVIS dominant vegetation structural formation class, with a percent cover of about 0.25-20% of rushes (e.g., Juncaceae). ",
      "https://linked.data.gov.au/def/nrm/3c0c31d0-7360-55cd-bd02-5e2a2e47b11b"
    ],
    [
      "SD",
      "Closed shrubland",
      "Refers to the NVIS dominant vegetation structural formation class, with a percent cover of about >80% members of sedges (e.g., Cyperaceae).",
      "https://linked.data.gov.au/def/nrm/97fa02b0-f5c2-5cae-a822-aa0385e299b7"
    ],
    [
      "SI",
      "Isolated shrubs",
      "Refers to the NVIS dominant vegetation structural formation class, with a percent cover of about <0.25% of shrubs including cycads, grass-tree and tree-fern. ",
      "https://linked.data.gov.au/def/nrm/97d1820d-545f-5694-b379-9f360b8d123b"
    ],
    [
      "SL",
      "Isolated clump of shrubs",
      "Refers to the type of habitat characterised by isolated clumps of shrubs.",
      "https://linked.data.gov.au/def/nrm/3d57e6c5-e288-56c2-89c3-1d1f8abd5847"
    ],
    [
      "SM",
      "Shrubland",
      "Refers to the NVIS dominant vegetation structural formation class, with a percent cover of about 50-80% of shrubs (e.g., shrub, cycad, grass-tree, tree-fern).",
      "https://linked.data.gov.au/def/nrm/18e5a444-f39c-50ea-84a5-9f677ee46601"
    ],
    [
      "SS",
      "Open shrubland",
      "Refers to the NVIS dominant vegetation structural formation class, with a percent cover of about 20-50% of shrubs (e.g. shrubs, cycads, grass-tree, tree-fern).",
      "https://linked.data.gov.au/def/nrm/c5fb3713-be56-56e3-8fb7-922c27dd2ae9"
    ],
    [
      "SV",
      "Sparse shrubland",
      "Refers to the NVIS dominant vegetation structural formation class, with a percent cover of about 0.25-20% of shrubs, including cycad, grass-tree, tree-fern. ",
      "https://linked.data.gov.au/def/nrm/7ecfb199-be34-5656-887b-c6205faf0cd1"
    ],
    [
      "TD",
      "Closed forest",
      "Refers to the NVIS dominant vegetation structural formation class, with a percent cover of about >80% members of Forbs or herbs other than grassess. ",
      "https://linked.data.gov.au/def/nrm/ac2238c8-b7bc-5a89-8cc3-774bc3a53064"
    ],
    [
      "TI",
      "Isolated trees",
      "Refers to the NVIS dominant vegetation structural formation class, with a percent cover of about <0.25% of trees including palms. ",
      "https://linked.data.gov.au/def/nrm/9935b7bc-2bfa-5b34-ae38-12da54c24bbc"
    ],
    [
      "TL",
      "Isolated clump of trees",
      "Refers to the type of habitat characterised by isolated clumps of trees.",
      "https://linked.data.gov.au/def/nrm/7e8f9627-8796-5e1e-ad72-33f2a863de98"
    ],
    [
      "TM",
      "Open forest",
      "Refers to the NVIS dominant vegetation structural formation class, with a percent cover of about 20-50% of trees including palms. ",
      "https://linked.data.gov.au/def/nrm/9b644ae5-6279-5794-8535-b56cef440f3d"
    ],
    [
      "TS",
      "Woodland",
      "Refers to the type of habitat characterised by a low-density forest forming open habitats with plenty of sunlight and limited shade.",
      "https://linked.data.gov.au/def/nrm/e2193542-9203-532b-99d3-853a4640114d"
    ],
    [
      "TV",
      "Open woodland",
      "Refers to the NVIS dominant vegetation structural formation class, with a percent cover of about 0.25-20% of trees including palms.",
      "https://linked.data.gov.au/def/nrm/09fdd99f-e627-542c-afed-824af660bf48"
    ],
    [
      "VD",
      "Closed sedgeland",
      "Refers to the NVIS dominant vegetation structural formation class, with a percent cover of about >80% members of sedges (e.g., Cyperaceae).",
      "https://linked.data.gov.au/def/nrm/193d73c9-b3e8-59b5-860e-109eae4efd16"
    ],
    [
      "VI",
      "Isolated sedges",
      "Refers to the NVIS dominant vegetation structural formation class, with a percent cover of about <0.25% of sedges (e.g., Cyperaceae).",
      "https://linked.data.gov.au/def/nrm/150a361f-0b85-59da-93d0-65206b6eae9e"
    ],
    [
      "VL",
      "Isolated clump of sedges",
      "Refers to the type of habitat characterised by isolated clumps of sedges.",
      "https://linked.data.gov.au/def/nrm/032937cf-f227-570d-a20d-9e2e04c27be8"
    ],
    [
      "VM",
      "Sedgeland",
      "Refers to the NVIS dominant vegetation structural formation class, with a percent cover of about 50-80% of sedges (e.g., Cyperaceae).",
      "https://linked.data.gov.au/def/nrm/6e866ca0-1492-5e47-a520-8bac223f2dc8"
    ],
    [
      "VS",
      "Open sedgeland",
      "Refers to the NVIS dominant vegetation structural formation class, with a percent cover of about 20-50% of sedges (e.g. Cyperaceae).",
      "https://linked.data.gov.au/def/nrm/1f71cccb-10a3-5dad-a1f1-2007c1c670c3"
    ],
    [
      "VV",
      "Sparse sedgeland",
      "Refers to the NVIS dominant vegetation structural formation class, with a percent cover of about 0.25-20% of sedges (e.g., Cyperaceae). ",
      "https://linked.data.gov.au/def/nrm/864f2e87-9c4c-59c5-936d-557ac7942996"
    ],
    [
      "WD",
      "Closed liverwortland",
      "Refers to the type of habitat characterised by lower plant groups such as moss, liverworts and bryophytes.",
      "https://linked.data.gov.au/def/nrm/b190259a-9301-55bd-bf66-07d98a0d9af6"
    ],
    [
      "WI",
      "Isolated liverworts",
      "Refers to the type of habitat characterised by isolated or sparse liverworts.",
      "https://linked.data.gov.au/def/nrm/d228dc9f-9e51-567b-8fde-f3bac5f57265"
    ],
    [
      "WL",
      "Isolated clump of liverworts",
      "Refers to the type of habitat characterised by isolated clumps of bryophytes, moss and liverworts.",
      "https://linked.data.gov.au/def/nrm/2aad6ae5-d64f-55b7-a394-a90394c30d29"
    ],
    [
      "WM",
      "Liverwortland",
      "Refers to the type of habitat predominated by liverworts.",
      "https://linked.data.gov.au/def/nrm/1ad6b767-f8f0-51ed-8430-50819e0ad899"
    ],
    [
      "WS",
      "Open liverwortland",
      "Refers to the type of habitat characterised by open or sparse lichenised tree trunks and rocks.",
      "https://linked.data.gov.au/def/nrm/30d4c6a6-5558-5fd3-bed3-487c6fd7d015"
    ],
    [
      "WV",
      "Sparse liverwortland",
      "Refers to the type of habitat characterised by very sparse (<10% cover) liverworts.",
      "https://linked.data.gov.au/def/nrm/64c1dc43-cde9-55b4-b1bb-fe58a340e20a"
    ],
    [
      "XD",
      "Closed mossland",
      "Refers to the type of habitat characterised by lower plant groups such as moss, liverworts and bryophytes.",
      "https://linked.data.gov.au/def/nrm/44f77309-6690-5e04-a873-7418632d1420"
    ],
    [
      "XI",
      "Isolated mosses",
      "Refers to the type of habitat characterised by isolated mosses, including bryophytes and liverworts.",
      "https://linked.data.gov.au/def/nrm/3f630070-deb6-596f-92ac-9906008d0f07"
    ],
    [
      "XL",
      "Isolated clump of mosses",
      "Refers to the type of habitat characterised by isolated clumps of bryophytes, moss and liverworts.",
      "https://linked.data.gov.au/def/nrm/4f1dc06e-910b-50a9-890a-d8d7ba3665b9"
    ],
    [
      "XM",
      "Mossland",
      "Refers to the type of habitat dominated by mosses.",
      "https://linked.data.gov.au/def/nrm/9ad6291c-900f-5538-af2d-6e241b0264ba"
    ],
    [
      "XS",
      "Open mossland",
      "Refers to the type of habitat characterised by open or sparse members of lower plant groups such as moss, liverworts and bryophytes.",
      "https://linked.data.gov.au/def/nrm/06328712-eb21-5ed1-8ac3-91d4e753deff"
    ],
    [
      "XV",
      "Sparse mossland",
      "Refers to the type of habitat characterised by very sparse (<10% cover) mosses.",
      "https://linked.data.gov.au/def/nrm/dacaf8da-6064-5374-89c5-01606b54d774"
    ],
    [
      "YD",
      "Closed mallee shrubland",
      "Refers to the NVIS dominant vegetation structural formation class, with a percent cover of about >80% members of mallee shrubs (e.g., some members of Eucalyptus). ",
      "https://linked.data.gov.au/def/nrm/c751ff0d-e9a4-5a3d-bf46-27fbb352a1e4"
    ],
    [
      "YI",
      "Isolated mallee shrubs",
      "Refers to the NVIS dominant vegetation structural formation class, with a percent cover of about <0.25% of mallee shrubs (e.g., some multistemmed individuals from base of Eucalyptus). ",
      "https://linked.data.gov.au/def/nrm/02056871-964d-5bc5-b5eb-dcd4c761f0ff"
    ],
    [
      "YL",
      "Isolated clump of mallee shrubs",
      "Refers to the type of habitat characterised by isolated clumps of mallee shrubs (members of Eucalyptus spp., multistemmed from base).",
      "https://linked.data.gov.au/def/nrm/d2f7baae-9238-5978-972c-179fa11e39ad"
    ],
    [
      "YM",
      "Mallee shrubland",
      "Refers to the NVIS dominant vegetation structural formation class, with a percent cover of about 50-80% of shrub mallee (e.g., individuals of some Eucalypts multistemmed from base). ",
      "https://linked.data.gov.au/def/nrm/f5e68c19-0e4c-5aa9-8076-7879f2a6cce4"
    ],
    [
      "YS",
      "Open mallee shrubland",
      "Refers to the NVIS dominant vegetation structural formation class, with a percent cover of about 20-50% of Mallee shrubs (e.g., certain individuals of Eucalypts multistemmed from base). ",
      "https://linked.data.gov.au/def/nrm/9baa87b2-346a-595c-bcb9-f50a2e7101f2"
    ],
    [
      "YV",
      "Sparse mallee shrubland",
      "Refers to the NVIS dominant vegetation structural formation class, with a percent cover of about 0.25-20% of members of shrub Mallee. ",
      "https://linked.data.gov.au/def/nrm/3c2c0ce9-5d47-5e85-952d-1e8584d9d9d0"
    ],
    [
      "ZD",
      "Closed heathland",
      "Refers to the NVIS dominant vegetation structural formation class, with a percent cover of about >80% members of heath shrubs (e.g., members of Ericaceae, Myrtaceae). ",
      "https://linked.data.gov.au/def/nrm/c1781447-eaa9-534a-8d3a-4935cc0ab29e"
    ],
    [
      "ZI",
      "Isolated heath shrub",
      "",
      ""
    ],
    [
      "ZL",
      "Isolated clump of heath shrubs",
      "Refers to the type of habitat characterised by isolated clumps of heath or heath-like shrubs.",
      "https://linked.data.gov.au/def/nrm/e1dd0210-be1b-548e-aa4b-5567d973a9f5"
    ],
    [
      "ZM",
      "Heathland",
      "Refers to the NVIS dominant vegetation structural formation class, with a percent cover of about 50-80% members of Heath (e.g., Ericaceae, Myrtaceae). ",
      "https://linked.data.gov.au/def/nrm/517d2f98-9d24-5b68-b8d8-f5393eba310a"
    ],
    [
      "ZS",
      "Open heath",
      "Refers to the NVIS dominant vegetation structural formation class, with a percent cover of about 20-50% of heaths (e.g., Ericaceae, Myrtaceae). ",
      "https://linked.data.gov.au/def/nrm/c904cc78-d7f8-5645-9d28-632af88c1d98"
    ],
    [
      "ZV",
      "Sparse heath",
      "Refers to the NVIS dominant vegetation structural formation class, with a percent cover of about 0.25-20% of members of heath (e.g., Ericaceae, Myrtaceae). ",
      "https://linked.data.gov.au/def/nrm/8a8ac1b4-3906-58ea-be1f-9bc51c2d17f1"
    ]
  ]
}