{
  "kind": "collectionType",
  "collectionName": "lut_targeted_trap_types",
  "info": {
    "singularName": "lut-targeted-trap-type",
    "pluralName": "lut-targeted-trap-types",
    "displayName": "lut-targeted-trap-type"
  },
  "options": {
    "draftAndPublish": false
  },
  "pluginOptions": {},
  "attributes": {
    "symbol": {
      "type": "string",
      "required": true,
      "unique": true
    },
    "label": {
      "type": "string",
      "required": true,
      "unique": true
    },
    "description": {
      "type": "text"
    },
    "uri": {
      "type": "string"
    }
  },
  "initialData": [
    ["BT", "Box traps", "", ""],
    ["CT", "Cage traps", "", ""],
    ["PT", "Pitfall traps", "", ""],
    ["MN", "Mist nets", "", ""],
    ["HT", "Harp traps", "", ""],
    ["FT", "Funnel traps", "", ""]
  ]
}
