{
  "kind": "collectionType",
  "collectionName": "invertebrate_rapid_ground_trappings",
  "info": {
    "singularName": "invertebrate-rapid-ground-trapping",
    "pluralName": "invertebrate-rapid-ground-trappings",
    "displayName": "invertebrate-rapid-ground-trapping",
    "description": ""
  },
  "options": {
    "increments": true,
    "timestamps": true,
    "draftAndPublish": false
  },
  "attributes": {
    "plot_visit": {
      "type": "relation",
      "relation": "oneToOne",
      "target": "api::plot-visit.plot-visit"
    },
    "repeat_monitoring": {
      "type": "boolean",
      "default": false
    },
    "observers": {
      "type": "component",
      "repeatable": true,
      "component": "observers.observers"
    },
    "weather": {
      "type": "component",
      "repeatable": false,
      "component": "weather.weather"
    },
    "trap_diameter": {
      "type": "decimal",
      "required": true,
      "x-paratoo-unit": "cm",
      "min": 0,
      "max": 5
    },
    "trap_length": {
      "type": "decimal",
      "required": true,
      "x-paratoo-unit": "cm",
      "min": 0,
      "max": 10
    },
    "number_of_traps": {
      "type": "integer",
      "min": 0,
      "max": 3,
      "required": true
    },
    "bait_type": {
      "type": "string",
      "required": true,
      "x-paratoo-hint": "Select the bait types used. Multiple selection is possible and the number of bait types selected must match the number of traps per trap site"
    },
    "bait_details": {
      "type": "text",
      "x-paratoo-hint": "e.g. brand, flavour etc."
    },
    "landscape_photo": {
      "type": "media",
      "multiple": false,
      "required": true,
      "allowedTypes": [
        "images"
      ]
    },
    "start_trapping_event": {
      "x-paratoo-required": true,
      "displayName": "trapping-event",
      "type": "component",
      "repeatable": false,
      "component": "invertebrate.trapping-event"
    },
    "end_trapping_event": {
      "x-paratoo-required": true,
      "type": "component",
      "repeatable": false,
      "component": "invertebrate.trapping-event"
    },
    "trap_site": {
      "x-paratoo-required": true,
      "displayName": "rapid-trap-site",
      "type": "component",
      "repeatable": true,
      "component": "invertebrate.rapid-trap-site"
    },
    "start_date_time": {
      "type": "datetime",
      "required": true
    },
    "end_date_time": {
      "type": "datetime",
      "required": true
    },
    "survey_metadata": {
      "type": "component",
      "repeatable": false,
      "component": "survey-metadata.metadata",
      "x-paratoo-required": true
    },
    "abis_export_uuid": {
      "type": "string",
      "unique": true
    }
  }
}