{
  "collectionName": "planting_method",
  "info": {
    "displayName": "custom-lut-intervention-planting-method"
  },
  "options": {},
  "attributes": {
    "planting_method_lut": {
      "type": "relation",
      "relation": "oneToOne",
      "target": "api::lut-intervention-planting-method.lut-intervention-planting-method"
    },
    "planting_method_text": {
      "type": "string"
    }
  }
}
