{
  "collectionName": "erosion_treatment_type",
  "info": {
    "displayName": "custom-lut-intervention-erosion-treatment-type"
  },
  "options": {},
  "attributes": {
    "erosion_treatment_type_lut": {
      "type": "relation",
      "relation": "oneToOne",
      "target": "api::lut-intervention-erosion-treatment-type.lut-intervention-erosion-treatment-type"
    },
    "erosion_treatment_type_text": {
      "type": "string"
    }
  }
}
