{
  "collectionName": "custom_lut_cat_coat_colour",
  "info": {
    "displayName": "custom-lut-cat-coat-colour"
  },
  "options": {},
  "attributes": {
    "cat_coat_colour_lut": {
      "type": "relation",
      "relation": "oneToOne",
      "target": "api::lut-cat-coat-colour.lut-cat-coat-colour"
    },
    "cat_coat_colour_text": {
      "type": "string"
    }
  }
}
