{
  "collectionName": "remediation_type",
  "info": {
    "displayName": "custom-lut-intervention-remediation-type"
  },
  "options": {},
  "attributes": {
    "remediation_type_lut": {
      "type": "relation",
      "relation": "oneToOne",
      "target": "api::lut-intervention-remediation-type.lut-intervention-remediation-type"
    },
    "remediation_type_text": {
      "type": "string"
    }
  }
}
