{
  "collectionName": "custom_lut_landscape_categories",
  "info": {
    "displayName": "custom-lut-landscape-category"
  },
  "options": {},
  "attributes": {
    "landscape_category_lut": {
      "type": "relation",
      "relation": "oneToOne",
      "target": "api::lut-landscape-category.lut-landscape-category"
    },
    "landscape_category_text": {
      "type": "string"
    }
  }
}
