{
  "collectionName": "custom_lut_vantage_point_types",
  "info": {
    "displayName": "Custom-Lut-Vantage-Point-Type"
  },
  "options": {},
  "attributes": {
    "vantage_point_type_text": {
      "type": "string"
    },
    "vantage_point_type_lut": {
      "type": "relation",
      "relation": "oneToOne",
      "target": "api::lut-vantage-point-type.lut-vantage-point-type"
    }
  }
}
