{
  "collectionName": "components_custom_lut_custom_lut_uav_types",
  "info": {
    "displayName": "custom-lut-uav-type"
  },
  "options": {},
  "attributes": {
    "uav_type_lut": {
      "type": "relation",
      "relation": "oneToOne",
      "target": "api::lut-uav-type.lut-uav-type"
    },
    "uav_type_text": {
      "type": "string"
    }
  }
}
