{
  "collectionName": "components_revisit_reasons",
  "info": {
    "displayName": "revisit-reason"
  },
  "options": {},
  "attributes": {
    "revisit_reason_lut": {
      "type": "relation",
      "relation": "oneToOne",
      "target": "api::lut-revisit-reason.lut-revisit-reason"
    },
    "revisit_reason_text": {
      "type": "text"
    }
  }
}
