{
  "kind": "collectionType",
  "collectionName": "malaise_biomasses",
  "info": {
    "singularName": "malaise-biomass",
    "pluralName": "malaise-biomasses",
    "displayName": "malaise-biomass"
  },
  "options": {
    "draftAndPublish": false
  },
  "attributes": {
    "malaise_trapping": {
      "type": "relation",
      "relation": "oneToOne",
      "target": "api::invertebrate-malaise-trapping.invertebrate-malaise-trapping"
    },
    "barcode": {
      "type": "string",
      "required": true
    },
    "trapId": {
      "type": "string",
      "required": true
    },
    "empty_filter_weight": {
      "type": "decimal",
      "x-paratoo-unit": "g",
      "min": 0,
      "required": true,
      "x-paratoo-hint": "Record weight to the nearest 0.01 g"
    },
    "filter_weight_with_sample": {
      "type": "decimal",
      "x-paratoo-unit": "g",
      "min": 0,
      "required": true,
      "x-paratoo-hint": "Record weight to the nearest 0.01 g"
    },
    "sample_biomass": {
      "type": "decimal",
      "x-paratoo-unit": "g",
      "required": true,
      "min": 0,
      "x-paratoo-hint": "Automatically calculated sample biomass minus the filter weight"
    },
    "abis_export_uuid": {
      "type": "string",
      "unique": true
    }
  }
}