{
  "kind": "collectionType",
  "collectionName": "floristics_veg_virtual_vouchers",
  "info": {
    "singularName": "floristics-veg-virtual-voucher",
    "pluralName": "floristics-veg-virtual-vouchers",
    "displayName": "Floristics-veg-virtual-voucher"
  },
  "options": {
    "draftAndPublish": false
  },
  "attributes": {
    "survey": {
      "type": "relation",
      "relation": "oneToOne",
      "target": "api::floristics-veg-survey-lite.floristics-veg-survey-lite",
      "x-paratoo-required": true
    },
    "voucher_lite": {
      "type": "relation",
      "relation": "oneToOne",
      "target": "api::floristics-veg-voucher-lite.floristics-veg-voucher-lite"
    },
    "voucher_full": {
      "type": "relation",
      "relation": "oneToOne",
      "target": "api::floristics-veg-voucher-full.floristics-veg-voucher-full"
    },
    "growth_form_1": {
      "type": "relation",
      "x-paratoo-required": true,
      "relation": "oneToOne",
      "target": "api::lut-veg-growth-form.lut-veg-growth-form"
    },
    "growth_form_2": {
      "type": "relation",
      "relation": "oneToOne",
      "target": "api::lut-veg-growth-form.lut-veg-growth-form",
      "x-paratoo-hint": "If more than one growth form is present in the plot"
    },
    "habit": {
      "type": "component",
      "repeatable": true,
      "component": "multi-lut.floristics-habit"
    },
    "phenology": {
      "type": "component",
      "repeatable": true,
      "component": "multi-lut.floristics-phenology"
    },
    "host_species": {
      "type": "string",
      "required": false,
      "x-paratoo-hint": "The 'Ephiphyte' growth form was specified, so indicate which of the vouchers you've collected is the host species (even if this re-collected voucher has already had a host species collected in another plot)"
    },
    "plant_photo": {
      "type": "component",
      "repeatable": false,
      "component": "photo.multi-photo-only",
      "required": true
    },
    "leaf_photo": {
      "type": "component",
      "repeatable": false,
      "component": "photo.multi-photo-only",
      "required": true
    },
    "flower_photo": {
      "type": "component",
      "repeatable": false,
      "component": "photo.multi-photo-only"
    },
    "bud_photo": {
      "type": "component",
      "repeatable": false,
      "component": "photo.multi-photo-only"
    },
    "fruit_photo": {
      "type": "component",
      "repeatable": false,
      "component": "photo.multi-photo-only"
    },
    "seed_photo": {
      "type": "component",
      "repeatable": false,
      "component": "photo.multi-photo-only"
    },
    "stem_photo": {
      "type": "component",
      "repeatable": false,
      "component": "photo.multi-photo-only"
    },
    "bark_photo": {
      "type": "component",
      "repeatable": false,
      "component": "photo.multi-photo-only"
    },
    "roots_photo": {
      "type": "component",
      "repeatable": false,
      "component": "photo.multi-photo-only"
    },
    "other_photo": {
      "type": "component",
      "repeatable": true,
      "component": "photo.multi-photo-only"
    },
    "date_time": {
      "type": "datetime",
      "required": true
    },
    "abis_export_uuid": {
      "type": "string",
      "unique": true
    }
  }
}