{
  "kind": "collectionType",
  "collectionName": "lut_fauna_taxa_types",
  "info": {
    "singularName": "lut-fauna-taxa-type",
    "pluralName": "lut-fauna-taxa-types",
    "displayName": "LUT Fauna Taxa Type"
  },
  "options": {
    "draftAndPublish": false
  },
  "attributes": {
    "symbol": {
      "type": "string",
      "required": true,
      "unique": true
    },
    "label": {
      "type": "string",
      "required": true,
      "unique": true
    },
    "description": {
      "type": "text"
    },
    "uri": {
      "type": "string"
    }
  },
  "initialData": [
    [
      "AM",
      "Amphibian",
      "",
      ""
    ],
    [
      "BI",
      "Bird",
      "",
      ""
    ],
    [
      "INV",
      "Invertebrate",
      "",
      ""
    ],
    [
      "MA",
      "Mammal",
      "",
      ""
    ],
    [
      "RE",
      "Reptile",
      "",
      ""
    ]
  ]
}