{
  "kind": "collectionType",
  "collectionName": "track_station_observations",
  "info": {
    "singularName": "sign-based-track-station-observation",
    "pluralName": "sign-based-track-station-observations",
    "displayName": "sign-based-track-station-observation"
  },
  "options": {
    "draftAndPublish": false
  },
  "attributes": {
    "survey": {
      "type": "relation",
      "relation": "oneToOne",
      "target": "api::sign-based-track-station-setup.sign-based-track-station-setup"
    },
    "station_ID": {
      "type": "string",
      "required": true
    },
    "setup_ID": {
      "type": "string",
      "required": true,
      "x-paratoo-rename": "Setup ID"
    },
    "tracks_observed": {
      "type": "boolean"
    },
    "observations": {
      "type": "relation",
      "relation": "oneToMany",
      "target": "api::sign-based-track-station-log.sign-based-track-station-log",
      "x-paratoo-rename": "Track encountered"
    },
    "abis_export_uuid": {
      "type": "string",
      "unique": true
    }
  }
}