{
  "collectionName": "components_vertebrate_body",
  "info": {
    "displayName": "body_condition"
  },
  "options": {},
  "attributes": {
    "body_condition_score": {
      "type": "relation",
      "relation": "oneToOne",
      "target": "api::lut-vertebrate-body-condition.lut-vertebrate-body-condition"
    },
    "body_condition_comments": {
      "type": "string"
    },
    "skin_condition": {
      "type": "relation",
      "relation": "oneToOne",
      "target": "api::lut-skin-condition.lut-skin-condition"
    }
  }
}
