{
  "collectionName": "components_vertebrate_captured_measurements",
  "info": {
    "displayName": "captured_measurement"
  },
  "options": {},
  "attributes": {
    "head_length": {
      "type": "decimal",
      "x-paratoo-unit": "mm",
      "min": 0
    },
    "body_length": {
      "type": "decimal",
      "x-paratoo-unit": "mm",
      "min": 0
    },
    "tail_length": {
      "type": "decimal",
      "x-paratoo-unit": "mm",
      "min": 0
    },
    "hind_foot_length": {
      "type": "decimal",
      "x-paratoo-unit": "mm",
      "min": 0
    },
    "forearm_length": {
      "type": "decimal",
      "x-paratoo-unit": "mm",
      "min": 0,
      "x-paratoo-hint": "Bats only"
    },
    "tibia_length": {
      "type": "decimal",
      "x-paratoo-unit": "mm",
      "min": 0,
      "x-paratoo-hint": "Bats and frogs only"
    },
    "ear_width": {
      "type": "decimal",
      "x-paratoo-unit": "mm",
      "min": 0,
      "x-paratoo-hint": "Only use for species where the ear width is a diagnostic feature"
    },
    "ear_length": {
      "type": "decimal",
      "x-paratoo-unit": "mm",
      "min": 0,
      "x-paratoo-hint": "Only use for species where the ear width is a diagnostic feature"
    }
  }
}
