{
  "kind": "collectionType",
  "collectionName": "basal_area_fulls_obs",
  "info": {
    "singularName": "basal-area-dbh-measure-observation",
    "pluralName": "basal-area-dbh-measure-observations",
    "displayName": "basal-area-dbh-measure-observation",
    "name": "basal-area-dbh-measure-observation",
    "description": ""
  },
  "options": {
    "increments": true,
    "timestamps": true,
    "draftAndPublish": false
  },
  "attributes": {
    "location": {
      "type": "component",
      "repeatable": false,
      "component": "location.location",
      "required": true
    },
    "floristics_voucher": {
      "type": "component",
      "component": "vegetation.floristics-voucher",
      "required": true
    },
    "dead": {
      "type": "boolean",
      "default": false
    },
    "multi_stemmed": {
      "type": "boolean",
      "x-paratoo-rename": "Multi-stemmed",
      "default": false,
      "x-paratoo-hint": "Trees with two or more main stems that arise between near ground level and below breast height (1.3 m above ground level) but grow from one root system.",
      "x-paratoo-description": "MultiStemmedTree"
    },
    "ellipse": {
      "type": "boolean",
      "default": false,
      "x-paratoo-hint": "Trees with an elliptical rather than circular shaped trunk or stem"
    },
    "stem_1": {
      "type": "component",
      "repeatable": false,
      "component": "basal-area.single-stem"
    },
    "stem": {
      "type": "component",
      "repeatable": true,
      "component": "basal-area.multi-stemmed-tree"
    },
    "buttresses": {
      "type": "boolean",
      "x-paratoo-rename": "Buttressed Tree",
      "default": false,
      "x-paratoo-hint": "Trees with buttressed roots – roots that grow laterally out from the trunk that help to support the tree (e.g. Moreton Bay Fig).",
      "x-paratoo-description": "ButtressedTree"
    },
    "buttressed_tree": {
      "type": "component",
      "repeatable": false,
      "component": "basal-area.buttressed-tree"
    },
    "basal_area_dbh_measure_survey_full": {
      "type": "relation",
      "relation": "oneToOne",
      "target": "api::basal-area-dbh-measure-survey.basal-area-dbh-measure-survey"
    },
    "date_time": {
      "type": "datetime",
      "required": true
    },
    "abis_export_uuid": {
      "type": "string",
      "unique": true
    }
  }
}