{
	"openapi": "3.0.0",
	"info": {
		"version": "1.0.0",
		"title": "Paratoo FDCP API",
		"description": "",
		"termsOfService": "YOUR_TERMS_OF_SERVICE_URL",
		"contact": {
			"name": "TERN and Sparrow",
			"email": "tech.contact@environmentalmonitoringgroup.com.au",
			"url": "https://www.environmentalmonitoringgroup.com.au/"
		},
		"license": {
			"name": "MIT",
			"url": "https://www.environmentalmonitoringgroup.com.au/"
		}
	},
	"x-strapi-config": {
		"path": "/documentation",
		"showGeneratedFiles": true,
		"generateDefaultResponse": true,
		"plugins": [
			"upload",
			"users-permissions"
		]
	},
	"servers": [
		{
			"url": "http://localhost:1338/api",
			"description": "Development server"
		}
	],
	"externalDocs": {
		"description": "Find out more",
		"url": "https://www.environmentalmonitoringgroup.com.au/"
	}
}
