{
  "apiConfigs1": [
    ["POST", "<org>/validate-token", 200, { "data": true }],
    [
      "GET",
      "<org>/pdp/<project_id>/<protocol_id>/write",
      200,
      { "data": { "isAuthorised": true } }
    ],
    [
      "GET",
      "<org>/status/<org_minted_uuid>",
      200,
      { "data": { "isSubmitted": false } }
    ],
    ["POST", "<org>/collection", 200, { "success": true }]
  ],
  "apiConfigs2": [["POST", "<org>/validate-token", 200, { "data": true }]],
  "apiConfigs3": [
    ["POST", "<org>/validate-token", 200, { "data": true }],
    [
      "GET",
      "<org>/pdp/<project_id>/<protocol_id>/write",
      200,
      { "data": { "isAuthorised": true } }
    ]
  ],
  "apiConfigs4": [
    ["POST", "<org>/validate-token", 200, { "data": true }],
    [
      "GET",
      "<org>/pdp/<project_id>/<protocol_id>/read",
      200,
      { "data": { "isAuthorised": true } }
    ]
  ],
  "apiConfigs5": [
    ["POST", "<org>/validate-token", 200, { "data": true }],
    [
      "GET",
      "<org>/pdp/<project_id>/<protocol_id>/write",
      200,
      { "data": { "isAuthorised": true } }
    ],
    [
      "GET",
      "<org>/status/<org_minted_uuid>",
      200,
      { "data": { "isSubmitted": false } }
    ],
    ["POST", "<org>/collection", 200, { "success": true }]
  ],
  "apiConfigs6": [
    ["POST", "<org>/validate-token", 200, { "data": true }],
    [
      "GET",
      "<org>/pdp/<project_id>/<protocol_id>/write",
      200,
      { "data": { "isAuthorised": true } }
    ],
    [
      "GET",
      "<org>/status/<org_minted_uuid>",
      200,
      { "data": { "isSubmitted": false } }
    ]
  ],
  "bulkEndpoint1": "/api/bird-surveys/bulk",
  "validJwt1": "Bearer eyJhbGciOiJIUzI1NiIsInR5cCI6IkpXVCJ9.eyJpZCI6MSwiaWF0IjoxNjUxNDcwOTc5LCJleHAiOjE2NTQwNjI5Nzl9.LIDkASm6kbWfR9FbV5Bp48uPkEm3Dw4z0Q9oEoCggXc",
  "projectIds1": {
    "int": ["1", "2"],
    "uuid": [
      "507fb6d4-22af-4e76-852b-5c78bd6b2b6c",
      "a0f57791-e858-4f33-ae8e-7e3e3fffb447"
    ]
  },
  "protocols1": [
    {
      "id": 1,
      "identifier": "c1b38b0f-a888-4f28-871b-83da2ac1e533",
      "name": "test protocol 1",
      "version": 1,
      "module": "test module"
    },
    {
      "id": 2,
      "identifier": "068d17e8-e042-ae42-1e42-cff4006e64b0",
      "name": "test protocol 2",
      "version": 1,
      "module": "test module"
    }
  ],
  "protocolUuids1": [
    "c1b38b0f-a888-4f28-871b-83da2ac1e533",
    "068d17e8-e042-ae42-1e42-cff4006e64b0"
  ],
  "body1": {
    "data": {
      "collections": [
        {
          "plot-layout": {
            "id": 1
          },
          "plot-visit": {
            "id": 1
          },
          "bird-survey": {
            "data": {
              "start_date": "2023-12-20T09:35:07.870Z",
              "end_date": "2023-12-20T09:36:23.079Z",
              "number_of_surveyors": 1,
              "surveyor_names": [
                {
                  "observer_name": "Abc",
                  "role": [
                    {
                      "lut": "S"
                    }
                  ]
                }
              ],
              "plot_type": "C",
              "survey_type": "202",
              "playback_used": true,
              "survey_metadata": {
                "survey_details": {
                  "survey_model": "bird-survey",
                  "time": "2024-03-06T23:30:12.304Z",
                  "uuid": "78f5ae27-3082-41f5-a10a-080162ecd8d1",
                  "project_id": "1",
                  "protocol_id": "39da41f1-dd45-4838-ae57-ea50588fd2bc",
                  "protocol_version": "1"
                },
                "provenance": {
                  "version_app": "0.0.1-xxxxx",
                  "version_core_documentation": "0.0.0-xxxx",
                  "system_app": "Monitor FDCP API--localdev",
                  "version_org": "0.0.0-xxxx",
                  "system_org": "Monitor FDCP API-development"
                },
                "orgMintedUUID": "6de5a010-5eb1-4bbd-8c65-e27005e14dc8"
              },
              "protocol_variant": null
            }
          },
          "bird-survey-observation": [
            {
              "data": {
                "location": {
                  "lat": -34.9765632,
                  "lng": 138.6315776
                },
                "species": "Southern Cassowary [sp] (scientific: Casuarius casuarius)",
                "count": 1,
                "observation_type": "S",
                "activity_type": "ROG",
                "sex": "F",
                "observation_location_type": "WS",
                "breeding_type": "SBE",
                "fauna_maturity": "I",
                "comment": "comment",
                "date_time": "2024-01-01T00:00:00.000Z"
              }
            }
          ],
          "weather-observation": {
            "data": {
              "precipitation": "FO",
              "precipitation_duration": "P",
              "wind_description": "SG",
              "cloud_cover": "MC",
              "temperature": 1,
              "moon_phase": "FM"
            }
          },
          "orgMintedIdentifier": "eyJ1c2VySWQiOjEsImV2ZW50VGltZSI6IjIwMjQtMDUtMjhUMDI6MjY6MzEuODc3WiIsInN1cnZleV9tZXRhZGF0YSI6eyJzdXJ2ZXlfZGV0YWlscyI6eyJzdXJ2ZXlfbW9kZWwiOiJiaXJkLXN1cnZleSIsInRpbWUiOiIyMDI0LTAzLTA2VDIzOjMwOjEyLjMwNFoiLCJ1dWlkIjoiNzhmNWFlMjctMzA4Mi00MWY1LWExMGEtMDgwMTYyZWNkOGQxIiwicHJvamVjdF9pZCI6IjEiLCJwcm90b2NvbF9pZCI6IjM5ZGE0MWYxLWRkNDUtNDgzOC1hZTU3LWVhNTA1ODhmZDJiYyIsInByb3RvY29sX3ZlcnNpb24iOiIxIn0sInByb3ZlbmFuY2UiOnsidmVyc2lvbl9hcHAiOiIwLjAuMS14eHh4eCIsInZlcnNpb25fY29yZV9kb2N1bWVudGF0aW9uIjoiMC4wLjAteHh4eCIsInN5c3RlbV9hcHAiOiJNb25pdG9yIEZEQ1AgQVBJLS1sb2NhbGRldiIsInZlcnNpb25fb3JnIjoiMC4wLjAteHh4eCIsInN5c3RlbV9vcmciOiJNb25pdG9yIEZEQ1AgQVBJLWRldmVsb3BtZW50In0sIm9yZ01pbnRlZFVVSUQiOiI2ZGU1YTAxMC01ZWIxLTRiYmQtOGM2NS1lMjcwMDVlMTRkYzgifX0="
        }
      ]
    },
    "role": "collector"
  },
  "response1": {
    "int": {
      "projects": [
        {
          "id": 500,
          "name": "test project 1",
          "project_area": null,
          "plot_selections": [],
          "role": "collector"
        },
        {
          "id": 501,
          "name": "test project 2",
          "project_area": null,
          "plot_selections": [],
          "role": "collector"
        }
      ]
    },
    "uuid": {
      "projects": [
        {
          "id": 500,
          "name": "test project 1",
          "project_area": null,
          "plot_selections": [],
          "role": "collector"
        },
        {
          "id": 501,
          "name": "test project 2",
          "project_area": null,
          "plot_selections": [],
          "role": "collector"
        }
      ]
    }
  },
  "bulkEndpoint2": "/api/plot-definition-surveys/bulk",
  "validJwt2": "Bearer eyJhbGciOiJIUzI1NiIsInR5cCI6IkpXVCJ9.eyJpZCI6MSwiZm9yY2VUb2tlbkV4cGlyeSI6eyJmb3JjZUp3dEV4cGlyeSI6bnVsbCwiZm9yY2VSZWZyZXNoRXhwaXJ5IjpudWxsfSwiaWF0IjoxNzMxNjMxNzE3LCJleHAiOjE3MzQyMjM3MTd9.4l39BTg_BD6fTH1XM-KRG-WgJwqidk1dffvaYfRTjBA",
  "body2": {
    "data": {
        "collections": [
            {
                "plot-definition-survey": {
                    "data": {
                        "survey_metadata": {
                            "survey_details": {
                                "survey_model": "plot-definition-survey",
                                "time": "2024-11-15T00:48:48.342Z",
                                "uuid": "b2621bcb-a516-42c5-9948-4af3c34d6076",
                                "project_id": "1",
                                "protocol_id": "d7179862-1be3-49fc-8ec9-2e219c6f3854",
                                "protocol_version": "1",
                                "submodule_protocol_id": ""
                            },
                            "provenance": {
                                "version_app": "0.0.1-xxxxx",
                                "version_core_documentation": "0.0.0-xxxx",
                                "system_app": "monitor webApp-localdev-129.127.204.150-Mozilla/5.0 (X11; Linux x86_64) AppleWebKit/537.36 (KHTML, like Gecko) Chrome/129.0.0.0 Safari/537.36"
                            },
                            "org_opaque_user_id": "1"
                        }
                    }
                },
                "plot-layout": {
                    "id": 5
                },
                "plot-visit": {
                    "data": {
                        "start_date": "2024-11-15T00:48:54.543Z",
                        "visit_field_name": "test 1",
                        "plot_layout": 5,
                        "temp_offline_id": "91dc8006-ea8f-4dd3-85ff-885d51790fc7",
                        "flattened_id": "91dc8006-ea8f-4dd3-85ff-885d51790fc7"
                    }
                },
                "orgMintedIdentifier": "eyJ1c2VySWQiOjEsImV2ZW50VGltZSI6IjIwMjQtMTEtMTVUMDE6Mjg6MjUuMDk0WiIsInN1cnZleV9tZXRhZGF0YSI6eyJzdXJ2ZXlfZGV0YWlscyI6eyJzdXJ2ZXlfbW9kZWwiOiJwbG90LWRlZmluaXRpb24tc3VydmV5IiwidGltZSI6IjIwMjQtMTEtMTVUMDA6NDg6NDguMzQyWiIsInV1aWQiOiJiMjYyMWJjYi1hNTE2LTQyYzUtOTk0OC00YWYzYzM0ZDYwNzYiLCJwcm9qZWN0X2lkIjoiMSIsInByb3RvY29sX2lkIjoiZDcxNzk4NjItMWJlMy00OWZjLThlYzktMmUyMTljNmYzODU0IiwicHJvdG9jb2xfdmVyc2lvbiI6IjEiLCJzdWJtb2R1bGVfcHJvdG9jb2xfaWQiOiIifSwicHJvdmVuYW5jZSI6eyJ2ZXJzaW9uX2FwcCI6IjAuMC4xLXh4eHh4IiwidmVyc2lvbl9jb3JlX2RvY3VtZW50YXRpb24iOiIwLjAuMC14eHh4Iiwic3lzdGVtX2FwcCI6Im1vbml0b3Igd2ViQXBwLWxvY2FsZGV2LTEyOS4xMjcuMjA0LjE1MC1Nb3ppbGxhLzUuMCAoWDExOyBMaW51eCB4ODZfNjQpIEFwcGxlV2ViS2l0LzUzNy4zNiAoS0hUTUwsIGxpa2UgR2Vja28pIENocm9tZS8xMjkuMC4wLjAgU2FmYXJpLzUzNy4zNiIsInZlcnNpb25fb3JnIjoiMC4wLjAteHh4eCIsInN5c3RlbV9vcmciOiJNb25pdG9yIEZEQ1AgQVBJLWRldmVsb3BtZW50In0sIm9yZ19vcGFxdWVfdXNlcl9pZCI6IjEiLCJvcmdNaW50ZWRVVUlEIjoiMTVlMjg0ZDgtMjY2Yi00NDYzLWI5NTktYTMwMjdlNjY4ZTU1In19"
            }
        ]
    },
    "role": "collector"
  },
  "projectId2": "1",
  "protocolId2": "d7179862-1be3-49fc-8ec9-2e219c6f3854",
  "orgMintedUuid2": "15e284d8-266b-4463-b959-a3027e668e55",
  "body3": {
    "data": {
        "collections": [
            {
                "plot-definition-survey": {
                    "data": {
                        "survey_metadata": {
                            "survey_details": {
                                "survey_model": "plot-definition-survey",
                                "time": "2024-11-15T00:48:48.342Z",
                                "uuid": "b2621bcb-a516-42c5-9948-4af3c34d6076",
                                "project_id": "1",
                                "protocol_id": "d7179862-1be3-49fc-8ec9-2e219c6f3854",
                                "protocol_version": "1",
                                "submodule_protocol_id": ""
                            },
                            "provenance": {
                                "version_app": "0.0.1-xxxxx",
                                "version_core_documentation": "0.0.0-xxxx",
                                "system_app": "monitor webApp-localdev-129.127.204.150-Mozilla/5.0 (X11; Linux x86_64) AppleWebKit/537.36 (KHTML, like Gecko) Chrome/129.0.0.0 Safari/537.36"
                            },
                            "org_opaque_user_id": "1"
                        }
                    }
                },
                "plot-layout": {
                    "id": 5
                },
                "plot-visit": {
                    "data": {
                        "start_date": "2024-11-15T00:48:54.543Z",
                        "visit_field_name": "test 1",
                        "plot_layout": 5,
                        "temp_offline_id": "91dc8006-ea8f-4dd3-85ff-885d51790fc7",
                        "flattened_id": "91dc8006-ea8f-4dd3-85ff-885d51790fc7"
                    }
                },
                "orgMintedIdentifier": "eyJ1c2VySWQiOjEsImV2ZW50VGltZSI6IjIwMjQtMTEtMTVUMDE6NDE6NTguNTEzWiIsInN1cnZleV9tZXRhZGF0YSI6eyJzdXJ2ZXlfZGV0YWlscyI6eyJzdXJ2ZXlfbW9kZWwiOiJwbG90LWRlZmluaXRpb24tc3VydmV5IiwidGltZSI6IjIwMjQtMTEtMTVUMDA6NDg6NDguMzQyWiIsInV1aWQiOiJiMjYyMWJjYi1hNTE2LTQyYzUtOTk0OC00YWYzYzM0ZDYwNzYiLCJwcm9qZWN0X2lkIjoiMSIsInByb3RvY29sX2lkIjoiZDcxNzk4NjItMWJlMy00OWZjLThlYzktMmUyMTljNmYzODU0IiwicHJvdG9jb2xfdmVyc2lvbiI6IjEiLCJzdWJtb2R1bGVfcHJvdG9jb2xfaWQiOiIifSwicHJvdmVuYW5jZSI6eyJ2ZXJzaW9uX2FwcCI6IjAuMC4xLXh4eHh4IiwidmVyc2lvbl9jb3JlX2RvY3VtZW50YXRpb24iOiIwLjAuMC14eHh4Iiwic3lzdGVtX2FwcCI6Im1vbml0b3Igd2ViQXBwLWxvY2FsZGV2LTEyOS4xMjcuMjA0LjE1MC1Nb3ppbGxhLzUuMCAoWDExOyBMaW51eCB4ODZfNjQpIEFwcGxlV2ViS2l0LzUzNy4zNiAoS0hUTUwsIGxpa2UgR2Vja28pIENocm9tZS8xMjkuMC4wLjAgU2FmYXJpLzUzNy4zNiIsInZlcnNpb25fb3JnIjoiMC4wLjAteHh4eCIsInN5c3RlbV9vcmciOiJNb25pdG9yIEZEQ1AgQVBJLWRldmVsb3BtZW50In0sIm9yZ19vcGFxdWVfdXNlcl9pZCI6IjEiLCJvcmdNaW50ZWRVVUlEIjoiMGY1ZTYyMDctMmJhMi00YTBiLTk3MjQtMGMzM2ZkYjg3ZjBiIn19"
            }
        ]
    },
    "role": "collector"
  },
  "orgMintedUuid3": "0f5e6207-2ba2-4a0b-9724-0c33fdb87f0b",
  "body4": {
    "data": {
        "collections": [
            {
                "plot-definition-survey": {
                    "data": {
                        "survey_metadata": {
                            "survey_details": {
                                "survey_model": "plot-definition-survey",
                                "time": "2024-11-15T00:48:48.342Z",
                                "uuid": "b2621bcb-a516-42c5-9948-4af3c34d6076",
                                "project_id": "1",
                                "protocol_id": "d7179862-1be3-49fc-8ec9-2e219c6f3854",
                                "protocol_version": "1",
                                "submodule_protocol_id": ""
                            },
                            "provenance": {
                                "version_app": "0.0.1-xxxxx",
                                "version_core_documentation": "0.0.0-xxxx",
                                "system_app": "monitor webApp-localdev-129.127.204.150-Mozilla/5.0 (X11; Linux x86_64) AppleWebKit/537.36 (KHTML, like Gecko) Chrome/129.0.0.0 Safari/537.36"
                            },
                            "org_opaque_user_id": "1"
                        }
                    }
                },
                "plot-layout": {
                    "id": 5
                },
                "plot-visit": {
                    "data": {
                        "start_date": "2024-11-17T00:48:54.543Z",
                        "visit_field_name": "test 1",
                        "plot_layout": 5,
                        "temp_offline_id": "91dc8006-ea8f-4dd3-85ff-885d51790fc7",
                        "flattened_id": "91dc8006-ea8f-4dd3-85ff-885d51790fc7"
                    }
                },
                "orgMintedIdentifier": "eyJ1c2VySWQiOjEsImV2ZW50VGltZSI6IjIwMjQtMTEtMTVUMDI6MTk6MTIuOTIxWiIsInN1cnZleV9tZXRhZGF0YSI6eyJzdXJ2ZXlfZGV0YWlscyI6eyJzdXJ2ZXlfbW9kZWwiOiJwbG90LWRlZmluaXRpb24tc3VydmV5IiwidGltZSI6IjIwMjQtMTEtMTVUMDA6NDg6NDguMzQyWiIsInV1aWQiOiJiMjYyMWJjYi1hNTE2LTQyYzUtOTk0OC00YWYzYzM0ZDYwNzYiLCJwcm9qZWN0X2lkIjoiMSIsInByb3RvY29sX2lkIjoiZDcxNzk4NjItMWJlMy00OWZjLThlYzktMmUyMTljNmYzODU0IiwicHJvdG9jb2xfdmVyc2lvbiI6IjEiLCJzdWJtb2R1bGVfcHJvdG9jb2xfaWQiOiIifSwicHJvdmVuYW5jZSI6eyJ2ZXJzaW9uX2FwcCI6IjAuMC4xLXh4eHh4IiwidmVyc2lvbl9jb3JlX2RvY3VtZW50YXRpb24iOiIwLjAuMC14eHh4Iiwic3lzdGVtX2FwcCI6Im1vbml0b3Igd2ViQXBwLWxvY2FsZGV2LTEyOS4xMjcuMjA0LjE1MC1Nb3ppbGxhLzUuMCAoWDExOyBMaW51eCB4ODZfNjQpIEFwcGxlV2ViS2l0LzUzNy4zNiAoS0hUTUwsIGxpa2UgR2Vja28pIENocm9tZS8xMjkuMC4wLjAgU2FmYXJpLzUzNy4zNiIsInZlcnNpb25fb3JnIjoiMC4wLjAteHh4eCIsInN5c3RlbV9vcmciOiJNb25pdG9yIEZEQ1AgQVBJLWRldmVsb3BtZW50In0sIm9yZ19vcGFxdWVfdXNlcl9pZCI6IjEiLCJvcmdNaW50ZWRVVUlEIjoiNTVmOTUzZGEtNDRiOC00ZGQ5LWJiZmYtZDhhNGMzMzJhYzIyIn19"
            }
        ]
    },
    "role": "collector"
  },
  "orgMintedUuid4": "55f953da-44b8-4dd9-bbff-d8a4c332ac22"
}
