{
  "kind": "collectionType",
  "collectionName": "lut_intervention_pest_controls",
  "info": {
    "singularName": "lut-intervention-pest-control",
    "pluralName": "lut-intervention-pest-controls",
    "displayName": "Lut-intervention-pest-control",
    "name": "lut-intervention-pest-control",
    "uri": "https://linked.data.gov.au/def/nrm/41e62670-ee74-48fa-898c-9bc715009268"
  },
  "options": {
    "increments": true,
    "timestamps": true,
    "draftAndPublish": false
  },
  "attributes": {
    "symbol": {
      "type": "string",
      "required": true,
      "unique": true
    },
    "label": {
      "type": "string",
      "required": true,
      "unique": true
    },
    "description": {
      "type": "text"
    },
    "uri": {
      "type": "string"
    }
  },
  "initialData": [
    [
      "AS",
      "Aerial Shoot",
      "A method of pest control that involves the use of manned or unmanned aerial vehicles during an intervention activity.",
      "https://linked.data.gov.au/def/nrm/e0fbaaab-3d2f-54b2-89d8-0c3da6b94c12"
    ],
    [
      "BT",
      "Bait and Trap",
      "A method of pest control that involves the use of baits or lures and traps during an intervention activity.",
      "https://linked.data.gov.au/def/nrm/7073a3cc-d82a-5036-a8ea-022060dc40bf"
    ],
    [
      "B",
      "Bait Only",
      "A method of pest control that involves the use of baits or lures during an intervention activity.",
      "https://linked.data.gov.au/def/nrm/ccea3578-58d8-5d6a-9335-b1646a103461"
    ],
    [
      "FFE",
      "Feral Free Enclosure",
      "An area/enclosure free of feral/pest animals built for pest control activity.",
      "https://linked.data.gov.au/def/nrm/e9be40d2-61d7-53f4-b421-a74f1b5ccd50"
    ],
    [
      "EF",
      "Exlcusion Fencing",
      "",
      ""
    ],
    [
      "F",
      "Fumigation",
      "The type of treatment implemented for disease management. The application of smoke, vapor, or gas for the purpose of disinfecting or destroying pests or microorganisms.",
      "https://linked.data.gov.au/def/nrm/c3ca8e8f-ddc9-52d2-96a6-57ea676e67ff"
    ],
    [
      "GS",
      "Ground Shoot",
      "A method that involves targeted elimination of feral or pest animals (e.g., feral pigs, donkeys etc.).",
      "https://linked.data.gov.au/def/nrm/59c68695-fa2f-5322-97f9-c948128b057f"
    ],
    [
      "TC",
      "Trap and Cull",
      "A method involving trapping and eliminating pest animals from the study system.",
      "https://linked.data.gov.au/def/nrm/a193a17f-e8d6-552e-bb2b-241c32ff2d20"
    ],
    [
      "TR",
      "Trap and Remove",
      "A method that involves trapping and removal of pest animals.",
      "https://linked.data.gov.au/def/nrm/db586a91-f7f2-5039-a99f-4f93bd86c971"
    ],
    [
      "O",
      "Other",
      "Represents any 'other' categorical collection NOT listed, actual number to enter.",
      "https://linked.data.gov.au/def/nrm/a96d7507-e823-5f3a-a26b-62313538e0bb"
    ]
  ]
}