{
  "collectionName": "components_multi_lut_data_captureds",
  "info": {
    "displayName": "data-captured"
  },
  "options": {},
  "attributes": {
    "lut": {
      "type": "relation",
      "relation": "oneToOne",
      "target": "api::lut-data-captured-flora.lut-data-captured-flora"
    }
  }
}
