{
  "collectionName": "multi_lut_roles",
  "info": {
    "displayName": "roles"
  },
  "options": {},
  "attributes": {
    "lut": {
      "type": "relation",
      "relation": "oneToOne",
      "target": "api::lut-observer-role.lut-observer-role"
    },
    "other": {
      "type": "string"
    }
  }
}
