{
  "collectionName": "components_multi_lut_survey_intents",
  "info": {
    "displayName": "survey-intent"
  },
  "options": {},
  "attributes": {
    "lut": {
      "type": "relation",
      "relation": "oneToOne",
      "target": "api::lut-fauna-survey-intent.lut-fauna-survey-intent"
    },
    "other": {
      "type": "string"
    }
  }
}
