{
  "collectionName": "components_multi_lut_target_species",
  "info": {
    "displayName": "target-species",
    "description": ""
  },
  "options": {},
  "attributes": {
    "lut": {
      "type": "relation",
      "relation": "oneToOne",
      "target": "api::lut-species-pest.lut-species-pest"
    }
  }
}
