{
  "kind": "collectionType",
  "collectionName": "lut_day_night_recordings",
  "info": {
    "singularName": "lut-day-night-recording",
    "pluralName": "lut-day-night-recordings",
    "displayName": "LUT Day Night Recording"
  },
  "options": {
    "draftAndPublish": false
  },
  "attributes": {
    "symbol": {
      "type": "string",
      "required": true,
      "unique": true
    },
    "label": {
      "type": "string",
      "required": true,
      "unique": true
    },
    "description": {
      "type": "text"
    },
    "uri": {
      "type": "string"
    }
  },
  "initialData": [
    [
      "Day only",
      "Day only",
      "",
      ""
    ],
    [
      "Night only",
      "Night only",
      "",
      ""
    ],
    [
      "Day + night",
      "Day + night",
      "",
      ""
    ]
  ]
}