{
  "kind": "collectionType",
  "collectionName": "lut_vertical_resolutions",
  "info": {
    "singularName": "lut-vertical-resolution",
    "pluralName": "lut-vertical-resolutions",
    "displayName": "lut-vertical-resolution"
  },
  "options": {
    "draftAndPublish": false
  },
  "pluginOptions": {},
  "attributes": {
    "symbol": {
      "type": "string",
      "required": true,
      "unique": true
    },
    "label": {
      "type": "string",
      "required": true,
      "unique": true
    },
    "description": {
      "type": "text"
    },
    "uri": {
      "type": "string"
    }
  },
  "initialData": [
    ["LT1", "< 1 meter", "", ""],
    ["1TO10", "1 meter - < 10 meters", "", ""],
    ["10TO30", "10 meters - < 30 meters", "", ""],
    ["30TO100", "30 meters - < 100 meters", "", ""],
    ["100TO1K", "100 meters - < 1km", "", ""],
    ["GT1K", "> 1 km", "", ""]
  ]
}
