{
  "collectionName": "components_survey_metadata_reserve_plot_provenances",
  "info": {
    "displayName": "reserve-plot-provenance"
  },
  "options": {},
  "attributes": {
    "project_id": {
      "type": "string"
    },
    "org_opaque_user_id": {
      "type": "string"
    },
    "version_app": {
      "type": "string"
    },
    "version_core_documentation": {
      "type": "string"
    },
    "is_core_generated": {
      "type": "boolean",
      "default": false
    }
  }
}
