{
  "collectionName": "components_survey_metadata_survey_details",
  "info": {
    "displayName": "survey_details"
  },
  "options": {},
  "attributes": {
    "survey_model": {
      "type": "string",
      "required": true
    },
    "time": {
      "type": "datetime",
      "required": true
    },
    "uuid": {
      "type": "string",
      "required": true
    },
    "project_id": {
      "type": "string",
      "required": true
    },
    "protocol_id": {
      "type": "string",
      "required": true
    },
    "protocol_version": {
      "type": "string",
      "required": true
    },
    "submodule_protocol_id": {
      "type": "string"
    }
  }
}
