{
  "kind": "collectionType",
  "collectionName": "soil_sub_pit_observations",
  "info": {
    "singularName": "soil-sub-pit-observation",
    "pluralName": "soil-sub-pit-observations",
    "displayName": "soil-sub-pit-observation"
  },
  "options": {
    "draftAndPublish": false
  },
  "attributes": {
    "observation_type": {
      "type": "relation",
      "relation": "oneToOne",
      "target": "api::lut-soils-observation-type.lut-soils-observation-type",
      "required": true
    },
    "soil_pit_depth": {
      "type": "decimal",
      "x-paratoo-unit": "m",
      "min": 0,
      "x-paratoo-symantec-uri": "https://linked.data.gov.au/def/nrm/cc960a7d-33a1-446a-85dc-8d1f8fda9996",
      "required": true
    },
    "digging_stopped_by": {
      "type": "relation",
      "relation": "oneToOne",
      "target": "api::lut-soils-digging-stopped-by.lut-soils-digging-stopped-by",
      "x-paratoo-rename": "Stopped By",
      "required": true
    },
    "soil_pit_photo": {
      "type": "media",
      "multiple": false,
      "required": true,
      "allowedTypes": [
        "images"
      ],
      "x-paratoo-rename": "Soil sub-pit photo",
      "x-paratoo-hint": "Take into consideration the angle of the sun and shadows when choosing which face of the pit to photograph . Before photographing, the face of the soil profile should be picked back to expose the natural ped faces where present. Position the pit tape on the left or right edge of the best face and select the soil sub-pit photo button to capture an image using your device's camera. Alternatively, an external camera can be used to take the photo"
    },
    "comments": {
      "type": "text",
      "x-paratoo-hint": "e.g. Soil characteristics that are present (e.g. coarse fragments, soil moisture, visible layers in the profile, similarity of the soil if a full soil pit has been completed at the plot)"
    },
    "abis_export_uuid": {
      "type": "string",
      "unique": true
    }
  }
}