{
  "kind": "collectionType",
  "collectionName": "vertebrate_active_passive_search_surveys",
  "info": {
    "singularName": "vertebrate-active-passive-search-survey",
    "pluralName": "vertebrate-active-passive-search-surveys",
    "displayName": "vertebrate-active-passive-search-survey"
  },
  "options": {
    "draftAndPublish": false
  },
  "attributes": {
    "plot_visit": {
      "type": "relation",
      "relation": "oneToOne",
      "target": "api::plot-visit.plot-visit"
    },
    "survey_intent": {
      "type": "relation",
      "relation": "oneToOne",
      "target": "api::lut-sign-based-survey-intent.lut-sign-based-survey-intent"
    },
    "observer_details": {
      "displayName": "observer_details",
      "type": "component",
      "repeatable": true,
      "component": "feral.observer-details",
      "required": true,
      "min": 1
    },
    "weather": {
      "type": "component",
      "repeatable": false,
      "component": "weather.weather"
    },
    "tracking_surface": {
      "type": "component",
      "repeatable": false,
      "component": "custom-lut.custom-lut-tracking-substrate"
    },
    "search_type": {
      "type": "relation",
      "relation": "oneToOne",
      "target": "api::lut-vertebrate-search-type.lut-vertebrate-search-type",
      "required": true
    },
    "call_play_back": {
      "type": "boolean",
      "x-paratoo-rename": "Call-play back techniques will be used"
    },
    "start_date_time": {
      "type": "datetime"
    },
    "end_date_time": {
      "type": "datetime",
      "required": true
    },
    "survey_metadata": {
      "type": "component",
      "repeatable": false,
      "component": "survey-metadata.metadata",
      "x-paratoo-required": true
    },
    "abis_export_uuid": {
      "type": "string",
      "unique": true
    }
  }
}