{
  "kind": "collectionType",
  "collectionName": "pan_trapping_colours",
  "info": {
    "singularName": "lut-invertebrate-pan-trapping-colour",
    "pluralName": "lut-invertebrate-pan-trapping-colours",
    "displayName": "Lut-invertebrate-pan-trapping-colour",
    "name": "lut-invertebrate-pan-trapping-colour",
    "uri": "https://linked.data.gov.au/def/nrm/3532bfc2-8fa1-48c4-a785-e6181735f232"
  },
  "options": {
    "increments": true,
    "timestamps": true,
    "draftAndPublish": false
  },
  "attributes": {
    "symbol": {
      "type": "string",
      "required": true,
      "unique": true
    },
    "label": {
      "type": "string",
      "required": true,
      "unique": true
    },
    "description": {
      "type": "text"
    },
    "uri": {
      "type": "string"
    }
  },
  "initialData": [
    [
      "W",
      "White",
      "Colour identifier used in invertebrate 'Pan Traps'.",
      "https://linked.data.gov.au/def/nrm/710a6585-3c80-5436-8be3-4bd651c6e6a4"
    ],
    [
      "B",
      "Blue",
      "Colour identifier used in invertebrate 'Pan Traps'.",
      "https://linked.data.gov.au/def/nrm/dc9540f6-9933-51bf-9d19-347656e32236"
    ],
    [
      "Y",
      "Yellow",
      "Colour identifier used in invertebrate 'Pan Traps'.",
      "https://linked.data.gov.au/def/nrm/9d35d131-5302-56ae-a2f8-baaa7dc635d3"
    ]
  ]
}