{
  "kind": "collectionType",
  "collectionName": "lut_bioregions",
  "info": {
    "singularName": "lut-bioregion",
    "pluralName": "lut-bioregions",
    "displayName": "Lut-bioregion",
    "name": "lut-bioregion"
  },
  "options": {
    "increments": true,
    "timestamps": true,
    "draftAndPublish": false
  },
  "attributes": {
    "symbol": {
      "type": "string",
      "required": true,
      "unique": true
    },
    "label": {
      "type": "string",
      "required": true,
      "unique": true
    },
    "description": {
      "type": "text"
    },
    "uri": {
      "type": "string"
    },
    "states": {
      "type": "relation",
      "relation": "oneToMany",
      "target": "api::lut-state.lut-state"
    }
  },
  "initialData": [
    [
      "ARC",
      "Arnhem Coast",
      "",
      "",
      [
        3
      ]
    ],
    [
      "ARP",
      "Arnhem Plateau",
      "",
      "",
      [
        3
      ]
    ],
    [
      "AUA",
      "Australian Alps",
      "",
      "",
      [
        2,
        7,
        1
      ]
    ],
    [
      "AVW",
      "Avon Wheatbelt",
      "",
      "",
      [
        8
      ]
    ],
    [
      "BBN",
      "Brigalow Belt North",
      "",
      "",
      [
        4
      ]
    ],
    [
      "BBS",
      "Brigalow Belt South",
      "",
      "",
      [
        2,
        4
      ]
    ],
    [
      "BEL",
      "Ben Lomond",
      "",
      "",
      [
        6
      ]
    ],
    [
      "BHC",
      "Broken Hill Complex",
      "",
      "",
      [
        5,
        2
      ]
    ],
    [
      "BRT",
      "Burt Plain",
      "",
      "",
      [
        3
      ]
    ],
    [
      "CAR",
      "Carnavon",
      "",
      "",
      [
        8
      ]
    ],
    [
      "CEA",
      "Central Arnhem",
      "",
      "",
      [
        3
      ]
    ],
    [
      "CEK",
      "Central Kimberley",
      "",
      "",
      [
        8
      ]
    ],
    [
      "CER",
      "Central Ranges",
      "",
      "",
      [
        5,
        8,
        3
      ]
    ],
    [
      "CMC",
      "Central Mackay Coast",
      "",
      "",
      [
        4
      ]
    ],
    [
      "CHC",
      "Channel Country",
      "",
      "",
      [
        2,
        5,
        4,
        3
      ]
    ],
    [
      "COO",
      "Coolgardie",
      "",
      "",
      [
        8
      ]
    ],
    [
      "COP",
      "Cobar Peneplain",
      "",
      "",
      [
        2
      ]
    ],
    [
      "CYP",
      "Cape York Peninsula",
      "",
      "",
      [
        4
      ]
    ],
    [
      "DAB",
      "Daly Basin",
      "",
      "",
      [
        3
      ]
    ],
    [
      "DAC",
      "Darwin Coastal",
      "",
      "",
      [
        3
      ]
    ],
    [
      "DEU",
      "Desert Uplands",
      "",
      "",
      [
        4
      ]
    ],
    [
      "DAL",
      "Dampierland",
      "",
      "",
      [
        8
      ]
    ],
    [
      "DMR",
      "Davenport Murchison Ranges",
      "",
      "",
      [
        3
      ]
    ],
    [
      "DRP",
      "Darling Riverine Plains",
      "",
      "",
      [
        2,
        4
      ]
    ],
    [
      "EIU",
      "Einsaleigh Uplands",
      "",
      "",
      [
        4
      ]
    ],
    [
      "FIN",
      "Finke",
      "",
      "",
      [
        5,
        3
      ]
    ],
    [
      "FLB",
      "Flinders Lofty Block",
      "",
      "",
      [
        5
      ]
    ],
    [
      "GAS",
      "Gascoyne",
      "",
      "",
      [
        8
      ]
    ],
    [
      "GAW",
      "Gawler",
      "",
      "",
      [
        5
      ]
    ],
    [
      "GID",
      "Gibson Desert",
      "",
      "",
      [
        8
      ]
    ],
    [
      "GFU",
      "Gulf Fall and Uplands",
      "",
      "",
      [
        4,
        3
      ]
    ],
    [
      "GSD",
      "Great Sandy Desert",
      "",
      "",
      [
        8,
        3
      ]
    ],
    [
      "GUC",
      "Gulf Coastal",
      "",
      "",
      [
        3
      ]
    ],
    [
      "GUP",
      "Gulf Plains",
      "",
      "",
      [
        4,
        3
      ]
    ],
    [
      "GVD",
      "Great Victoria Desert",
      "",
      "",
      [
        5,
        8
      ]
    ],
    [
      "HAM",
      "Hampton",
      "",
      "",
      [
        5,
        8
      ]
    ],
    [
      "LSD",
      "Little Sandy Desert",
      "",
      "",
      [
        8
      ]
    ],
    [
      "MAC",
      "MacDonnell Ranges",
      "",
      "",
      [
        3
      ]
    ],
    [
      "MDD",
      "Murray Darling Depression",
      "",
      "",
      [
        2,
        5,
        7
      ]
    ],
    [
      "MGD",
      "Mitchell Grass Downs",
      "",
      "",
      [
        4,
        3
      ]
    ],
    [
      "MII",
      "Mount Isa Inlier",
      "",
      "",
      [
        4,
        3
      ]
    ],
    [
      "MUL",
      "Mulga Lands",
      "",
      "",
      [
        2,
        4
      ]
    ],
    [
      "MUR",
      "Murchison",
      "",
      "",
      [
        8
      ]
    ],
    [
      "NOK",
      "Northern Kimberley",
      "",
      "",
      [
        8
      ]
    ],
    [
      "NUL",
      "Nullarbor",
      "",
      "",
      [
        5,
        8
      ]
    ],
    [
      "OVP",
      "Ord Victoria Plain",
      "",
      "",
      [
        8,
        3
      ]
    ],
    [
      "PCK",
      "Pine Creek",
      "",
      "",
      [
        3
      ]
    ],
    [
      "PIL",
      "Pilbara",
      "",
      "",
      [
        8
      ]
    ],
    [
      "RIV",
      "Riverina",
      "",
      "",
      [
        2,
        7,
        5
      ]
    ],
    [
      "SSD",
      "Simpson Strzlecki Dunefields",
      "",
      "",
      [
        2,
        5,
        4,
        3
      ]
    ],
    [
      "STP",
      "Stony Plains",
      "",
      "",
      [
        5,
        3
      ]
    ],
    [
      "STU",
      "Sturt Plateau",
      "",
      "",
      [
        3
      ]
    ],
    [
      "SWA",
      "Swan Coastal Plain",
      "",
      "",
      [
        8
      ]
    ],
    [
      "SYB",
      "Sydney Basin",
      "",
      "",
      [
        2
      ]
    ],
    [
      "TAN",
      "Tanami",
      "",
      "",
      [
        8,
        3
      ]
    ],
    [
      "TIW",
      "Tiwi Coburg",
      "",
      "",
      [
        3
      ]
    ],
    [
      "TCH",
      "Tasmanian Central Highlands",
      "",
      "",
      [
        6
      ]
    ],
    [
      "TNM",
      "Tasmanian Northern Midlands",
      "",
      "",
      [
        6
      ]
    ],
    [
      "TNS",
      "Tasmanian Northern Slopes",
      "",
      "",
      [
        6
      ]
    ],
    [
      "TSE",
      "Tasmanian South East",
      "",
      "",
      [
        6
      ]
    ],
    [
      "TSR",
      "Tasmanian Southern Ranges",
      "",
      "",
      [
        6
      ]
    ],
    [
      "TWE",
      "Tasmanian West",
      "",
      "",
      [
        6
      ]
    ],
    [
      "VIB",
      "Victoria Bonaparte",
      "",
      "",
      [
        8,
        3
      ]
    ],
    [
      "VIM",
      "Victorian Midlands",
      "",
      "",
      [
        7
      ]
    ],
    [
      "YAL",
      "Yalgoo",
      "",
      "",
      [
        8
      ]
    ],
    [
      "WAR",
      "Warren",
      "",
      "",
      [
        8
      ]
    ],
    [
      "WET",
      "Wet Tropics",
      "",
      "",
      [
        4
      ]
    ],
    [
      "ESP",
      "Esperance Plains",
      "",
      "",
      [
        8
      ]
    ],
    [
      "EYB",
      "Eyre Yorke Block",
      "",
      "",
      [
        5
      ]
    ],
    [
      "FUR",
      "Furneaux",
      "",
      "",
      [
        7,
        6
      ]
    ],
    [
      "GES",
      "Geraldton Sandplains",
      "",
      "",
      [
        8
      ]
    ],
    [
      "JAF",
      "Jarrah Forest",
      "",
      "",
      [
        8
      ]
    ],
    [
      "KAN",
      "Kanmantoo",
      "",
      "",
      [
        5
      ]
    ],
    [
      "KIN",
      "King",
      "",
      "",
      [
        6
      ]
    ],
    [
      "MAL",
      "Mallee",
      "",
      "",
      [
        8
      ]
    ],
    [
      "NAN",
      "Nandewar",
      "",
      "",
      [
        2,
        4
      ]
    ],
    [
      "NCP",
      "Naracoorte Coastal Plains",
      "",
      "",
      [
        5,
        7
      ]
    ],
    [
      "NET",
      "New England Tablelands",
      "",
      "",
      [
        2,
        4
      ]
    ],
    [
      "NNC",
      "NSW North Coast",
      "",
      "",
      [
        2,
        4
      ]
    ],
    [
      "NSS",
      "NSW South Western Slopes",
      "",
      "",
      [
        2,
        7
      ]
    ],
    [
      "SCP",
      "South East Coastal Plain",
      "",
      "",
      [
        7
      ]
    ],
    [
      "SEC",
      "South East Corner",
      "",
      "",
      [
        2,
        7
      ]
    ],
    [
      "SEH",
      "South Eastern Highlands",
      "",
      "",
      [
        2,
        7,
        1
      ]
    ],
    [
      "SEQ",
      "South Eastern Queensland",
      "",
      "",
      [
        2,
        4
      ]
    ],
    [
      "SVP",
      "Southern Volcanic Plain",
      "",
      "",
      [
        7,
        5
      ]
    ],
    [
      "COS",
      "Coral Sea",
      "",
      "",
      [
        4
      ]
    ],
    [
      "SAI",
      "Subantarctic Islands",
      "",
      "",
      [
        8
      ]
    ],
    [
      "ITI",
      "Indian Tropical Islands",
      "",
      "",
      [
        8,
        3
      ]
    ],
    [
      "PSI",
      "Pacific Subtropical Islands",
      "",
      "",
      [
        2,
        4
      ]
    ]
  ]
}