{
  "collectionName": "components_pest_fauna_observations",
  "info": {
    "displayName": "observation",
    "description": ""
  },
  "options": {},
  "attributes": {
    "point_unique_id": {
      "type": "string",
      "x-paratoo-rename": "Point ID",
      "x-paratoo-hint": "e.g. bait station or trap number (optional)"
    },
    "repeat": {
      "type": "boolean",
      "x-paratoo-rename": "Existing Point"
    },
    "point_repeat_id": {
      "type": "string",
      "x-paratoo-rename": "Existing Point ID"
    },
    "target_species": {
      "type": "relation",
      "relation": "oneToOne",
      "target": "api::lut-species-pest.lut-species-pest"
    },
    "deer": {
      "type": "relation",
      "relation": "oneToOne",
      "target": "api::lut-deer-pest.lut-deer-pest",
      "x-paratoo-hint": "Specify the specific Deer if known"
    },
    "wild_dog": {
      "type": "relation",
      "relation": "oneToOne",
      "target": "api::lut-pest-wild-dog.lut-pest-wild-dog"
    },
    "other_species": {
      "type": "string"
    },
    "count": {
      "type": "integer"
    },
    "age_class": {
      "type": "relation",
      "relation": "oneToOne",
      "target": "api::lut-vertebrate-age-class.lut-vertebrate-age-class"
    },
    "sex": {
      "type": "relation",
      "relation": "oneToOne",
      "target": "api::lut-fauna-sex.lut-fauna-sex"
    },
    "number_controlled": {
      "type": "integer"
    },
    "animal_fate": {
      "type": "component",
      "repeatable": false,
      "component": "custom-lut.custom-lut-control-activity-animal-fate"
    },
    "photo": {
      "type": "media",
      "via": "related",
      "allowedTypes": ["images"],
      "plugin": "upload",
      "pluginOptions": {}
    },
    "photo_description": {
      "type": "text"
    },
    "comments": {
      "type": "string"
    },
    "location": {
      "type": "component",
      "repeatable": false,
      "component": "location.location"
    },
    "date_time": {
      "type": "datetime",
      "required": true
    }
  }
}
