{
  "collectionName": "flight_plans",
  "info": {
    "displayName": "flight-plan"
  },
  "options": {},
  "attributes": {
    "flight_altitude": {
      "type": "float",
      "max": 120,
      "min": 1,
      "required": true,
      "x-paratoo-unit": "m"
    },
    "elevation_optimisation": {
      "type": "boolean"
    },
    "frontal_overlap_ratio": {
      "type": "float",
      "x-paratoo-unit": "%"
    },
    "side_overlap_ratio": {
      "type": "float",
      "x-paratoo-unit": "%"
    },
    "margin": {
      "type": "float",
      "x-paratoo-unit": "m"
    },
    "flight_speed": {
      "type": "float",
      "x-paratoo-unit": "m/s"
    },
    "course_angel": {
      "type": "integer"
    },
    "photo_mode_timed_interval_shot": {
      "type": "boolean",
      "x-paratoo-rename": "Photo Mode"
    },
    "target_surface_takeoff_point": {
      "type": "relation",
      "relation": "oneToOne",
      "target": "api::lut-target-surface-take-off-point.lut-target-surface-take-off-point"
    },
    "IMU_calibration": {
      "type": "boolean"
    }
  }
}
