{
  "kind": "collectionType",
  "collectionName": "sign_based_track_station_setups",
  "info": {
    "singularName": "sign-based-track-station-setup",
    "pluralName": "sign-based-track-station-setups",
    "displayName": "sign-based-track-station-setup"
  },
  "options": {
    "draftAndPublish": false
  },
  "pluginOptions": {},
  "attributes": {
    "start_date_time": {
      "type": "datetime",
      "required": true
    },
    "end_date_time": {
      "type": "datetime",
      "required": true
    },
    "track_station": {
      "type": "component",
      "repeatable": true,
      "component": "sign-based.track-station",
      "required": true
    },
    "survey_metadata": {
      "type": "component",
      "repeatable": false,
      "component": "survey-metadata.metadata",
      "x-paratoo-required": true
    },
    "abis_export_uuid": {
      "type": "string",
      "unique": true
    }
  }
}