{
  "kind": "collectionType",
  "collectionName": "photopoints_surveys",
  "info": {
    "singularName": "photopoints-survey",
    "pluralName": "photopoints-surveys",
    "displayName": "Photopoints Survey",
    "description": ""
  },
  "options": {
    "draftAndPublish": false
  },
  "attributes": {
    "start_date_time": {
      "type": "datetime",
      "required": true
    },
    "end_date_time": {
      "type": "datetime",
      "required": true
    },
    "photopoints_protocol_variant": {
      "type": "relation",
      "relation": "oneToOne",
      "target": "api::lut-photopoints-protocol-variant.lut-photopoints-protocol-variant"
    },
    "plot_visit": {
      "type": "relation",
      "relation": "oneToOne",
      "target": "api::plot-visit.plot-visit"
    },
    "plot_centre_post_location": {
      "type": "component",
      "repeatable": false,
      "component": "location.location",
      "required": true
    },
    "steps": {
      "type": "component",
      "repeatable": true,
      "component": "photo-points.step",
      "max": 3,
      "min": 3,
      "x-paratoo-rename": "PhotoPoint Position"
    },
    "photopoint_1_panorama": {
      "type": "media",
      "multiple": true,
      "required": false,
      "allowedTypes": ["images"]
    },
    "photopoint_2_panorama": {
      "type": "media",
      "multiple": true,
      "required": false,
      "allowedTypes": ["images"]
    },
    "photopoint_3_panorama": {
      "type": "media",
      "multiple": true,
      "required": false,
      "allowedTypes": ["images"]
    },
    "survey_metadata": {
      "type": "component",
      "repeatable": false,
      "component": "survey-metadata.metadata",
      "x-paratoo-required": true
    },
    "abis_export_uuid": {
      "type": "string",
      "unique": true
    }
  }
}
