{
  "kind": "collectionType",
  "collectionName": "lut_intervention_debris_removal_types",
  "info": {
    "singularName": "lut-intervention-debris-removal-type",
    "pluralName": "lut-intervention-debris-removal-types",
    "displayName": "Lut-intervention-debris-removal-type",
    "name": "lut-intervention-debris-removal-type",
    "uri": "https://linked.data.gov.au/def/nrm/70690fe1-e803-4af0-ab6f-fb8f54456933"
  },
  "options": {
    "increments": true,
    "timestamps": true,
    "draftAndPublish": false
  },
  "attributes": {
    "symbol": {
      "type": "string",
      "required": true,
      "unique": true
    },
    "label": {
      "type": "string",
      "required": true,
      "unique": true
    },
    "description": {
      "type": "text"
    },
    "uri": {
      "type": "string"
    }
  },
  "initialData": [
    [
      "BIW",
      "Building and Industrial Waste",
      "Refers to the type of waste products generated from a building or an industry. ",
      "https://linked.data.gov.au/def/nrm/0b482077-636a-540c-9676-ebf55e639b94"
    ],
    [
      "DW",
      "Domestic Waste",
      "Refers to the type of waste products generated from domestic activities.",
      "https://linked.data.gov.au/def/nrm/e13ca35a-a74e-5ccd-a3fd-ff984d06a665"
    ],
    [
      "GW",
      "Green Waste",
      "Refers to the type of waste products of an organic source (e.g., plant, plant parts, etc.).",
      "https://linked.data.gov.au/def/nrm/7a1bc7e1-c6d0-5817-85f6-5566f24986fd"
    ],
    [
      "O",
      "Other",
      "Represents any 'other' categorical collection NOT listed, actual number to enter.",
      "https://linked.data.gov.au/def/nrm/a96d7507-e823-5f3a-a26b-62313538e0bb"
    ]
  ]
}