{
  "kind": "collectionType",
  "collectionName": "lut_transect_route_types",
  "info": {
    "singularName": "lut-transect-route-type",
    "pluralName": "lut-transect-route-types",
    "displayName": "Lut transect route type"
  },
  "options": {
    "draftAndPublish": false
  },
  "attributes": {
    "symbol": {
      "type": "string",
      "required": true,
      "unique": true
    },
    "label": {
      "type": "string",
      "required": true,
      "unique": true
    },
    "description": {
      "type": "text"
    },
    "uri": {
      "type": "string"
    }
  },
  "initialData": [
    [
      "VR",
      "Vehicle road",
      "",
      ""
    ],
    [
      "VD",
      "Vehicle dirt track",
      "",
      ""
    ],
    [
      "WT",
      "Walking track",
      "",
      ""
    ],
    [
      "OT",
      "Off-track no defined path",
      "",
      ""
    ],
    [
      "Other",
      "Other",
      "",
      ""
    ]
  ]
}