{
  "kind": "collectionType",
  "collectionName": "lut_soils_mottle_sizes",
  "info": {
    "singularName": "lut-soils-mottle-size",
    "pluralName": "lut-soils-mottle-sizes",
    "displayName": "Lut-soils-mottle-size",
    "name": "lut-soils-mottle-size",
    "uri": "https://linked.data.gov.au/def/nrm/c8dd7af4-8e57-4f59-848a-66712349754a"
  },
  "options": {
    "draftAndPublish": false,
    "increments": true,
    "timestamps": true,
    "comment": ""
  },
  "attributes": {
    "symbol": {
      "type": "string",
      "required": true,
      "unique": true
    },
    "label": {
      "type": "string",
      "required": true,
      "unique": true
    },
    "description": {
      "type": "text"
    },
    "uri": {
      "type": "string"
    }
  },
  "initialData": [
    [
      "1",
      "Fine (<5mm)",
      "Refers to the size class of soil mottles, measured along its greatest dimension.",
      "https://linked.data.gov.au/def/nrm/49afe82d-45d9-54e3-bea9-e11ff4d18313"
    ],
    [
      "2",
      "Medium (5-15mm)",
      "Refers to the size class of soil mottles, measured along its greatest dimension.",
      "https://linked.data.gov.au/def/nrm/c869555f-9fe9-56c8-ad9f-00717a5c69d3"
    ],
    [
      "3",
      "Coarse (15-30mm)",
      "Refers to the size class of soil mottles, measured along its greatest dimension.",
      "https://linked.data.gov.au/def/nrm/49778dd7-2312-5038-a80e-c5ad5f73d73b"
    ],
    [
      "4",
      "Very coarse (>30mm)",
      "Refers to the size class of soil mottles, measured along its greatest dimension.",
      "https://linked.data.gov.au/def/nrm/c63f6be5-ae96-52d3-8367-22807218fc1e"
    ],
    [
      "NC",
      "Not Collected",
      "Refers to the 'No Information/data' collected.",
      "https://linked.data.gov.au/def/nrm/94ee6b46-e2f1-5101-8666-3cbcd8697f0f"
    ],
    [
      "n/a",
      "Not Applicable",
      "Refers to any categorical values/attributes that are 'Not Applicable' to a particular observation in the study.",
      "https://linked.data.gov.au/def/nrm/5488c9ea-e3a2-5348-887b-065d29b848ab"
    ]
  ]
}