{
  "kind": "collectionType",
  "collectionName": "camera_trap_retrieval_surveys",
  "info": {
    "singularName": "camera-trap-retrieval-survey",
    "pluralName": "camera-trap-retrieval-surveys",
    "displayName": "Camera Trap Retrieval Survey"
  },
  "options": {
    "draftAndPublish": false
  },
  "attributes": {
    "survey_label": {
      "type": "text",
      "required": true
    },
    "start_date_time": {
      "type": "datetime",
      "required": true
    },
    "end_date_time": {
      "type": "datetime",
      "required": true
    },
    "survey_metadata": {
      "type": "component",
      "repeatable": false,
      "component": "survey-metadata.metadata",
      "x-paratoo-required": true
    },
    "abis_export_uuid": {
      "type": "string",
      "unique": true
    }
  }
}