{
  "kind": "collectionType",
  "collectionName": "lut_intervention_site_preparation_action_types",
  "info": {
    "singularName": "lut-intervention-site-preparation-action-type",
    "pluralName": "lut-intervention-site-preparation-action-types",
    "displayName": "Lut-intervention-site-preparation-action-type",
    "name": "lut-intervention-site-preparation-action-type",
    "uri": "https://linked.data.gov.au/def/nrm/0b8508f8-a273-4d8c-8687-eabb35f30641"
  },
  "options": {
    "increments": true,
    "timestamps": true,
    "draftAndPublish": false
  },
  "attributes": {
    "symbol": {
      "type": "string",
      "required": true,
      "unique": true
    },
    "label": {
      "type": "string",
      "required": true,
      "unique": true
    },
    "description": {
      "type": "text"
    },
    "uri": {
      "type": "string"
    }
  },
  "initialData": [
    [
      "BBS",
      "Basal Bark Spraying",
      "Bark spraying involves mixing an oil-soluble herbicide in diesel (or other recommended product) and spraying the full circumference of the trunk or stem of the plant.",
      "https://linked.data.gov.au/def/nrm/8e3ee4a0-402a-59c0-bb16-dd5afe236281"
    ],
    [
      "BA",
      "Biological Agents",
      "Biological agents are live organisms (such as bacteria, fungi, etc.) used on target vegetation.",
      "https://linked.data.gov.au/def/nrm/36cb8d90-c777-54ce-9ad2-3adea2019d95"
    ],
    [
      "CS",
      "Cut Stump",
      "Cut stump involves physical cutting/removal of stumps. ",
      "https://linked.data.gov.au/def/nrm/4191bc66-002f-5c7f-a7bc-46ee26d3ae0a"
    ],
    [
      "CAS",
      "Cut and Swab",
      "This method is similar to the cut stump method, but is suited to vines and multi-stemmed shrubs. Here, the plant stems are cut through completely, close to the ground. Herbicide is then applied immediately to the cut surface emerging from the ground, via spray or brush application.",
      "https://linked.data.gov.au/def/nrm/374de199-bda5-5f70-a4fa-acc81f96d63c"
    ],
    [
      "D",
      "Dozing",
      "This method involves removal of vegetation using a heavy machinery or dozer.",
      "https://linked.data.gov.au/def/nrm/4937adaa-59f0-5b15-ada6-bc56dc951249"
    ],
    [
      "F",
      "Felling",
      "This method involves removal of vegetation through felling.",
      "https://linked.data.gov.au/def/nrm/01e02a52-886b-5aed-bda6-3bb894c5cfe9"
    ],
    [
      "FI",
      "Fire",
      "This method involves the removal of vegetation through fire actions.",
      "https://linked.data.gov.au/def/nrm/399025a1-712b-5e4b-a7c6-7056c3cea915"
    ],
    [
      "FS",
      "Foliar Spraying",
      "This method involves the removal of vegetation through chemical sprays to limit plant growth.",
      "https://linked.data.gov.au/def/nrm/f581e6df-d808-586a-8f01-df2a172fbfa1"
    ],
    [
      "GC",
      "Grubbing and Chipping",
      "This method involves weeds to be dug out using a mattock or chip hoe.",
      "https://linked.data.gov.au/def/nrm/4fe22dfa-6869-5cee-8182-7dc4abc17e62"
    ],
    [
      "HP",
      "Hand Pulling",
      "This method involves physical removal of plants by pulling the entire plant from the ground.",
      "https://linked.data.gov.au/def/nrm/7e102980-366a-5938-8479-247ab2240b05"
    ],
    [
      "MNC",
      "Moisture and Nutrient Control",
      "This method involves control of plant growth via monitoring its nutrient and water inputs.",
      "https://linked.data.gov.au/def/nrm/6f31f719-d116-57bc-9c05-3efd4017a69f"
    ],
    [
      "M",
      "Mowing",
      "This method involves use of mowers for removal of vegetation.",
      "https://linked.data.gov.au/def/nrm/2347cb08-4906-5bd5-80f2-6f55ef5850a7"
    ],
    [
      "OE",
      "Other Earthworks",
      "Refers to any 'Other Earthworks' other than Dozing used for the removal of vegetation undertaken for preparation of sites for subsequent activities.  ",
      "https://linked.data.gov.au/def/nrm/09f62da8-090b-5e67-bd52-15883926866e"
    ],
    [
      "OP",
      "Overplanting",
      "Refers to the type of planting action undertaken for preparation of sites for subsequent activities.",
      "https://linked.data.gov.au/def/nrm/6aac97ac-d69c-570f-9912-e4e966670489"
    ],
    [
      "P",
      "Pushing",
      "This method involves physical removal of plants by pushing the entire plant.",
      "https://linked.data.gov.au/def/nrm/ffd97a33-d86f-5b7f-a60f-14bc02ef00cc"
    ],
    [
      "S",
      "Slashing",
      "This method involves physical removal of plants by the action of slashing.",
      "https://linked.data.gov.au/def/nrm/afce6a61-09ec-5aa1-b445-7b9ab5aacf8e"
    ],
    [
      "SS",
      "Spot Spraying",
      "This method involves the use of herbicides as spot sprays or precision sprays on targeted surfaces of leaves or certain plants (such as weeds). ",
      "https://linked.data.gov.au/def/nrm/30775984-367e-57b0-baf7-ee653236af1a"
    ],
    [
      "SG",
      "Splatter Gun",
      "This method involves destruction of the vegetation where targeted streams of herbicide can be shot around sensitive native vegetation.",
      "https://linked.data.gov.au/def/nrm/c4eb909d-4414-57a6-8fb6-27c589fea7a9"
    ],
    [
      "SI",
      "Stem Injection",
      "This method involves the removal of unwanted large trees of larger diameter by drilling or injecting herbicides into the stem. ",
      "https://linked.data.gov.au/def/nrm/786f0780-95ee-5e85-b31c-5df4b81258a2"
    ],
    [
      "STS",
      "Stem Scrapper",
      "This method involves the removal of unwanted small shrubs and vines with thin and relatively soft bark tissue by scraping off its stem. ",
      "https://linked.data.gov.au/def/nrm/6904db0c-3ea1-5e48-8661-0e2790444523"
    ],
    [
      "WA",
      "Wick Applicators",
      "This method involves the removal of weeds or unwanted vegetation via wick applicators that cover a large area such as pasture land or cropland, etc.",
      "https://linked.data.gov.au/def/nrm/546434d9-6c85-5b4e-89af-f383b3f3cbce"
    ],
    [
      "O",
      "Other",
      "Represents any 'other' categorical collection NOT listed, actual number to enter.",
      "https://linked.data.gov.au/def/nrm/a96d7507-e823-5f3a-a26b-62313538e0bb"
    ]
  ]
}