{
  "kind": "collectionType",
  "collectionName": "off_plot_belt_transect_survey_setups",
  "info": {
    "singularName": "off-plot-belt-transect-survey-setup",
    "pluralName": "off-plot-belt-transect-survey-setups",
    "displayName": "Off Plot Belt Transect Survey Setup"
  },
  "options": {
    "draftAndPublish": false
  },
  "pluginOptions": {},
  "attributes": {
    "survey": {
      "type": "relation",
      "relation": "oneToOne",
      "target": "api::off-plot-belt-transect-survey.off-plot-belt-transect-survey"
    },
    "transect_setup_ID": {
      "type": "string",
      "required": true
    },
    "survey_setup_ID": {
      "type": "string",
      "required": true
    },
    "survey_intent": {
      "type": "component",
      "repeatable": true,
      "required": false,
      "component": "multi-lut.survey-intent"
    },
    "target_species": {
      "type": "component",
      "repeatable": true,
      "required": true,
      "component": "multi-lut.target-species",
      "x-paratoo-hint": "Select the target species for this project, multiple species may be selected. If the target species is not listed then it may be added. If there are no target species for this project, select not applicable. Observations may still be attributed to species not selected here."
    },
    "other_target_species": {
      "type": "component",
      "repeatable": true,
      "component": "pest.other-target-species"
    },
    "target_wild_dog": {
      "type": "component",
      "repeatable": true,
      "component": "multi-lut.target-wild-dog"
    },
    "target_deer": {
      "type": "component",
      "repeatable": true,
      "component": "multi-lut.target-deer"
    },
    "scat": {
      "type": "relation",
      "relation": "oneToOne",
      "target": "api::lut-scat.lut-scat",
      "x-paratoo-rename": "Scat Removal"
    },
    "tracking_substrate": {
      "type": "component",
      "repeatable": false,
      "component": "custom-lut.custom-lut-tracking-substrate",
      "required": true
    },
    "observer_details": {
      "type": "component",
      "repeatable": true,
      "component": "feral.observer-details",
      "required": true
    },
    "weather": {
      "type": "component",
      "repeatable": false,
      "component": "weather.weather",
      "x-paratoo-rename": "Weather observations for night prior to survey"
    },
    "abis_export_uuid": {
      "type": "string",
      "unique": true
    }
  }
}