{
  "kind": "collectionType",
  "collectionName": "soil_classifications",
  "info": {
    "singularName": "soil-classification",
    "pluralName": "soil-classifications",
    "displayName": "soil-classification"
  },
  "options": {
    "draftAndPublish": false
  },
  "attributes": {
    "soil_pit_survey": {
      "type": "relation",
      "relation": "oneToOne",
      "target": "api::soil-pit-characterisation-full.soil-pit-characterisation-full"
    },
    "permeability": {
      "type": "relation",
      "relation": "oneToOne",
      "target": "api::lut-soils-permeability.lut-soils-permeability",
      "x-paratoo-rename": "Soil permeability",
      "x-paratoo-hint": "Controlled by the potential to transmit water (saturated hydraulic conductivity, Ks) of the least permeable layer in the soil."
    },
    "drainage": {
      "type": "relation",
      "relation": "oneToOne",
      "target": "api::lut-soils-drainage.lut-soils-drainage",
      "x-paratoo-hint": "Rapidity and extent of water removal from the soil profile."
    },
    "substrate_lithology": {
      "type": "relation",
      "relation": "oneToOne",
      "target": "api::lut-soils-lithology.lut-soils-lithology",
      "x-paratoo-required": true
    },
    "depth_r_horizon": {
      "type": "decimal",
      "x-paratoo-unit": "m"
    },
    "soil_profile_comments": {
      "type": "string"
    },
    "abis_export_uuid": {
      "type": "string",
      "unique": true
    }
  }
}