{
  "kind": "collectionType",
  "collectionName": "lut_intervention_habitat_augmentation_types",
  "info": {
    "singularName": "lut-intervention-habitat-augmentation-type",
    "pluralName": "lut-intervention-habitat-augmentation-types",
    "displayName": "Lut-intervention-habitat-augmentation-type",
    "name": "lut-intervention-habitat-augmentation-type",
    "uri": "https://linked.data.gov.au/def/nrm/61962274-0474-473c-a845-08c69e9e04c5"
  },
  "options": {
    "increments": true,
    "timestamps": true,
    "draftAndPublish": false
  },
  "attributes": {
    "symbol": {
      "type": "string",
      "required": true,
      "unique": true
    },
    "label": {
      "type": "string",
      "required": true,
      "unique": true
    },
    "description": {
      "type": "text"
    },
    "uri": {
      "type": "string"
    }
  },
  "initialData": [
    [
      "AFMD",
      "Artificial Fauna Movement Devices",
      "Refers to the type of habitat augmentation implemented, i.e., tracking the movement of a fauna with the assistance of a device.",
      "https://linked.data.gov.au/def/nrm/72c2e9b5-e1ca-5471-a4f0-446f7f8ede91"
    ],
    [
      "ANRH",
      "Aritificial Nesting or Roosting Habitat (Incl. Tiles, Fence Posts",
      "",
      ""
    ],
    [
      "ET",
      "Environmental Thinning",
      "Refers to the type of habitat augmentation implemented, i.e., by clearing a section of vegetation growth.",
      "https://linked.data.gov.au/def/nrm/d2150f7d-8253-5e28-ae20-5dd9c89e2cef"
    ],
    [
      "IFP",
      "Improving Fish Passage",
      "Refers to the type of habitat augmentation implemented, i.e., improving the aquatic body for allowing passage of fishes.",
      "https://linked.data.gov.au/def/nrm/87844c7c-f11a-5573-865a-a3ef35824f62"
    ],
    [
      "NF",
      "Natural Features (Rocks, Logs)",
      "Refers to the type of habitat augmentation implemented, i.e., with the assistance of natural features such as logs, rocks, etc.",
      "https://linked.data.gov.au/def/nrm/ca9bdb5d-1c8c-538c-ab3f-0604234f3cbe"
    ],
    [
      "O",
      "Other",
      "Represents any 'other' categorical collection NOT listed, actual number to enter.",
      "https://linked.data.gov.au/def/nrm/a96d7507-e823-5f3a-a26b-62313538e0bb"
    ]
  ]
}