{
  "collectionName": "lut_soils_segregation_strengths",
  "info": {
    "singularName": "lut-soils-segregation-strength",
    "pluralName": "lut-soils-segregation-strengths",
    "displayName": "Lut-soils-segregation-strength",
    "name": "lut-soils-segregation-strength",
    "uri": "https://linked.data.gov.au/def/nrm/ff36816d-ee76-4c55-a41f-8618ccd3860a"
  },
  "options": {
    "draftAndPublish": false,
    "increments": true,
    "timestamps": true,
    "comment": ""
  },
  "attributes": {
    "symbol": {
      "type": "string",
      "required": true,
      "unique": true
    },
    "label": {
      "type": "string",
      "required": true,
      "unique": true
    },
    "description": {
      "type": "text"
    },
    "uri": {
      "type": "string"
    }
  },
  "initialData": [
    [
      "1",
      "Weak",
      "Refers to the strength of soil segregation. Weak suggests that segregations can be broken between thumb and forefinger.",
      "https://linked.data.gov.au/def/nrm/216de94b-d66f-5173-a85e-3750a64ecf1d"
    ],
    [
      "2",
      "Strong",
      "Refers to the strength of soil segregation. Strong suggests that segregations cannot be broken between thumb and forefinger.",
      "https://linked.data.gov.au/def/nrm/549a8392-52b5-50c5-8eed-4f3c9d7f51db"
    ]
  ]
}