{
  "collectionName": "lut_soils_relative_inclination_of_slope_elements",
  "info": {
    "singularName": "lut-soils-relative-inclination-of-slope-elements",
    "pluralName": "lut-soils-relative-inclination-of-slope-elementss",
    "displayName": "Lut-soils-relative-inclination-of-slope-elements",
    "name": "lut-soils-relative-inclination-of-slope-elements"
  },
  "options": {
    "draftAndPublish": false,
    "increments": true,
    "timestamps": true,
    "comment": ""
  },
  "attributes": {
    "symbol": {
      "type": "string",
      "required": true,
      "unique": true
    },
    "label": {
      "type": "string",
      "required": true,
      "unique": true
    },
    "description": {
      "type": "text"
    },
    "uri": {
      "type": "string"
    }
  },
  "initialData": [
    [
      "X",
      "Waxing",
      "",
      ""
    ],
    [
      "N",
      "Waning",
      "",
      ""
    ],
    [
      "M",
      "Maximal",
      "",
      ""
    ],
    [
      "I",
      "Minimal",
      "",
      ""
    ]
  ]
}