{
  "kind": "collectionType",
  "collectionName": "lut_soils_coarse_frag_distributions",
  "info": {
    "singularName": "lut-soils-coarse-frag-distribution",
    "pluralName": "lut-soils-coarse-frag-distributions",
    "displayName": "lut-soils-coarse-frag-distribution"
  },
  "options": {
    "draftAndPublish": false
  },
  "attributes": {
    "symbol": {
      "type": "string",
      "required": true,
      "unique": true
    },
    "label": {
      "type": "string",
      "required": true,
      "unique": true
    },
    "description": {
      "type": "text"
    },
    "uri": {
      "type": "string"
    }
  },
  "initialData": [
    [
      "D",
      "Dispersed",
      "",
      ""
    ],
    [
      "R",
      "Reoriented",
      "",
      ""
    ],
    [
      "S",
      "Stratified",
      "",
      ""
    ],
    [
      "U",
      "Undisturbed",
      "",
      ""
    ]
  ]
}