{
  "kind": "collectionType",
  "collectionName": "vertebrate_closed_drift_photos",
  "info": {
    "singularName": "vertebrate-closed-drift-photo",
    "pluralName": "vertebrate-closed-drift-photos",
    "displayName": "vertebrate-closed-drift-photo",
    "description": ""
  },
  "options": {
    "draftAndPublish": false
  },
  "attributes": {
    "end_trapping_survey": {
      "type": "relation",
      "relation": "oneToOne",
      "target": "api::vertebrate-end-trapping-survey.vertebrate-end-trapping-survey"
    },
    "drift_line": {
      "type": "relation",
      "relation": "oneToOne",
      "target": "api::vertebrate-trap-line.vertebrate-trap-line",
      "required": true
    },
    "closed_drift_line_photo": {
      "allowedTypes": [
        "images"
      ],
      "type": "media",
      "multiple": true,
      "required": true
    },
    "abis_export_uuid": {
      "type": "string",
      "unique": true
    }
  }
}