{
  "kind": "collectionType",
  "collectionName": "lut_cwd_transect_numbers",
  "info": {
    "singularName": "lut-cwd-transect-number",
    "pluralName": "lut-cwd-transect-numbers",
    "displayName": "Lut-cwd-transect-number",
    "name": "lut-cwd-transect-number",
    "uri": "https://linked.data.gov.au/def/nrm/c117bd06-9603-400d-a20d-29f56ffa78cc"
  },
  "options": {
    "increments": true,
    "timestamps": true,
    "draftAndPublish": false
  },
  "attributes": {
    "symbol": {
      "type": "string",
      "required": true,
      "unique": true
    },
    "label": {
      "type": "string",
      "required": true,
      "unique": true
    },
    "description": {
      "type": "text"
    },
    "uri": {
      "type": "string"
    }
  },
  "initialData": [
    [
      "4",
      "4 Transects",
      "",
      ""
    ],
    [
      "6",
      "6 Transects",
      "",
      ""
    ]
  ]
}