{
  "kind": "collectionType",
  "collectionName": "lut_drone_sky_codes",
  "info": {
    "singularName": "lut-drone-sky-code",
    "pluralName": "lut-drone-sky-codes",
    "displayName": "lut-drone-sky-code"
  },
  "options": {
    "draftAndPublish": false
  },
  "pluginOptions": {},
  "attributes": {
    "symbol": {
      "type": "string",
      "required": true,
      "unique": true
    },
    "label": {
      "type": "string",
      "required": true,
      "unique": true
    },
    "description": {
      "type": "text"
    },
    "uri": {
      "type": "string"
    }
  },
  "initialData": [
    ["0", "0 Clear Sky", "", ""],
    ["1", "1 Haze", "", ""],
    ["2", "2 Thin cirrus, sun not obscured", "", ""],
    ["3", "3 Thin cirrus, sun obscured", "", ""],
    ["4", "4 Scattered cumulus, sun not obscured", "", ""],
    ["5", "5 Cumulus over most of sky, sun not obscured", "", ""],
    ["6", "6 Cumulus cirrus, sun obscured", "", ""],
    ["7", "7 Complete cumulus cover", "", ""],
    ["8", "8 Stratus, sun obscured", "", ""],
    ["9", "9 Drizzle", "", ""]
  ]
}