{
  "kind": "collectionType",
  "collectionName": "observer_details",
  "info": {
    "singularName": "observer-detail",
    "pluralName": "observer-details",
    "displayName": "observer_detail"
  },
  "options": {
    "draftAndPublish": false
  },
  "pluginOptions": {},
  "attributes": {
    "observer_name": {
      "type": "string",
      "required": true,
      "x-paratoo-required": true
    },
    "role": {
      "type": "component",
      "repeatable": true,
      "component": "multi-lut.roles",
      "required": true,
      "x-paratoo-required": true,
      "x-paratoo-rename": "Observer Role"
    },
    "abis_export_uuid": {
      "type": "string",
      "unique": true
    }
  }
}