{
  "kind": "collectionType",
  "collectionName": "floristics_veg_genetic_vouchers",
  "info": {
    "singularName": "floristics-veg-genetic-voucher",
    "pluralName": "floristics-veg-genetic-vouchers",
    "displayName": "Floristics-veg-genetic-voucher",
    "name": "floristics-veg-genetic-voucher",
    "description": ""
  },
  "options": {
    "increments": true,
    "timestamps": true,
    "draftAndPublish": false
  },
  "attributes": {
    "floristics_voucher": {
      "type": "component",
      "repeatable": false,
      "component": "vegetation.floristics-voucher",
      "required": true
    },
    "min_distance_between_replicates": {
      "type": "decimal",
      "x-paratoo-unit": "m"
    },
    "replicate": {
      "type": "component",
      "repeatable": true,
      "component": "plant-tissue-vouchering-replicate.replicate"
    },
    "survey": {
      "type": "relation",
      "relation": "oneToOne",
      "target": "api::floristics-veg-genetic-voucher-survey.floristics-veg-genetic-voucher-survey"
    },
    "date_time": {
      "type": "datetime",
      "required": true
    },
    "abis_export_uuid": {
      "type": "string",
      "unique": true
    }
  },
  "initialData": [
    [
      {
        "voucher_full": 1
      },
      3,
      [
        {
          "genetic_voucher_barcode": "dev_foo_barcode_0001",
          "replicate_number": 1
        },
        {
          "genetic_voucher_barcode": "dev_foo_barcode_0002",
          "replicate_number": 2
        },
        {
          "genetic_voucher_barcode": "dev_foo_barcode_0003",
          "replicate_number": 3
        },
        {
          "genetic_voucher_barcode": "dev_foo_barcode_0004",
          "replicate_number": 4
        },
        {
          "genetic_voucher_barcode": "dev_foo_barcode_0005",
          "replicate_number": 5
        }
      ],
      1,
      "2022-09-14T06:51:10.543Z"
    ],
    [
      {
        "voucher_full": 2
      },
      1,
      [
        {
          "genetic_voucher_barcode": "dev_foo_barcode_0006",
          "replicate_number": 1
        },
        {
          "genetic_voucher_barcode": "dev_foo_barcode_0007",
          "replicate_number": 2
        },
        {
          "genetic_voucher_barcode": "dev_foo_barcode_0008",
          "replicate_number": 3
        },
        {
          "genetic_voucher_barcode": "dev_foo_barcode_0009",
          "replicate_number": 4
        },
        {
          "genetic_voucher_barcode": "dev_foo_barcode_0010",
          "replicate_number": 5
        }
      ],
      1,
      "2022-09-14T06:52:10.543Z"
    ],
    [
      {
        "voucher_full": 3
      },
      8,
      [
        {
          "genetic_voucher_barcode": "dev_foo_barcode_0011",
          "replicate_number": 1
        },
        {
          "genetic_voucher_barcode": "dev_foo_barcode_0012",
          "replicate_number": 2
        },
        {
          "genetic_voucher_barcode": "dev_foo_barcode_0013",
          "replicate_number": 3
        },
        {
          "genetic_voucher_barcode": "dev_foo_barcode_0014",
          "replicate_number": 4
        },
        {
          "genetic_voucher_barcode": "dev_foo_barcode_0015",
          "replicate_number": 5
        }
      ],
      1,
      "2022-09-14T06:53:10.543Z"
    ],
    [
      {
        "voucher_full": 4
      },
      3,
      [
        {
          "genetic_voucher_barcode": "dev_foo_barcode_0016",
          "replicate_number": 1
        },
        {
          "genetic_voucher_barcode": "dev_foo_barcode_0017",
          "replicate_number": 2
        },
        {
          "genetic_voucher_barcode": "dev_foo_barcode_0018",
          "replicate_number": 3
        },
        {
          "genetic_voucher_barcode": "dev_foo_barcode_0019",
          "replicate_number": 4
        },
        {
          "genetic_voucher_barcode": "dev_foo_barcode_0020",
          "replicate_number": 5
        }
      ],
      2,
      "2022-09-14T07:09:43.842Z"
    ],
    [
      {
        "voucher_full": 5
      },
      1,
      [
        {
          "genetic_voucher_barcode": "dev_foo_barcode_0021",
          "replicate_number": 1
        },
        {
          "genetic_voucher_barcode": "dev_foo_barcode_0022",
          "replicate_number": 2
        },
        {
          "genetic_voucher_barcode": "dev_foo_barcode_0023",
          "replicate_number": 3
        },
        {
          "genetic_voucher_barcode": "dev_foo_barcode_0024",
          "replicate_number": 4
        },
        {
          "genetic_voucher_barcode": "dev_foo_barcode_0025",
          "replicate_number": 5
        }
      ],
      2,
      "2022-09-14T07:10:43.842Z"
    ],
    [
      {
        "voucher_full": 6
      },
      2,
      [
        {
          "genetic_voucher_barcode": "dev_foo_barcode_0026",
          "replicate_number": 1
        },
        {
          "genetic_voucher_barcode": "dev_foo_barcode_0027",
          "replicate_number": 2
        },
        {
          "genetic_voucher_barcode": "dev_foo_barcode_0028",
          "replicate_number": 3
        },
        {
          "genetic_voucher_barcode": "dev_foo_barcode_0029",
          "replicate_number": 4
        },
        {
          "genetic_voucher_barcode": "dev_foo_barcode_0030",
          "replicate_number": 5
        }
      ],
      2,
      "2022-09-14T07:11:43.842Z"
    ],
    [
      {
        "voucher_full": 1
      },
      5,
      [
        {
          "genetic_voucher_barcode": "dev_foo_barcode_0031",
          "replicate_number": 1
        },
        {
          "genetic_voucher_barcode": "dev_foo_barcode_0032",
          "replicate_number": 2
        },
        {
          "genetic_voucher_barcode": "dev_foo_barcode_0033",
          "replicate_number": 3
        },
        {
          "genetic_voucher_barcode": "dev_foo_barcode_0034",
          "replicate_number": 4
        },
        {
          "genetic_voucher_barcode": "dev_foo_barcode_0035",
          "replicate_number": 5
        }
      ],
      3,
      "2022-09-14T07:17:41.228Z"
    ],
    [
      {
        "voucher_full": 2
      },
      1,
      [
        {
          "genetic_voucher_barcode": "dev_foo_barcode_0036",
          "replicate_number": 1
        },
        {
          "genetic_voucher_barcode": "dev_foo_barcode_0037",
          "replicate_number": 2
        },
        {
          "genetic_voucher_barcode": "dev_foo_barcode_0038",
          "replicate_number": 3
        },
        {
          "genetic_voucher_barcode": "dev_foo_barcode_0039",
          "replicate_number": 4
        },
        {
          "genetic_voucher_barcode": "dev_foo_barcode_0040",
          "replicate_number": 5
        }
      ],
      3,
      "2022-09-14T07:18:41.228Z"
    ],
    [
      {
        "voucher_full": 3
      },
      4,
      [
        {
          "genetic_voucher_barcode": "dev_foo_barcode_0041",
          "replicate_number": 1
        },
        {
          "genetic_voucher_barcode": "dev_foo_barcode_0042",
          "replicate_number": 2
        },
        {
          "genetic_voucher_barcode": "dev_foo_barcode_0043",
          "replicate_number": 3
        },
        {
          "genetic_voucher_barcode": "dev_foo_barcode_0044",
          "replicate_number": 4
        },
        {
          "genetic_voucher_barcode": "dev_foo_barcode_0045",
          "replicate_number": 5
        }
      ],
      3,
      "2022-09-14T07:19:41.228Z"
    ],
    [
      {
        "voucher_full": 4
      },
      6,
      [
        {
          "genetic_voucher_barcode": "dev_foo_barcode_0046",
          "replicate_number": 1
        },
        {
          "genetic_voucher_barcode": "dev_foo_barcode_0047",
          "replicate_number": 2
        },
        {
          "genetic_voucher_barcode": "dev_foo_barcode_0048",
          "replicate_number": 3
        },
        {
          "genetic_voucher_barcode": "dev_foo_barcode_0049",
          "replicate_number": 4
        },
        {
          "genetic_voucher_barcode": "dev_foo_barcode_0050",
          "replicate_number": 5
        }
      ],
      4,
      "2022-09-14T07:20:26.321Z"
    ],
    [
      {
        "voucher_full": 5
      },
      4,
      [
        {
          "genetic_voucher_barcode": "dev_foo_barcode_0051",
          "replicate_number": 1
        },
        {
          "genetic_voucher_barcode": "dev_foo_barcode_0052",
          "replicate_number": 2
        },
        {
          "genetic_voucher_barcode": "dev_foo_barcode_0053",
          "replicate_number": 3
        },
        {
          "genetic_voucher_barcode": "dev_foo_barcode_0054",
          "replicate_number": 4
        },
        {
          "genetic_voucher_barcode": "dev_foo_barcode_0055",
          "replicate_number": 5
        }
      ],
      4,
      "2022-09-14T07:21:26.321Z"
    ],
    [
      {
        "voucher_full": 6
      },
      9,
      [
        {
          "genetic_voucher_barcode": "dev_foo_barcode_0056",
          "replicate_number": 1
        },
        {
          "genetic_voucher_barcode": "dev_foo_barcode_0057",
          "replicate_number": 2
        },
        {
          "genetic_voucher_barcode": "dev_foo_barcode_0058",
          "replicate_number": 3
        },
        {
          "genetic_voucher_barcode": "dev_foo_barcode_0059",
          "replicate_number": 4
        },
        {
          "genetic_voucher_barcode": "dev_foo_barcode_0060",
          "replicate_number": 5
        }
      ],
      4,
      "2022-09-14T07:21:26.321Z"
    ]
  ]
}