{
  "kind": "collectionType",
  "collectionName": "lut_soil_sub_pit_collection_methods",
  "info": {
    "singularName": "lut-soil-sub-pit-collection-method",
    "pluralName": "lut-soil-sub-pit-collection-methods",
    "displayName": "Lut soil sub pit collection method"
  },
  "options": {
    "draftAndPublish": false
  },
  "attributes": {
    "symbol": {
      "type": "string",
      "required": true,
      "unique": true
    },
    "label": {
      "type": "string",
      "required": true,
      "unique": true
    },
    "description": {
      "type": "text"
    },
    "uri": {
      "type": "string"
    }
  },
  "initialData": [
    [
      "DG",
      "Differential GNSS",
      "",
      ""
    ],
    [
      "HG",
      "Handheld GNSS",
      "",
      ""
    ],
    [
      "T",
      "Tablet",
      "",
      ""
    ]
  ]
}