{
  "kind": "collectionType",
  "collectionName": "lut_broad_monitoring_types",
  "info": {
    "singularName": "lut-broad-monitoring-type",
    "pluralName": "lut-broad-monitoring-types",
    "displayName": "lut-broad-monitoring-type"
  },
  "options": {
    "draftAndPublish": false
  },
  "pluginOptions": {},
  "attributes": {
    "symbol": {
      "type": "string",
      "required": true,
      "unique": true
    },
    "label": {
      "type": "string",
      "required": true,
      "unique": true
    },
    "description": {
      "type": "text"
    },
    "uri": {
      "type": "string"
    }
  },
  "initialData": [
    [
      "FLM",
      "Flora monitoring",
      "",
      ""
    ],
    [
      "FAM",
      "Fauna monitoring",
      "",
      ""
    ],
    [
      "HC",
      "Habitat condition (includes restoration/fire recovery)",
      "",
      ""
    ],
    [
      "ECA",
      "Ecological community assessment",
      "",
      ""
    ],
    [
      "ECC",
      "Ecological community condition (includes restoration)",
      "",
      ""
    ],
    [
      "LSM",
      "Land/soil monitoring",
      "",
      ""
    ]
  ]
}