{
  "kind": "collectionType",
  "collectionName": "lut_floristics_habits",
  "info": {
    "singularName": "lut-floristics-habit",
    "pluralName": "lut-floristics-habits",
    "displayName": "Lut floristics habit",
    "uri": "https://linked.data.gov.au/def/nrm/015360a2-1e21-4401-be70-25c581569ba6"
  },
  "options": {
    "draftAndPublish": false
  },
  "attributes": {
    "symbol": {
      "type": "string",
      "required": true,
      "unique": true
    },
    "label": {
      "type": "string",
      "required": true,
      "unique": true
    },
    "description": {
      "type": "text"
    },
    "uri": {
      "type": "string"
    }
  },
  "initialData": [
    [
      "ASC",
      "Ascending",
      "Weakly erect",
      "https://linked.data.gov.au/def/nrm/d5bd18f1-8ed8-4b4e-a313-e96535598fc9"
    ],
    [
      "CLI",
      "Climbing",
      "Plants that climb upwards with the help of extrenal support",
      "https://linked.data.gov.au/def/nrm/786f935f-0b7d-4a72-b582-5bac740a14ac"
    ],
    [
      "CRE",
      "Creeping",
      "Spread and grow outward from the original plant",
      "https://linked.data.gov.au/def/nrm/cf37a9ea-25f7-4e7e-b29e-4248074ad72b"
    ],
    [
      "DEC",
      "Decumbent",
      "More or less horizontal with down-turned tips",
      "https://linked.data.gov.au/def/nrm/62eb2c61-92b4-4861-a3e6-2c876ba43073"
    ],
    [
      "ERC",
      "Erect",
      "Upright, perpendicular",
      "https://linked.data.gov.au/def/nrm/2d997343-4be2-411a-944a-7ef956e696a2"
    ],
    [
      "PEN",
      "Pendulous",
      "Hanging down loosely",
      "https://linked.data.gov.au/def/nrm/607b0b06-caa2-4882-86bd-d4da70b3b63c"
    ],
    [
      "PRC",
      "Procumbent",
      "More or less horizontal with up-turned tips",
      ""
    ],
    [
      "PRS",
      "Prostrate",
      "Completely flat on the substrate including trailing plants",
      "https://linked.data.gov.au/def/nrm/5459d7c1-b29f-4616-9572-f2f323520cfc"
    ],
    [
      "RHI",
      "Rhizomatous",
      "Plants that send out roots and shoots from its nodes",
      ""
    ],
    [
      "STR",
      "Straggling",
      "Leaning or lying over other plants",
      "https://linked.data.gov.au/def/nrm/e3bb5cd7-f56c-41bc-8a4f-e6627c37826e"
    ],
    [
      "SUC",
      "Succulent",
      "Fleshy, juicy, soft in texture and usually thickened",
      "https://linked.data.gov.au/def/nrm/cb6d4feb-aaef-42b7-b9d2-7edb9b5871bd"
    ],
    [
      "TUF",
      "Tufted",
      "Of many stems growing in clusters attached at the base",
      "https://linked.data.gov.au/def/nrm/df842727-5c00-4758-993e-3bb1558afa43"
    ],
    [
      "TWIN",
      "Twinning",
      "Climbing plants which wind themselves around supports",
      "https://linked.data.gov.au/def/nrm/8bf40f11-ec32-4119-a183-113fa04a4363"
    ]
  ]
}