{
  "kind": "collectionType",
  "collectionName": "grassy_weeds_exports",
  "info": {
    "singularName": "grassy-weeds-export",
    "pluralName": "grassy-weeds-exports",
    "displayName": "Grassy Weeds Export"
  },
  "options": {
    "draftAndPublish": false
  },
  "pluginOptions": {},
  "attributes": {
    "grassy_weeds_survey": {
      "type": "relation",
      "relation": "oneToOne",
      "target": "api::grassy-weeds-survey.grassy-weeds-survey"
    }
  }
}