{
  "collectionName": "drone_weathers",
  "info": {
    "displayName": "Drone Weather"
  },
  "options": {},
  "attributes": {
    "precipitation": {
      "type": "relation",
      "relation": "oneToOne",
      "target": "api::lut-weather-precipitation.lut-weather-precipitation",
      "required": true,
      "x-paratoo-rename": "Rainfall"
    },
    "precipitation_duration": {
      "type": "relation",
      "relation": "oneToOne",
      "target": "api::lut-weather-precipitation-duration.lut-weather-precipitation-duration",
      "x-paratoo-rename": "Rainfall duration"
    },
    "wind_description": {
      "type": "relation",
      "relation": "oneToOne",
      "target": "api::lut-weather-wind.lut-weather-wind",
      "required": true,
      "x-paratoo-rename": "Wind"
    },
    "wind_speed": {
      "type": "decimal",
      "x-paratoo-unit": "m/s"
    },
    "cloud_cover": {
      "type": "relation",
      "relation": "oneToOne",
      "target": "api::lut-drone-sky-code.lut-drone-sky-code",
      "required": true,
      "x-paratoo-rename": "Skycode"
    },
    "sun_angle": {
      "type": "decimal",
      "x-paratoo-unit": "°"
    }
  }
}
