{
  "collectionName": "components_weather_weathers",
  "info": {
    "displayName": "weather",
    "description": ""
  },
  "options": {},
  "attributes": {
    "precipitation": {
      "type": "relation",
      "relation": "oneToOne",
      "target": "api::lut-weather-precipitation.lut-weather-precipitation",
      "required": true,
      "x-paratoo-rename": "Rainfall"
    },
    "precipitation_duration": {
      "type": "relation",
      "relation": "oneToOne",
      "target": "api::lut-weather-precipitation-duration.lut-weather-precipitation-duration",
      "x-paratoo-rename": "Rainfall duration"
    },
    "wind_description": {
      "type": "relation",
      "relation": "oneToOne",
      "target": "api::lut-weather-wind.lut-weather-wind",
      "required": true,
      "x-paratoo-rename": "Wind"
    },
    "cloud_cover": {
      "type": "relation",
      "relation": "oneToOne",
      "target": "api::lut-weather-cloud-cover.lut-weather-cloud-cover",
      "required": true,
      "x-paratoo-rename": "Sun/cloud"
    },
    "temperature": {
      "type": "decimal",
      "x-paratoo-unit": "°C",
      "min": -50,
      "max": 75
    },
    "moon_phase": {
      "type": "relation",
      "relation": "oneToOne",
      "target": "api::lut-moon-phase.lut-moon-phase"
    }
  }
}
