{
  "kind": "collectionType",
  "collectionName": "lut_plot_nearest_infrastructures",
  "info": {
    "singularName": "lut-plot-nearest-infrastructure",
    "pluralName": "lut-plot-nearest-infrastructures",
    "displayName": "lut-plot-nearest-infrastructure",
    "uri": "http://www.neii.gov.au/def/voc/ACLUMP/australian-land-use-and-management-classification/Intensive-uses"
  },
  "options": {
    "draftAndPublish": false
  },
  "attributes": {
    "symbol": {
      "type": "string",
      "required": true,
      "unique": true
    },
    "label": {
      "type": "string",
      "required": true,
      "unique": true
    },
    "description": {
      "type": "text"
    },
    "uri": {
      "type": "string"
    }
  },
  "initialData": [
    [
      "AC",
      "Access tracks",
      "",
      ""
    ],
    [
      "Q",
      "Quarry",
      "",
      ""
    ],
    [
      "D",
      "Drain",
      "",
      ""
    ],
    [
      "FL",
      "Fence line",
      "",
      ""
    ],
    [
      "PL",
      "Power line",
      "",
      ""
    ],
    [
      "R",
      "Road",
      "",
      ""
    ],
    [
      "WP",
      "Watering point",
      "",
      ""
    ],
    [
      "H",
      "Homestead",
      "",
      ""
    ],
    [
      "O",
      "Other",
      "",
      ""
    ]
  ]
}