{
  "kind": "collectionType",
  "collectionName": "lut_lure_types",
  "info": {
    "singularName": "lut-lure-type",
    "pluralName": "lut-lure-types",
    "displayName": "LUT Lure Type"
  },
  "options": {
    "draftAndPublish": false
  },
  "attributes": {
    "symbol": {
      "type": "string",
      "required": true,
      "unique": true
    },
    "label": {
      "type": "string",
      "required": true,
      "unique": true
    },
    "description": {
      "type": "text"
    },
    "uri": {
      "type": "string"
    }
  },
  "initialData": [
    [
      "Food",
      "Food",
      "",
      ""
    ],
    [
      "Olfactory",
      "Olfactory",
      "",
      ""
    ],
    [
      "Audio",
      "Audio",
      "",
      ""
    ],
    [
      "Visual",
      "Visual",
      "",
      ""
    ]
  ]
}