{
  "kind": "collectionType",
  "collectionName": "camera_trap_deployment_surveys",
  "info": {
    "singularName": "camera-trap-deployment-survey",
    "pluralName": "camera-trap-deployment-surveys",
    "displayName": "Camera Trap Deployment Survey"
  },
  "options": {
    "draftAndPublish": false
  },
  "attributes": {
    "survey_label": {
      "type": "string",
      "unique": true,
      "required": true,
      "x-paratoo-hint": "Used to identify this deployment. Subsequent re-equippings will use this label to select the deployment points you can do re-equippings on"
    },
    "survey_type": {
      "type": "relation",
      "relation": "oneToOne",
      "target": "api::lut-camera-trap-survey-type.lut-camera-trap-survey-type",
      "x-paratoo-required": true
    },
    "start_date_time": {
      "type": "datetime",
      "required": true
    },
    "end_date_time": {
      "type": "datetime",
      "required": true
    },
    "survey_metadata": {
      "type": "component",
      "repeatable": false,
      "component": "survey-metadata.metadata",
      "x-paratoo-required": true
    },
    "planned_points": {
      "allowedTypes": [
        "files"
      ],
      "type": "media",
      "multiple": false,
      "x-paratoo-hint": "Upload a csv file of the proposed array to your mobile device, with 'name' (camera trap point ID), 'latitude' and 'longitude' columns, and with latitude and longitude in decimal degrees.",
      "x-paratoo-rename": "Array Planned Points"
    },
    "abis_export_uuid": {
      "type": "string",
      "unique": true
    }
  },
  "initialData": [
    [
      "Camera Survey 1",
      1,
      "2023-03-26T23:58:16.697Z",
      "2023-03-26T00:58:16.697Z",
      {
        "survey_details": {
          "survey_model": "camera-trap-survey",
          "time": "2023-03-26T23:58:38.415Z",
          "uuid": "18df219c-9ca2-45c2-aad8-11c3df290d90",
          "project_id": "1",
          "protocol_id": "ad088dbe-02b2-472a-901f-bd081e590bcf",
          "protocol_version": "1"
        },
        "provenance": {
          "version_app": "0.0.1-xxxxx",
          "version_core": "0.0.1-xxxxx",
          "version_core_documentation": "0.0.1-xxxxx",
          "version_org": "4.4-SNAPSHOT",
          "system_app": "monitor",
          "system_core": "Monitor FDCP API",
          "system_org": "monitor"
        },
        "orgMintedUUID": "cc6c240d-eb1f-4209-8701-290976ae5c8b"
      }
    ],
    [
      "Camera Survey 2",
      1,
      "2023-03-27T23:58:16.697Z",
      "2023-03-27T00:58:16.697Z",
      {
        "survey_details": {
          "survey_model": "camera-trap-survey",
          "time": "2023-03-27T23:58:38.415Z",
          "uuid": "4221d2dd-0b45-48ce-bac7-942218552a10",
          "project_id": "1",
          "protocol_id": "ad088dbe-02b2-472a-901f-bd081e590bcf",
          "protocol_version": "1"
        },
        "provenance": {
          "version_app": "0.0.1-xxxxx",
          "version_core": "0.0.1-xxxxx",
          "version_core_documentation": "0.0.1-xxxxx",
          "version_org": "4.4-SNAPSHOT",
          "system_app": "monitor",
          "system_core": "Monitor FDCP API",
          "system_org": "monitor"
        },
        "orgMintedUUID": "d6e24fc2-5e76-4b28-965f-5b4b8ab970ae"
      }
    ],
    [
      "Camera Survey 3",
      1,
      "2023-03-28T23:58:16.697Z",
      "2023-03-28T00:58:16.697Z",
      {
        "survey_details": {
          "survey_model": "camera-trap-survey",
          "time": "2023-03-28T23:58:38.415Z",
          "uuid": "88f186ea-3713-4801-9677-8514d7847efd",
          "project_id": "1",
          "protocol_id": "ad088dbe-02b2-472a-901f-bd081e590bcf",
          "protocol_version": "1"
        },
        "provenance": {
          "version_app": "0.0.1-xxxxx",
          "version_core": "0.0.1-xxxxx",
          "version_core_documentation": "0.0.1-xxxxx",
          "version_org": "4.4-SNAPSHOT",
          "system_app": "monitor",
          "system_core": "Monitor FDCP API",
          "system_org": "monitor"
        },
        "orgMintedUUID": "1af00d4f-ceba-4d60-ad6d-1640cb17794b"
      }
    ]
  ]
}