{
  "kind": "collectionType",
  "collectionName": "opportunistic_observations",
  "info": {
    "singularName": "opportunistic-observation",
    "pluralName": "opportunistic-observations",
    "displayName": "Opportunistic-observation",
    "name": "opportunistic-observation",
    "uri": "https://linked.data.gov.au/def/nrm/d3f85cc2-f3e8-4900-a2ac-19fc27fd14f9",
    "description": ""
  },
  "options": {
    "draftAndPublish": false
  },
  "attributes": {
    "observation_id": {
      "type": "string",
      "required": true,
      "unique": true
    },
    "media": {
      "type": "component",
      "repeatable": true,
      "component": "photo.multi-photo-vid-audio",
      "required": false
    },
    "date_time": {
      "type": "datetime",
      "required": true
    },
    "location": {
      "type": "component",
      "repeatable": false,
      "component": "location.location",
      "required": true
    },
    "taxa_type": {
      "type": "relation",
      "x-paratoo-required": true,
      "relation": "oneToOne",
      "target": "api::lut-taxa-type.lut-taxa-type",
      "required": true,
      "x-paratoo-symantec-uri": "https://linked.data.gov.au/def/nrm/1b3904f4-df8c-49ba-a234-3b406fe11fa9",
      "x-paratoo-hint": "Record to filter the species list and observation method, additional fauna measurements and voucher specimen data fields."
    },
    "species": {
      "type": "string",
      "required": true,
      "x-paratoo-csv-list-taxa": [
        "opportunistic"
      ]
    },
    "confident": {
      "type": "boolean",
      "required": true,
      "default": true
    },
    "number_of_individuals": {
      "type": "integer",
      "required": true,
      "min": 1,
      "x-paratoo-symantec-uri": "https://linked.data.gov.au/def/nrm/b2d28629-c986-4c05-9d4a-8b05e99a0a94"
    },
    "exact_or_estimate": {
      "type": "relation",
      "relation": "oneToOne",
      "target": "api::lut-exact-or-estimate.lut-exact-or-estimate",
      "required": true,
      "x-paratoo-hint": "Is the number of individuals recorded an exact number or estimate?"
    },
    "observation_method_tier_1": {
      "type": "relation",
      "relation": "oneToOne",
      "target": "api::lut-tier-1-observation-method.lut-tier-1-observation-method"
    },
    "observation_method_tier_2": {
      "type": "relation",
      "relation": "oneToOne",
      "target": "api::lut-tier-2-observation-method.lut-tier-2-observation-method"
    },
    "other_observation_method_tier_2": {
      "type": "string",
      "x-paratoo-hint": "Further observation method details filtered based on tier 1 selection."
    },
    "observation_method_tier_3": {
      "type": "relation",
      "relation": "oneToOne",
      "target": "api::lut-tier-3-observation-methods.lut-tier-3-observation-methods",
      "x-paratoo-hint": "Further observation method details filtered based on tier 2 selection"
    },
    "observers": {
      "type": "component",
      "repeatable": true,
      "component": "observers.observers",
      "required": true
    },
    "habitat_description": {
      "type": "relation",
      "relation": "oneToOne",
      "target": "api::lut-mvg.lut-mvg",
      "x-paratoo-symantec-uri": "https://www.dcceew.gov.au/sites/default/files/documents/australian-vegetation-attribute-manual-v70.pdf",
      "x-paratoo-rename": "Habitat (Major Vegetation Group)",
      "x-paratoo-description": "MVG"
    },
    "comments": {
      "type": "text"
    },
    "growth_form_and_life_stage": {
      "type": "component",
      "repeatable": true,
      "component": "opportune.life-stage"
    },
    "add_additional_fauna_data": {
      "type": "boolean",
      "default": false
    },
    "selections_option": {
      "type": "component",
      "repeatable": true,
      "component": "opportune.opportune-multiple-selections",
      "x-paratoo-rename": "Additional Fauna Details"
    },
    "vouchered_specimens": {
      "type": "component",
      "repeatable": true,
      "component": "opportune.opportunistic-observation-vouchered-specimen",
      "x-paratoo-rename": "Voucher Specimen"
    },
    "opportunistic_survey": {
      "type": "relation",
      "relation": "oneToOne",
      "target": "api::opportunistic-survey.opportunistic-survey"
    },
    "abis_export_uuid": {
      "type": "string",
      "unique": true
    }
  }
}