{
  "kind": "collectionType",
  "collectionName": "lut_weather_precipitation_durations",
  "info": {
    "singularName": "lut-weather-precipitation-duration",
    "pluralName": "lut-weather-precipitation-durations",
    "displayName": "Lut-weather-precipitation-duration",
    "name": "lut-weather-precipitation-duration",
    "uri": "https://linked.data.gov.au/def/nrm/34789810-a3bc-4def-9ddb-d14ff4ba02ea"
  },
  "options": {
    "draftAndPublish": false,
    "increments": true,
    "timestamps": true,
    "comment": ""
  },
  "attributes": {
    "symbol": {
      "type": "string",
      "required": true,
      "unique": true
    },
    "label": {
      "type": "string",
      "required": true,
      "unique": true
    },
    "description": {
      "type": "text"
    },
    "uri": {
      "type": "string"
    }
  },
  "initialData": [
    [
      "I",
      "Intermittent",
      "Precipitation which ceases at times",
      ""
    ],
    [
      "O",
      "Occasional",
      "Refers to the duration of precipitation, i.e., while not frequent, is recurrent.",
      "https://linked.data.gov.au/def/nrm/f77ad4ac-ecde-5bcc-b6be-833bb1e57f94"
    ],
    [
      "F",
      "Frequent",
      "Refers to the duration of precipitation- showers occurring regularly and often.",
      "https://linked.data.gov.au/def/nrm/540c6471-1223-51f5-9cef-774b98b119d6"
    ],
    [
      "C",
      "Continuous",
      "Refers to the duration of precipitation- precipitation which does not cease, or ceases only briefly.",
      "https://linked.data.gov.au/def/nrm/816742a6-004d-58e6-b60f-c404c73f33c7"
    ],
    [
      "P",
      "Periods of rain",
      "Refers to the duration of precipitation- rain falling most of the time, but with breaks.",
      "https://linked.data.gov.au/def/nrm/89e6226e-a4d5-5d5c-9813-b43a8d424b75"
    ],
    [
      "B",
      "Brief",
      "Refers to the duration of precipitation- short duration.",
      "https://linked.data.gov.au/def/nrm/08eed747-4ef0-5546-b032-93705178b1fd"
    ]
  ]
}