{
  "collectionName": "components_opportune_life_stages",
  "info": {
    "displayName": "life_stage"
  },
  "options": {},
  "attributes": {
    "growth_form": {
      "type": "relation",
      "relation": "oneToOne",
      "target": "api::lut-veg-growth-form.lut-veg-growth-form"
    },
    "life_stage": {
      "type": "relation",
      "relation": "oneToOne",
      "target": "api::lut-condition-life-stage.lut-condition-life-stage"
    }
  }
}
