{
  "kind": "collectionType",
  "collectionName": "invertebrate_rapid_traps",
  "info": {
    "singularName": "invertebrate-rapid-trap",
    "pluralName": "invertebrate-rapid-traps",
    "displayName": "invertebrate-rapid-trap"
  },
  "options": {
    "draftAndPublish": false
  },
  "attributes": {
    "rapid_survey": {
      "type": "relation",
      "relation": "oneToOne",
      "target": "api::invertebrate-rapid-ground-trapping.invertebrate-rapid-ground-trapping"
    },
    "trap_site_id": {
      "type": "string",
      "required": true
    },
    "bait_type": {
      "type": "enumeration",
      "enum": [
        "fish-based cat food",
        "honey",
        "fish-based cat food + honey"
      ],
      "required": true
    },
    "barcode": {
      "type": "string",
      "required": true,
      "unique": true
    },
    "date_time": {
      "type": "datetime",
      "required": true
    },
    "abis_export_uuid": {
      "type": "string",
      "unique": true
    }
  }
}