{
  "kind": "collectionType",
  "collectionName": "lut_soils_horizon_numeric_prefixes",
  "info": {
    "singularName": "lut-soils-horizon-numeric-prefix",
    "pluralName": "lut-soils-horizon-numeric-prefixes",
    "displayName": "lut-soils-horizon-numeric-prefix"
  },
  "options": {},
  "pluginOptions": {},
  "attributes": {
    "symbol": {
      "type": "string",
      "required": true,
      "unique": true
    },
    "label": {
      "type": "string",
      "required": true,
      "unique": true
    },
    "description": {
      "type": "text"
    },
    "uri": {
      "type": "string"
    }
  },
  "initialData": [
    ["2", "2"],
    ["3", "3"],
    ["4", "4"],
    ["5", "5"],
    ["6", "6"],
    ["7", "7"],
    ["8", "8"],
    ["9", "9"],
    ["10", "10"]
  ]
}
