{
  "kind": "collectionType",
  "collectionName": "soil_horizon_segs",
  "info": {
    "singularName": "soil-horizon-segregation",
    "pluralName": "soil-horizon-segregations",
    "displayName": "Soil-horizon-segregation",
    "name": "soil-horizon-segregation"
  },
  "options": {
    "increments": true,
    "timestamps": true,
    "draftAndPublish": false
  },
  "attributes": {
    "segregation_abundance": {
      "type": "relation",
      "relation": "oneToOne",
      "x-paratoo-rename": "Abundance",
      "target": "api::lut-soils-segregations-abundance.lut-soils-segregations-abundance"
    },
    "segregation_nature": {
      "type": "relation",
      "relation": "oneToOne",
      "x-paratoo-rename": "Nature",
      "target": "api::lut-soils-segregations-nature.lut-soils-segregations-nature"
    },
    "segregation_form": {
      "type": "relation",
      "relation": "oneToOne",
      "x-paratoo-rename": "Form",
      "target": "api::lut-soils-segregations-form.lut-soils-segregations-form"
    },
    "segregation_size": {
      "type": "relation",
      "relation": "oneToOne",
      "x-paratoo-rename": "Size",
      "target": "api::lut-soils-segregations-size.lut-soils-segregations-size"
    },
    "segregation_strength": {
      "type": "relation",
      "relation": "oneToOne",
      "x-paratoo-rename": "Strength",
      "target": "api::lut-soils-segregation-strength.lut-soils-segregation-strength"
    },
    "segregation_magnetic_attribute": {
      "type": "relation",
      "relation": "oneToOne",
      "x-paratoo-rename": "Magnetic attribute",
      "target": "api::lut-soils-segregation-magnetic-attributes.lut-soils-segregation-magnetic-attributes"
    },
    "abis_export_uuid": {
      "type": "string",
      "unique": true
    }
  }
}