{
  "kind": "collectionType",
  "collectionName": "lut_vertebrate_trap_check_statuses",
  "info": {
    "singularName": "lut-vertebrate-trap-check-status",
    "pluralName": "lut-vertebrate-trap-check-statuses",
    "displayName": "Lut vertebrate trap check status"
  },
  "options": {
    "draftAndPublish": false
  },
  "attributes": {
    "symbol": {
      "type": "string",
      "required": true,
      "unique": true
    },
    "label": {
      "type": "string",
      "required": true,
      "unique": true
    },
    "description": {
      "type": "text"
    },
    "uri": {
      "type": "string"
    }
  },
  "initialData": [
    [
      "E",
      "Empty",
      "",
      ""
    ],
    [
      "F",
      "False trigger",
      "",
      ""
    ],
    [
      "C",
      "Capture",
      "",
      ""
    ]
  ]
}