{
  "kind": "collectionType",
  "collectionName": "lut_vertebrate_trap_specifics",
  "info": {
    "singularName": "lut-vertebrate-trap-specific",
    "pluralName": "lut-vertebrate-trap-specifics",
    "displayName": "Lut vertebrate trap specific"
  },
  "options": {
    "draftAndPublish": false
  },
  "attributes": {
    "symbol": {
      "type": "string",
      "required": true,
      "unique": true
    },
    "label": {
      "type": "string",
      "required": true,
      "unique": true
    },
    "description": {
      "type": "text"
    },
    "uri": {
      "type": "string"
    }
  },
  "initialData": [
    [
      "PVC",
      "PVC pipe",
      "",
      ""
    ],
    [
      "P1",
      "Plastic bucket",
      "",
      ""
    ],
    [
      "P2",
      "Temporary plastic sheet folded",
      "",
      ""
    ],
    [
      "M",
      "Foldable aluminium or galvanised steel ",
      "i.e. Elliott and Sherman style",
      ""
    ],
    [
      "SC",
      "Shadecloth",
      "",
      ""
    ],
    [
      "SCH",
      "Shadecloth with hessian/other bag",
      "",
      ""
    ],
    [
      "WF",
      "Wire mesh, foot plate mechanism",
      "",
      ""
    ],
    [
      "WH",
      "Wire mesh, hook mechanism",
      "",
      ""
    ]
  ]
}