{
  "kind": "collectionType",
  "collectionName": "surface_coarse_fragments",
  "info": {
    "singularName": "surface-coarse-fragments-observation",
    "pluralName": "surface-coarse-fragments-observations",
    "displayName": "Surface-coarse-fragments-observations",
    "name": "surface-coarse-fragments-observation",
    "uri": "https://linked.data.gov.au/def/nrm/5b7addb7-ae3d-47eb-b5d8-f34cc211875a"
  },
  "options": {
    "increments": true,
    "timestamps": true,
    "draftAndPublish": false
  },
  "attributes": {
    "soil_pit_survey": {
      "type": "relation",
      "relation": "oneToOne",
      "target": "api::soil-pit-characterisation-full.soil-pit-characterisation-full"
    },
    "coarse_fragments_abundance": {
      "x-paratoo-rename": "Abundance",
      "type": "relation",
      "relation": "oneToOne",
      "target": "api::lut-soils-coarse-frag-abundance.lut-soils-coarse-frag-abundance",
      "x-paratoo-description": "CoarseFragments",
      "x-paratoo-symantec-uri": "https://linked.data.gov.au/def/nrm/b3dd4df5-589b-476e-8e9e-0af6a7155759"
    },
    "coarse_fragments_size": {
      "x-paratoo-rename": "Size",
      "type": "relation",
      "relation": "oneToOne",
      "target": "api::lut-soils-coarse-frag-size.lut-soils-coarse-frag-size",
      "x-paratoo-description": "CoarseFragments",
      "x-paratoo-symantec-uri": "https://linked.data.gov.au/def/nrm/92ae6036-50a8-446c-8df8-573860011b79"
    },
    "coarse_fragments_shape": {
      "x-paratoo-rename": "Shape",
      "type": "relation",
      "relation": "oneToOne",
      "x-paratoo-description": "CoarseFragments",
      "target": "api::lut-soils-coarse-frag-shape.lut-soils-coarse-frag-shape",
      "x-paratoo-symantec-uri": "https://linked.data.gov.au/def/nrm/d83560e6-0356-446e-a8b5-e64b82e3c362"
    },
    "coarse_fragments_lithology": {
      "x-paratoo-rename": "Lithology",
      "type": "relation",
      "relation": "oneToOne",
      "target": "api::lut-soils-lithology.lut-soils-lithology",
      "x-paratoo-hint": "Lithological type of surface coarse fragments. The most common options appear first, select 'see more' to view a list of all possible lithology options.",
      "x-paratoo-symantec-uri": "https://linked.data.gov.au/def/nrm/4062f093-424b-441e-86fc-648d820ae1fb"
    },
    "coarse_fragments_strength": {
      "x-paratoo-rename": "Strength",
      "type": "relation",
      "relation": "oneToOne",
      "x-paratoo-description": "CoarseFragments",
      "x-paratoo-hint": "Field estimation of strength class of intact rock material by cutting with knife, pick or hammer (single blow) using the table",
      "target": "api::lut-soils-coarse-frag-strength.lut-soils-coarse-frag-strength"
    },
    "coarse_fragments_alteration": {
      "x-paratoo-rename": "Alteration",
      "type": "relation",
      "relation": "oneToOne",
      "target": "api::lut-soils-coarse-frag-alteration.lut-soils-coarse-frag-alteration"
    },
    "abis_export_uuid": {
      "type": "string",
      "unique": true
    }
  }
}