{
  "collectionName": "lut_soils_seg_mag_attr",
  "info": {
    "singularName": "lut-soils-segregation-magnetic-attributes",
    "pluralName": "lut-soils-segregation-magnetic-attributess",
    "displayName": "Lut-soils-segregation-magnetic-attributes",
    "name": "lut-soils-segregation-magnetic-attributes"
  },
  "options": {
    "draftAndPublish": false,
    "increments": true,
    "timestamps": true,
    "comment": ""
  },
  "attributes": {
    "symbol": {
      "type": "string",
      "required": true,
      "unique": true
    },
    "label": {
      "type": "string",
      "required": true,
      "unique": true
    },
    "description": {
      "type": "text"
    },
    "uri": {
      "type": "string"
    }
  },
  "initialData": [
    [
      "N",
      "Non-magnetic",
      "",
      ""
    ],
    [
      "M",
      "Magnetic",
      "",
      ""
    ]
  ]
}