{
  "kind": "collectionType",
  "collectionName": "invertebrate_active_search_surveys",
  "info": {
    "singularName": "invertebrate-active-search-survey",
    "pluralName": "invertebrate-active-search-surveys",
    "displayName": "invertebrate-active-search-survey",
    "description": ""
  },
  "options": {
    "draftAndPublish": false
  },
  "attributes": {
    "plot_visit": {
      "type": "relation",
      "relation": "oneToOne",
      "target": "api::plot-visit.plot-visit"
    },
    "search_method": {
      "type": "relation",
      "relation": "oneToOne",
      "target": "api::lut-vertebrate-search-method.lut-vertebrate-search-method",
      "x-paratoo-required": true
    },
    "observers": {
      "type": "component",
      "repeatable": true,
      "component": "observers.observers",
      "required": true
    },
    "search_time": {
      "type": "integer",
      "required": true,
      "x-paratoo-unit": "minutes",
      "min": 0,
      "x-paratoo-hint": "The standard (minimum) search time is 60 minutes for one person, or 30 minutes for two people."
    },
    "weather": {
      "type": "component",
      "repeatable": false,
      "component": "weather.weather"
    },
    "apparatus": {
      "type": "component",
      "repeatable": true,
      "component": "invertebrate.apparatus"
    },
    "start_date_time": {
      "type": "datetime",
      "required": true
    },
    "end_date_time": {
      "type": "datetime",
      "required": true
    },
    "survey_metadata": {
      "type": "component",
      "repeatable": false,
      "component": "survey-metadata.metadata",
      "x-paratoo-required": true
    },
    "abis_export_uuid": {
      "type": "string",
      "unique": true
    }
  }
}