{
  "collectionName": "components_photo_multi_photo_vid_audios",
  "info": {
    "displayName": "multi_photo_vid_audio"
  },
  "options": {},
  "attributes": {
    "media": {
      "allowedTypes": [
        "images",
        "videos",
        "audios"
      ],
      "type": "media",
      "multiple": false,
      "required": true
    },
    "comment": {
      "type": "text"
    }
  }
}
