{
  "collectionName": "lut_soils_field_slaking_scores",
  "info": {
    "singularName": "lut-soils-field-slaking-score",
    "pluralName": "lut-soils-field-slaking-scores",
    "displayName": "Lut-soils-field-slaking-score",
    "name": "lut-soils-field-slaking-score",
    "uri": "https://linked.data.gov.au/def/nrm/c2408628-477b-4867-bc12-532126801973"
  },
  "options": {
    "draftAndPublish": false,
    "increments": true,
    "timestamps": true,
    "comment": ""
  },
  "attributes": {
    "symbol": {
      "type": "string",
      "required": true,
      "unique": true
    },
    "label": {
      "type": "string",
      "required": true,
      "unique": true
    },
    "description": {
      "type": "text"
    },
    "uri": {
      "type": "string"
    }
  },
  "initialData": [
    [
      "0",
      "Not slaked within 10 minutes",
      "Refers to the soil field slaking scores, where no slaking occurs within 10 minutes.",
      "https://linked.data.gov.au/def/nrm/bf714323-aaf2-5ba9-9219-852a06d29e67"
    ],
    [
      "1",
      "Partially slaked within 10 minutes",
      "Refers to the soil field slaking scores, where partial slaking occurs within 10 minutes.",
      "https://linked.data.gov.au/def/nrm/54efb939-c6e3-5466-95a4-ef11f3f5a228"
    ],
    [
      "2",
      "Completely slaked within 10 minutes",
      "Refers to the soil field slaking scores, where complete slaking occurs within 10 minutes.",
      "https://linked.data.gov.au/def/nrm/6d66f362-a9da-5d7d-bde7-5563e34188d0"
    ]
  ]
}