{
  "kind": "collectionType",
  "collectionName": "lut_vertebrate_drift_fence_names",
  "info": {
    "singularName": "lut-vertebrate-drift-fence-name",
    "pluralName": "lut-vertebrate-drift-fence-names",
    "displayName": "Lut-vertebrate-drift-fence-name"
  },
  "options": {
    "draftAndPublish": false
  },
  "attributes": {
    "symbol": {
      "type": "string",
      "required": true,
      "unique": true
    },
    "label": {
      "type": "string",
      "required": true,
      "unique": true
    },
    "description": {
      "type": "text"
    },
    "uri": {
      "type": "string"
    }
  },
  "initialData": [
    [
      "A",
      "Trap line A",
      "",
      ""
    ],
    [
      "B",
      "Drift fence B",
      "Drift fence",
      ""
    ],
    [
      "C",
      "Trap line C",
      "",
      ""
    ],
    [
      "D",
      "Trap line D",
      "",
      ""
    ],
    [
      "E",
      "Drift fence E",
      "Drift fence",
      ""
    ],
    [
      "F",
      "Trap line F",
      "",
      ""
    ]
  ]
}