{
  "kind": "collectionType",
  "collectionName": "lut_cwd_cut_off_lengths",
  "info": {
    "singularName": "lut-cwd-cut-off-length",
    "pluralName": "lut-cwd-cut-off-lengths",
    "displayName": "lut-cwd-cut-off-length"
  },
  "options": {
    "draftAndPublish": false
  },
  "attributes": {
    "symbol": {
      "type": "string",
      "required": true,
      "unique": true
    },
    "label": {
      "type": "string",
      "required": true,
      "unique": true
    },
    "description": {
      "type": "text"
    },
    "uri": {
      "type": "string"
    }
  },
  "initialData": [
    [
      "C50",
      "50 cm",
      "",
      ""
    ],
    [
      "C30",
      "30 cm",
      "",
      ""
    ]
  ]
}