{
  "kind": "collectionType",
  "collectionName": "lut_observer_roles",
  "info": {
    "singularName": "lut-observer-role",
    "pluralName": "lut-observer-roles",
    "displayName": "Lut observer role"
  },
  "options": {
    "draftAndPublish": false
  },
  "attributes": {
    "symbol": {
      "type": "string",
      "required": true,
      "unique": true
    },
    "label": {
      "type": "string",
      "required": true,
      "unique": true
    },
    "description": {
      "type": "text"
    },
    "uri": {
      "type": "string"
    }
  },
  "initialData": [
    [
      "S",
      "Spotter",
      "",
      ""
    ],
    [
      "D",
      "Driver",
      "",
      ""
    ],
    [
      "D1",
      "Data entry",
      "",
      ""
    ],
    [
      "O",
      "Other",
      "",
      ""
    ]
  ]
}