{
  "collectionName": "lut_soils_gilgai_proportions",
  "info": {
    "singularName": "lut-soils-gilgai-proportion",
    "pluralName": "lut-soils-gilgai-proportions",
    "displayName": "Lut-soils-gilgai-proportion",
    "name": "lut-soils-gilgai-proportion",
    "uri": "https://linked.data.gov.au/def/nrm/c441cb41-6f65-417c-88b7-2c10375bf3f3"
  },
  "options": {
    "draftAndPublish": false,
    "increments": true,
    "timestamps": true,
    "comment": ""
  },
  "attributes": {
    "symbol": {
      "type": "string",
      "required": true,
      "unique": true
    },
    "label": {
      "type": "string",
      "required": true,
      "unique": true
    },
    "description": {
      "type": "text"
    },
    "uri": {
      "type": "string"
    }
  },
  "initialData": [
    [
      "A",
      "Equal mounds and depressions; no shelf present",
      "",
      "https://linked.data.gov.au/def/nrm/4268c09d-3ae4-56f3-9ea6-f09375ff76f1"
    ],
    [
      "B",
      "More mounds than depressions; no shelf present",
      "",
      "https://linked.data.gov.au/def/nrm/020ca838-97f9-54d6-88b4-c4735620e909"
    ],
    [
      "C",
      "Fewer mounds than depressions; no shelf present",
      "",
      "https://linked.data.gov.au/def/nrm/decef65d-57fa-59c6-b028-a97fc7726eb2"
    ],
    [
      "D",
      "Mound, shelf and depressions; shelf forms prominent part of gilgai",
      "",
      "https://linked.data.gov.au/def/nrm/82ff39b2-e539-555c-aab1-634236bed547"
    ],
    [
      "N/A",
      "N/A",
      "",
      ""
    ]
  ]
}