{
  "kind": "collectionType",
  "collectionName": "soil_horizon_roots",
  "info": {
    "singularName": "soil-horizon-root",
    "pluralName": "soil-horizon-roots",
    "displayName": "soil-horizon-root"
  },
  "options": {
    "draftAndPublish": false
  },
  "attributes": {
    "root_abundance": {
      "type": "relation",
      "relation": "oneToOne",
      "x-paratoo-rename": "Abundance",
      "target": "api::lut-soil-root-abundance.lut-soil-root-abundance",
      "x-paratoo-hint": "Record the presence of roots observed in each horizon in areas 100 mm square on a cleaned exposure face"
    },
    "root_size": {
      "type": "relation",
      "relation": "oneToOne",
      "x-paratoo-rename": "Size",
      "target": "api::lut-soils-root-size.lut-soils-root-size",
      "x-paratoo-hint": "Record the presence of roots observed in each horizon in areas 100 mm square on a cleaned exposure face"
    },
    "abis_export_uuid": {
      "type": "string",
      "unique": true
    }
  }
}