{
  "collectionName": "lut_soils_moisture_statuses",
  "info": {
    "singularName": "lut-soils-moisture-status",
    "pluralName": "lut-soils-moisture-statuss",
    "displayName": "Lut-soils-moisture-status",
    "name": "lut-soils-moisture-status"
  },
  "options": {
    "draftAndPublish": false,
    "increments": true,
    "timestamps": true,
    "comment": ""
  },
  "attributes": {
    "symbol": {
      "type": "string",
      "required": true,
      "unique": true
    },
    "label": {
      "type": "string",
      "required": true,
      "unique": true
    },
    "description": {
      "type": "text"
    },
    "uri": {
      "type": "string"
    }
  },
  "initialData": [
    [
      "M",
      "Moist",
      "",
      ""
    ],
    [
      "D",
      "Dry",
      "",
      ""
    ]
  ]
}