{
  "kind": "collectionType",
  "collectionName": "lut_key_target_taxas",
  "info": {
    "singularName": "lut-key-target-taxa",
    "pluralName": "lut-key-target-taxas",
    "displayName": "lut-key-target-taxa"
  },
  "options": {
    "draftAndPublish": false
  },
  "pluginOptions": {},
  "attributes": {
    "symbol": {
      "type": "string",
      "required": true,
      "unique": true
    },
    "label": {
      "type": "string",
      "required": true,
      "unique": true
    },
    "description": {
      "type": "text"
    },
    "uri": {
      "type": "string"
    }
  },
  "initialData": [
    [
      "VF",
      "Vascular flora",
      "",
      ""
    ],
    [
      "NF",
      "Non-vascular flora",
      "",
      ""
    ],
    [
      "VC",
      "Vegetation community",
      "",
      ""
    ],
    [
      "Birds",
      "Birds",
      "",
      ""
    ],
    [
      "Mammals",
      "Mammals",
      "",
      ""
    ],
    [
      "Reptiles",
      "Reptiles",
      "",
      ""
    ],
    [
      "Frogs",
      "Frogs",
      "",
      ""
    ],
    [
      "Invertebrates",
      "Invertebrates",
      "",
      ""
    ]
  ]
}