{
  "collectionName": "lut_soils_texture_modifiers",
  "info": {
    "singularName": "lut-soils-texture-modifier",
    "pluralName": "lut-soils-texture-modifiers",
    "displayName": "Lut-soils-texture-modifier",
    "name": "lut-soils-texture-modifier",
    "uri": "https://linked.data.gov.au/def/nrm/65d26894-1b2e-4c80-92ee-fa420142ed67"
  },
  "options": {
    "draftAndPublish": false,
    "increments": true,
    "timestamps": true,
    "comment": ""
  },
  "attributes": {
    "symbol": {
      "type": "string",
      "required": true,
      "unique": true
    },
    "label": {
      "type": "string",
      "required": true,
      "unique": true
    },
    "description": {
      "type": "text"
    },
    "uri": {
      "type": "string"
    }
  },
  "initialData": [
    [
      "F",
      "Fine sandy",
      "Refers to the soil texture modifier class. Fine sandy can be felt and often heard when manipulated. Sand grains are clearly evident under a 10x hand lens.",
      "https://linked.data.gov.au/def/nrm/aeec2d65-6679-55e9-8b34-a39dfc5f530b"
    ],
    [
      "K",
      "Coarse sandy",
      "Refers to the soil texture modifier class. Coarse sandy is obviously coarse to touch. Sand\n grains are very readily seen with the naked eye.",
      "https://linked.data.gov.au/def/nrm/d8296db9-adef-58ae-829d-d6c1329db400"
    ],
    [
      "S",
      "Medium sandy",
      "Refers to the soil texture modifier. Medium sandy soil cannot be moulded; sand grains of medium size; single sand grains adhere to fingers.",
      "https://linked.data.gov.au/def/nrm/4b9e285a-989f-5a6c-83de-c4d678c13030"
    ],
    [
      "Z",
      "Silty",
      "Refers to the soil texture modifier. Silty are coherent bolus; very smooth to often silky when manipulated; will form ribbon of about 25 mm.",
      "https://linked.data.gov.au/def/nrm/bbfc48dc-0699-5d9f-b439-b044b47f8052"
    ]
  ]
}