{
  "collectionName": "observers-with-roles",
  "info": {
    "displayName": "observers-with-roles"
  },
  "options": {},
  "attributes": {
    "observer_name": {
      "type": "string",
      "required": true,
      "x-paratoo-required": true
    },
    "role": {
      "type": "component",
      "repeatable": true,
      "component": "multi-lut.roles",
      "required": true,
      "x-paratoo-required": true,
      "x-paratoo-rename": "Observer Role"
    }
  }
}
