{
  "kind": "collectionType",
  "collectionName": "lut_intervention_land_management_industry_types",
  "info": {
    "singularName": "lut-intervention-land-management-industry-type",
    "pluralName": "lut-intervention-land-management-industry-types",
    "displayName": "Lut-intervention-land-management-industry-type",
    "name": "lut-intervention-land-management-industry-type",
    "uri": "https://linked.data.gov.au/def/nrm/2d9702b7-209e-4a56-b707-6862763d17ed"
  },
  "options": {
    "increments": true,
    "timestamps": true,
    "draftAndPublish": false
  },
  "attributes": {
    "symbol": {
      "type": "string",
      "required": true,
      "unique": true
    },
    "label": {
      "type": "string",
      "required": true,
      "unique": true
    },
    "description": {
      "type": "text"
    },
    "uri": {
      "type": "string"
    }
  },
  "initialData": [
    [
      "BAC",
      "Broad Acre Cropping",
      "Refers to the type of industry for which the site is being prepared. Broad acre cropping is a type of land suitable for farms practicing large-scale crop operations (e.g., sunflower, sugarcane, oilseeds, etc.). ",
      "https://linked.data.gov.au/def/nrm/3ddf383d-12e3-5a97-9ba0-9727863c84e5"
    ],
    [
      "D",
      "Dairy",
      "Refers to the type of industry for which the site is being prepared. Dairy is an industry in which animal milk is harvested and, optionally, processed for human consumption.",
      "https://linked.data.gov.au/def/nrm/a3a9099f-da10-5f81-906a-66dd9ca9ee34"
    ],
    [
      "H",
      "Horticulture",
      "Refers to the type of industry for which the site is being prepared for land management. Horticulture is a branch of agriculture which involves the cultivation of vegetables, flowers, or ornamental plants for food, industrial, medicinal, or aesthetic purposes. ",
      "https://linked.data.gov.au/def/nrm/5eb6f4e5-8ed3-58ae-b014-cbd05bcd4057"
    ],
    [
      "G",
      "Grazing",
      "Refers to the type of industry for which the site is being prepared for land management. Grazing are land suitable for livestock. ",
      "https://linked.data.gov.au/def/nrm/7f0f52d9-0a40-5e53-a8fa-b007050342e8"
    ],
    [
      "F",
      "Fisheries",
      "Refers to the type of industry for which the site is being prepared for land management. Fisheries are places for cultivation and harvesting of fish, particularly in sea waters. ",
      "https://linked.data.gov.au/def/nrm/1662aec0-9738-5608-8150-162edfca44c3"
    ],
    [
      "A",
      "Aquaculture",
      "Refers to the type of industry for which the site is being prepared. Aquaculture is a practice of culturing of fish, shellfish, aquatic plants, and/or other organisms in captivity or under controlled conditions in the near shore environment.",
      "https://linked.data.gov.au/def/nrm/ec2b45f9-bd5c-504c-a89f-4f94906c5e0b"
    ],
    [
      "E",
      "Environment",
      "",
      ""
    ]
  ]
}