{
  "kind": "collectionType",
  "collectionName": "lut_intervention_breeding_techniques",
  "info": {
    "singularName": "lut-intervention-breeding-technique",
    "pluralName": "lut-intervention-breeding-techniques",
    "displayName": "Lut-intervention-breeding-technique",
    "name": "lut-intervention-breeding-technique",
    "uri": "https://linked.data.gov.au/def/nrm/e3378375-7841-4b73-bf88-c977cbecf623"
  },
  "options": {
    "increments": true,
    "timestamps": true,
    "draftAndPublish": false
  },
  "attributes": {
    "symbol": {
      "type": "string",
      "required": true,
      "unique": true
    },
    "label": {
      "type": "string",
      "required": true,
      "unique": true
    },
    "description": {
      "type": "text"
    },
    "uri": {
      "type": "string"
    }
  },
  "initialData": [
    [
      "SBCB",
      "Seed Bank or Captive Breeding",
      "Refers to the type of breeding technique implemented during an intervention activity.  Seed bank is a repository of seeds maintained under optimal conditions that ensure long term storage, intended for use as a source of replenishment of seed stock or plant genetic material. Captive breeding involves the breeding of specimens of a plant or animal under ex-situ conditions from the parent stock.",
      "https://linked.data.gov.au/def/nrm/8a0587b5-6eef-5fd6-b3d6-4df0eec4eadd"
    ],
    [
      "SO",
      "Seed Orchard",
      "The type of breeding technique. An intentional planting of trees or shrubs maintained for food, typically fruit, production.",
      "https://linked.data.gov.au/def/nrm/db0e038f-46a4-5a4d-a79f-d652b7cbdbb2"
    ],
    [
      "SN",
      "Seed Nursery",
      "The type of breeding technique, which involves a collection of seeds, seedlings or saplings that are nurtured under controlled environmental settings.",
      "https://linked.data.gov.au/def/nrm/838ad921-8017-5a27-9256-3f5234a0424c"
    ],
    [
      "P",
      "Propagation",
      "Refers to the type of breeding technique, i.e., involving the breeding of specimens of a plant or animal by natural processes from the parent stock.",
      "https://linked.data.gov.au/def/nrm/d5af36fe-86f6-5128-8767-04ccb3cc9769"
    ],
    [
      "SVT",
      "Seed Viability Testing",
      "The type of breeding technique which involves testing the viability or fitness of seed/s in a collection.",
      "https://linked.data.gov.au/def/nrm/dc69d9bb-3153-5f9c-ae21-503a3c58f3b0"
    ],
    [
      "SGT",
      "Seed Genetic Testing",
      "The type of breeding technique. The process of isolating and testing the DNA of an embryo to detect the presence of genetic alterations or defects that may predispose to the future development of a disease or disorder.",
      "https://linked.data.gov.au/def/nrm/79bd8494-55c4-5ba7-ae67-a45537836710"
    ],
    [
      "FCBP",
      "Fauna Captive Breeding Program",
      "Refers to the type of breeding technique, i.e., involving captive fauna, implemented during an intervention activity.",
      "https://linked.data.gov.au/def/nrm/6a321728-83e7-5492-b439-ecf1468dbdfa"
    ],
    [
      "FWBP",
      "Fauna Wild Breeding Program",
      "Refers to the type of breeding program, i.e., involving fauna in wild, implemented during an intervention activity.",
      "https://linked.data.gov.au/def/nrm/bdedc21c-0177-5e52-bba3-381bfde8e714"
    ],
    [
      "O",
      "Other",
      "Represents any 'other' categorical collection NOT listed, actual number to enter.",
      "https://linked.data.gov.au/def/nrm/a96d7507-e823-5f3a-a26b-62313538e0bb"
    ]
  ]
}