{
  "collectionName": "lut_soils_structure_types",
  "info": {
    "singularName": "lut-soils-structure-type",
    "pluralName": "lut-soils-structure-types",
    "displayName": "Lut-soils-structure-type",
    "name": "lut-soils-structure-type",
    "uri": "https://linked.data.gov.au/def/nrm/ba792941-7941-43c8-b992-b7f54dddf14c"
  },
  "options": {
    "draftAndPublish": false,
    "increments": true,
    "timestamps": true,
    "comment": ""
  },
  "attributes": {
    "symbol": {
      "type": "string",
      "required": true,
      "unique": true
    },
    "label": {
      "type": "string",
      "required": true,
      "unique": true
    },
    "description": {
      "type": "text"
    },
    "uri": {
      "type": "string"
    }
  },
  "initialData": [
    [
      "PL",
      "Platy",
      "Refers to the type of soil peds structure. Platy structures are soil particles arranged around a horizontal plane and bounded by relatively flat horizontal faces with much accommodation to the faces of surrounding peds.",
      "https://linked.data.gov.au/def/nrm/cced4eb1-b8e8-5a0c-b991-996966242c03"
    ],
    [
      "PR",
      "Prismatic",
      "Refers to the type of soil peds structure. Prismatic structures are soil particles arranged around a vertical axis and bounded by well-defined, relatively flat faces with much accommodation to the faces of surrounding peds. Vertices between adjoining faces are usually angular.",
      "https://linked.data.gov.au/def/nrm/9437de19-5084-577c-a418-075bd5b6c941"
    ],
    [
      "CO",
      "Columnar",
      "Refers to the type of soil peds structure. Columnar as for prismatic but with domed tops.",
      "https://linked.data.gov.au/def/nrm/ceea60d8-93ee-564d-8b4a-12d7a48fbd16"
    ],
    [
      "AB",
      "Angular blocky",
      "Refers to the type of soil peds structure. Angular blocky soil particles are arranged around a point and bounded by six relatively flat, roughly equal faces. Re-entrant angles between adjoining faces are few or absent. There is usually much accommodation of ped faces to the faces of surrounding peds. Most vertices between adjoining faces are angular.",
      "https://linked.data.gov.au/def/nrm/d3fad458-def2-5187-84d3-2a013b9f1e83"
    ],
    [
      "SB",
      "Subangular blocky",
      "Refers to the type of soil peds structure. Subangular blocky are similar to angular blocky except peds are bounded by flat and rounded faces with limited accommodation to the faces of surrounding peds. Many vertices are rounded.",
      "https://linked.data.gov.au/def/nrm/f61c48e2-282e-5553-be93-e3a0d34b5d8a"
    ],
    [
      "PO",
      "Polyhedral",
      "Refers to the type of soil peds structure. Polyhedral structures are soil particles arranged around a point and bounded by more than six relatively flat, unequal, dissimilar faces. Re-entrant angles between adjoining faces are a feature. There is usually much accommodation of ped faces to the faces of surrounding peds. Most vertices are angular.",
      "https://linked.data.gov.au/def/nrm/89b73841-35b7-5227-8f46-a4c629436a87"
    ],
    [
      "LE",
      "Lenticular",
      "Refers to the type of soil peds structure. Lenticular structures are soil particles arranged around an elliptical or circular plane and bounded by curved faces with much accommodation to the faces of surrounding peds. Most vertices are angular and acute.",
      "https://linked.data.gov.au/def/nrm/bcad5d94-ff42-54ae-8ada-cff8ebf3a679"
    ],
    [
      "GR",
      "Granular",
      "Refers to the type of soil peds structure. Granular structures are spheroidal with limited accommodation to the faces of surrounding peds.",
      "https://linked.data.gov.au/def/nrm/b29f14c0-04aa-5150-afa1-eb2c75938b5a"
    ],
    [
      "CA",
      "Cast",
      "Refers to the type of soil peds structure. Casts are formed from, or are deposited in, the O horizons or the soil solum and include: a) excreta of soil fauna which may be discrete particles, for example insect faeces or the dense, coherent, globular forms of earthworm excreta. They are generally spherical or ovate in shape and have a strong conchoidal fracture; b) Soil masticated with salivary secretions into globular forms, for example, by ants, crickets, wasps.",
      "https://linked.data.gov.au/def/nrm/3ba45b0a-e9cc-5e97-b515-8bf31207ab51"
    ],
    [
      "CL",
      "Clod",
      "Refers to the soil texture. Coherent plastic bolus; medium sized sand grains visible in the finer matrix; will form ribbon of 40-50mm.",
      "https://linked.data.gov.au/def/nrm/983fe35a-651c-5f0a-a0a2-1f6323c3690d"
    ],
    [
      "FR",
      "Fragment",
      "Refers to the type of soil structure. Clods are artificial aggregates formed by cultivation or work being done on the soil. They differ from natural peds and are often with 100mm diameter or less.",
      "https://linked.data.gov.au/def/nrm/c104a471-0584-5b57-96f6-4a8a2a5d564d"
    ]
  ]
}