{
  "kind": "collectionType",
  "collectionName": "invertebrate_pan_traps",
  "info": {
    "singularName": "invertebrate-pan-trap",
    "pluralName": "invertebrate-pan-traps",
    "displayName": "Invertebrate-pan-trap",
    "description": ""
  },
  "options": {
    "draftAndPublish": false
  },
  "attributes": {
    "lat": {
      "type": "float",
      "required": true
    },
    "lng": {
      "type": "float",
      "required": true
    },
    "trapId": {
      "type": "string",
      "required": true
    },
    "proposed_trapping_duration": {
      "type": "decimal",
      "x-paratoo-required": true
    },
    "inside_pan_colour": {
      "type": "relation",
      "relation": "oneToOne",
      "target": "api::lut-invertebrate-pan-trapping-colour.lut-invertebrate-pan-trapping-colour",
      "x-paratoo-required": true
    },
    "outside_pan_colour": {
      "type": "relation",
      "relation": "oneToOne",
      "target": "api::lut-invertebrate-pan-trapping-colour.lut-invertebrate-pan-trapping-colour",
      "x-paratoo-required": true
    },
    "pan_diameter": {
      "type": "decimal",
      "x-paratoo-unit": "cm",
      "min": 0,
      "max": 30,
      "required": true
    },
    "pan_depth": {
      "type": "decimal",
      "x-paratoo-unit": "cm",
      "min": 0,
      "max": 10,
      "required": true
    },
    "pan_capacity": {
      "type": "integer",
      "x-paratoo-unit": "ml",
      "min": 0,
      "max": 500
    },
    "pan_placement": {
      "type": "relation",
      "relation": "oneToOne",
      "target": "api::lut-invertebrate-pan-placement.lut-invertebrate-pan-placement",
      "x-paratoo-required": true
    },
    "pan_height_above_ground": {
      "type": "decimal",
      "x-paratoo-unit": "cm",
      "min": 0,
      "max": 100,
      "required": true,
      "x-paratoo-hint": "Measured from the lowest point on the bowl"
    },
    "liquid_type": {
      "type": "relation",
      "relation": "oneToOne",
      "target": "api::lut-invertebrate-liquid-type.lut-invertebrate-liquid-type",
      "x-paratoo-required": true
    },
    "liquid_amount": {
      "type": "decimal",
      "x-paratoo-hint": "Estimated",
      "x-paratoo-unit": "ml",
      "required": true,
      "x-paratoo-rename": "Liquid volume"
    },
    "pan_trapping_survey": {
      "type": "relation",
      "relation": "oneToOne",
      "target": "api::invertebrate-pan-trapping.invertebrate-pan-trapping"
    },
    "date_time": {
      "type": "datetime",
      "required": true
    },
    "abis_export_uuid": {
      "type": "string",
      "unique": true
    }
  }
}