{
  "collectionName": "components_targeted_geographic_extents",
  "info": {
    "displayName": "geographic-extent"
  },
  "options": {},
  "attributes": {
    "lat": {
      "type": "float"
    },
    "lng": {
      "type": "float"
    }
  }
}
