{
  "collectionName": "spatial_informations",
  "info": {
    "displayName": "spatial-information"
  },
  "options": {},
  "attributes": {
    "geographic_extent": {
      "type": "component",
      "repeatable": true,
      "component": "targeted.geographic-extent",
      "x-paratoo-hint": "Use the mapping interface to record four bounding box coordinates for the monitoring area."
    },
    "geographic_description": {
      "type": "text",
      "x-paratoo-hint": "Provide details (e.g. common place names, landscape features) that indicate the location of the monitoring area."
    },
    "spatial_data_type": {
      "type": "component",
      "repeatable": true,
      "component": "multi-lut.vector"
    },
    "horizontal_resolution": {
      "type": "relation",
      "relation": "oneToOne",
      "target": "api::lut-horizontal-resolution.lut-horizontal-resolution",
      "x-paratoo-hint": "Record the horizontal distance between two data points. For observations within 1 ha plots, select ‘30 m - <100 m’. For opportune observations and data collected by sensors deployed in the field (e.g. camera traps), select ‘Point Resolution’. For transect surveys, use the distance between the points along the transect. For raster data, use the size of the pixels (picture elements) on the ground comprising the imagery."
    },
    "vertical_resolution": {
      "type": "relation",
      "relation": "oneToOne",
      "target": "api::lut-vertical-resolution.lut-vertical-resolution",
      "x-paratoo-hint": "Record the vertical distance between two data points, accounting for the depth of any soil observations."
    },
    "temporal_resolution": {
      "type": "relation",
      "relation": "oneToOne",
      "target": "api::lut-temporal-resolution.lut-temporal-resolution",
      "x-paratoo-hint": "Record the time frequency of remotely sensed data collection. Survey frequency is captured in the Dataset time period section."
    }
  }
}
