{
  "kind": "collectionType",
  "collectionName": "soil_horizon_consistences",
  "info": {
    "singularName": "soil-horizon-consistence",
    "pluralName": "soil-horizon-consistences",
    "displayName": "soil-horizon-consistence"
  },
  "options": {
    "draftAndPublish": false
  },
  "pluginOptions": {},
  "attributes": {
    "water_status": {
      "type": "relation",
      "relation": "oneToOne",
      "x-paratoo-rename": "Soil water status",
      "target": "api::lut-soils-water-status.lut-soils-water-status",
      "required": true
    },
    "soil_strength": {
      "type": "relation",
      "relation": "oneToOne",
      "x-paratoo-rename": "Strength of soil",
      "target": "api::lut-soils-soil-strength.lut-soils-soil-strength",
      "required": true
    },
    "stickiness": {
      "type": "relation",
      "relation": "oneToOne",
      "target": "api::lut-soils-stickiness.lut-soils-stickiness"
    },
    "plasticity_type": {
      "type": "relation",
      "relation": "oneToOne",
      "x-paratoo-rename": "",
      "target": "api::lut-soils-plasticity-type.lut-soils-plasticity-type"
    },
    "abis_export_uuid": {
      "type": "string",
      "unique": true
    }
  }
}