{
  "kind": "collectionType",
  "collectionName": "herbivory_off_plot_setups",
  "info": {
    "singularName": "herbivory-off-plot-belt-transect-setup",
    "pluralName": "herbivory-off-plot-belt-transect-setups",
    "displayName": "herbivory-off-plot-belt-transect-setup",
    "description": ""
  },
  "options": {
    "draftAndPublish": false
  },
  "attributes": {
    "start_date_time": {
      "type": "datetime",
      "required": true
    },
    "end_date_time": {
      "type": "datetime",
      "required": true
    },
    "transect": {
      "type": "component",
      "repeatable": true,
      "required": true,
      "component": "pest.transect-detail",
      "x-paratoo-rename": "Transect Details"
    },
    "survey_metadata": {
      "type": "component",
      "repeatable": false,
      "component": "survey-metadata.metadata",
      "x-paratoo-required": true
    },
    "abis_export_uuid": {
      "type": "string",
      "unique": true
    }
  }
}