{
  "kind": "collectionType",
  "collectionName": "lut_condition_disturbance_categories",
  "info": {
    "singularName": "lut-condition-disturbance-category",
    "pluralName": "lut-condition-disturbance-categories",
    "displayName": "Lut-condition-disturbance-category"
  },
  "options": {
    "draftAndPublish": false
  },
  "attributes": {
    "symbol": {
      "type": "string",
      "required": true,
      "unique": true
    },
    "label": {
      "type": "string",
      "required": true,
      "unique": true
    },
    "description": {
      "type": "text"
    },
    "uri": {
      "type": "string"
    }
  },
  "initialData": [
    [
      "HAN",
      "Herbivory by native animals (e.g. kangaroos)",
      "",
      ""
    ],
    [
      "DIS",
      "Damage by invasive species (e.g. goats)",
      "",
      ""
    ],
    [
      "EWE",
      "Extreme weather event (e.g. flood)",
      "",
      ""
    ],
    [
      "P",
      "Pollution (e.g. chemical)",
      "",
      ""
    ],
    [
      "PD",
      "Pathogen or disease (e.g. phytophthora)",
      "",
      ""
    ],
    [
      "LC",
      "Limited clearing (e.g. understorey only)",
      "",
      ""
    ],
    [
      "EC",
      "Extensive clearing (e.g. complete clearing of patches)",
      "",
      ""
    ],
    [
      "CC",
      "Complete clearing",
      "",
      ""
    ],
    [
      "TLC",
      "Total land-use conversion (e.g. mining, urban)",
      "",
      ""
    ]
  ]
}