{
  "collectionName": "pest_observer_details",
  "info": {
    "displayName": "Observer Detail"
  },
  "options": {},
  "attributes": {
    "observer_name": {
      "type": "string",
      "required": true
    },
    "observer_role": {
      "type": "component",
      "repeatable": true,
      "component": "multi-lut.roles",
      "required": true,
      "x-paratoo-required": true
    }
  }
}
