{
  "kind": "collectionType",
  "collectionName": "lut_camera_aspect_ratios",
  "info": {
    "singularName": "lut-camera-aspect-ratio",
    "pluralName": "lut-camera-aspect-ratios",
    "displayName": "LUT Camera Aspect Ratio"
  },
  "options": {
    "draftAndPublish": false
  },
  "attributes": {
    "symbol": {
      "type": "string",
      "required": true,
      "unique": true
    },
    "label": {
      "type": "string",
      "required": true,
      "unique": true
    },
    "description": {
      "type": "text"
    },
    "uri": {
      "type": "string"
    }
  },
  "initialData": [
    [
      "4:3 standard",
      "4:3 standard",
      "",
      ""
    ],
    [
      "16:9 wide",
      "16:9 wide",
      "",
      ""
    ]
  ]
}