{
  "collectionName": "components_soil_horizon_colours",
  "info": {
    "displayName": "horizon-colour"
  },
  "options": {},
  "attributes": {
    "moisture_status": {
      "type": "relation",
      "relation": "oneToOne",
      "x-paratoo-rename": "Status",
      "target": "api::lut-soils-moisture-status.lut-soils-moisture-status",
      "x-paratoo-hint": "Moisture status for colour description"
    },
    "colour_hue": {
      "type": "relation",
      "relation": "oneToOne",
      "x-paratoo-rename": "Hue",
      "target": "api::lut-soils-colour-hue.lut-soils-colour-hue"
    },
    "colour_value": {
      "type": "relation",
      "relation": "oneToOne",
      "x-paratoo-rename": "Value",
      "target": "api::lut-soils-colour-value.lut-soils-colour-value",
      "x-paratoo-hint": "Record colours by comparing soils with colour charts using the Munsell Color system. Hue, value and chroma of the matrix colour are recorded, for example 10YR4/2. Soil colours rarely match the chart colour chips perfectly. They should be matched to the chip closest in colour, or the nearest whole number in chroma where chips are not provided, for example chromas 5 and 7. The soil colour is measured on the surface of a freshly broken aggregate of moist soil. Moisten the soil if it is dry. Record the colour when the visible moisture film disappears from the surface of the moistened broken aggregate. The aggregate should be held as close as possible to the colour chips. Take care not to smear the broken surface, as this can give an incorrect recording of the colour of the soil matrix."
    },
    "colour_chroma": {
      "type": "relation",
      "relation": "oneToOne",
      "x-paratoo-rename": "Chroma",
      "target": "api::lut-soils-colour-chroma.lut-soils-colour-chroma"
    }
  }
}
