{
  "kind": "collectionType",
  "collectionName": "lut_basal_sweep_sampling_points",
  "info": {
    "singularName": "lut-basal-sweep-sampling-point",
    "pluralName": "lut-basal-sweep-sampling-points",
    "displayName": "Lut-basal-sweep-sampling-point",
    "name": "lut-basal-sweep-sampling-point",
    "uri": "https://linked.data.gov.au/def/nrm/96d41885-70e5-44c1-bafc-73027f47941b"
  },
  "options": {
    "increments": true,
    "timestamps": true,
    "draftAndPublish": false
  },
  "attributes": {
    "symbol": {
      "type": "string",
      "required": true,
      "unique": true
    },
    "label": {
      "type": "string",
      "required": true,
      "unique": true
    },
    "description": {
      "type": "text"
    },
    "uri": {
      "type": "string"
    }
  },
  "initialData": [
    [
      "NW",
      "Northwest",
      "The spatial point location, denoting the 'northwest' end or the orientation of the study plot, e.g. in a basal sweep sampling point, camera trap point, etc.",
      "https://linked.data.gov.au/def/nrm/e611ec7c-ae72-560e-bf6c-d47b46485d18"
    ],
    [
      "N",
      "North",
      "The spatial point location, denoting the 'north' end or the orientation of the study plot, e.g. in a basal sweep sampling point, camera trap point, coarse woody debris transect, etc.",
      "https://linked.data.gov.au/def/nrm/72e36449-10fe-5e01-a360-a57ce1d8312d"
    ],
    [
      "NE",
      "Northeast",
      "The spatial point location, denoting the 'northeast' end or orientation of the study plot, e.g. in a basal sweep sampling point, camera trap point, etc.",
      "https://linked.data.gov.au/def/nrm/f8205401-c97c-59ed-a8a9-1ca3257e0cf8"
    ],
    [
      "E",
      "East",
      "The spatial point location, denoting the 'east' end or the orientation of the study plot, e.g. in a basal sweep sampling point, camera trap point, coarse woody debris transect, etc.",
      "https://linked.data.gov.au/def/nrm/0cad1fc8-0741-5dc8-90f5-7a4c6c7fba5f"
    ],
    [
      "SE",
      "Southeast",
      "The spatial point location, denoting the 'southeast' end or the orientation of the study plot, e.g. in a basal sweep sampling point, camera trap point, coarse woody debris transect, etc.",
      "https://linked.data.gov.au/def/nrm/3ef55e81-e3bd-5626-93da-fc84f5129d5f"
    ],
    [
      "S",
      "South",
      "The spatial point location, denoting the 'south' end or the orientation of the study plot, e.g. in a basal sweep sampling point, camera trap point, coarse woody debris transect, etc.",
      "https://linked.data.gov.au/def/nrm/20b65a7c-3128-55ee-b761-4428dc76ca5d"
    ],
    [
      "SW",
      "Southwest",
      "The spatial point location, denoting the 'southwest' end or the orientation of the study plot, e.g. in a basal sweep sampling point, camera trap point, coarse woody debris transect, etc.",
      "https://linked.data.gov.au/def/nrm/0488dab6-dea8-530e-9928-65b84cc892dd"
    ],
    [
      "W",
      "West",
      "The spatial point location, denoting the 'northwest' end or the orientation of the study plot, e.g. in a basal sweep sampling point, camera trap point, etc.",
      "https://linked.data.gov.au/def/nrm/e611ec7c-ae72-560e-bf6c-d47b46485d18"
    ],
    [
      "C",
      "Centre",
      "The spatial point location, denoting the 'centre' of the study plot, e.g. in a basal sweep sampling point, camera trap point, etc.",
      "https://linked.data.gov.au/def/nrm/df58bcc5-34d9-5020-a519-bc83b18824db"
    ]
  ]
}