{
  "kind": "collectionType",
  "collectionName": "lut_soils_colour_values",
  "info": {
    "singularName": "lut-soils-colour-value",
    "pluralName": "lut-soils-colour-values",
    "displayName": "Lut-soils-colour-value",
    "name": "lut-soils-colour-value"
  },
  "options": {
    "increments": true,
    "timestamps": true,
    "draftAndPublish": false
  },
  "attributes": {
    "symbol": {
      "type": "string",
      "required": true,
      "unique": true
    },
    "label": {
      "type": "string",
      "required": true,
      "unique": true
    },
    "description": {
      "type": "text"
    },
    "uri": {
      "type": "string"
    }
  },
  "initialData": [
    [
      "2",
      "2",
      "",
      ""
    ],
    [
      "2.5",
      "2.5",
      "",
      ""
    ],
    [
      "3",
      "3",
      "",
      ""
    ],
    [
      "4",
      "4",
      "",
      ""
    ],
    [
      "5",
      "5",
      "",
      ""
    ],
    [
      "6",
      "6",
      "",
      ""
    ],
    [
      "7",
      "7",
      "",
      ""
    ],
    [
      "8",
      "8",
      "",
      ""
    ]
  ]
}