{
  "kind": "collectionType",
  "collectionName": "lut_fauna_age_classes",
  "info": {
    "singularName": "lut-fauna-age-class",
    "pluralName": "lut-fauna-age-classes",
    "displayName": "Lut-fauna-age-class",
    "name": "lut-fauna-age-class",
    "uri": "https://linked.data.gov.au/def/nrm/0e2641c3-0d7e-4d94-8cd7-02c21d564630"
  },
  "options": {
    "increments": true,
    "timestamps": true,
    "draftAndPublish": false
  },
  "attributes": {
    "symbol": {
      "type": "string",
      "required": true,
      "unique": true
    },
    "label": {
      "type": "string",
      "required": true,
      "unique": true
    },
    "description": {
      "type": "text"
    },
    "uri": {
      "type": "string"
    }
  },
  "initialData": [
    [
      "AD",
      "Adult",
      "Represents the fauna growth stage. Adult- refers to a maturity quality of an individual by virtue of the individual having attained sexual maturity and full growth.",
      "https://linked.data.gov.au/def/nrm/436e8a65-505a-505b-811e-c6be4e4ae651"
    ],
    [
      "IM",
      "Immature (sub-adult)",
      "Represents the fauna growth stage. Immature, refers to an early period of life or development or growth.",
      "https://linked.data.gov.au/def/nrm/0ce0cabf-e499-5360-82f4-67866d9f60da"
    ],
    [
      "JU",
      "Juvenile",
      "Represents the fauna growth stage. Juvenile refers to traits of an individual that are not fully grown or developed.",
      "https://linked.data.gov.au/def/nrm/6de1f874-fdcb-520a-9ff8-481a7968e76c"
    ],
    [
      "TA",
      "Tadpole",
      "Represents the fauna growth stage. A larval amphibian; specifically: a frog or toad larva that has a rounded body with a long tail bordered by fins and external gills soon replaced by internal gills and that undergoes a metamorphosis to the adult.",
      "https://linked.data.gov.au/def/nrm/f7ea86d0-7c49-5324-8180-f4cc0fecca9c"
    ],
    [
      "EG",
      "Eggs/egg mass",
      "Represents the fauna growth stage. Eggs/egg mass refers to the animal reproductive bodies- an organic vessel in which an embryo first begins to develop.",
      "https://linked.data.gov.au/def/nrm/42ecaeb5-306a-59f5-abb3-a27181d12cb6"
    ],
    [
      "ME",
      "Metamorph",
      "Represents the fauna growth stage in which an animal physically develops after birth or hatching, involving a conspicuous and relatively abrupt change in the animal's form or structure.",
      "https://linked.data.gov.au/def/nrm/6a07f0fb-6872-5143-b4ee-d2ddb1713cd6"
    ],
    [
      "NY",
      "Nymph",
      "Represents the fauna growth stage. The immature stage in the life cycle of those orders of insects characterized by gradual metamorphosis, in which the young resemble the imago in general form of body, including compound eyes and external wings; also the 8-legged stage of mites and ticks that follows the first moult.",
      "https://linked.data.gov.au/def/nrm/a3821c90-12cd-503a-9c67-edd109919aab"
    ],
    [
      "LA",
      "Larvae",
      "Represents the fauna growth stage. A larvae is an independently living, post-embryonic stage of an animal that is markedly differ­ent in form from the adult and which under­goes metamorphosis into the adult form, e.g. caterpillar, grub, tadpole. ",
      "https://linked.data.gov.au/def/nrm/35157e34-237b-5f09-8c55-0bebcf835191"
    ],
    [
      "PU",
      "Pupa",
      "",
      ""
    ],
    [
      "UN",
      "Unknown",
      "Unknown/unable to be determined.",
      "https://linked.data.gov.au/def/nrm/f6b0f6d8-16d8-5dd7-b1b7-66b0c020b96f"
    ]
  ]
}