{
  "kind": "collectionType",
  "collectionName": "lut_condition_disturbance_types",
  "info": {
    "singularName": "lut-condition-disturbance-type",
    "pluralName": "lut-condition-disturbance-types",
    "displayName": "Lut-condition-disturbance-type"
  },
  "options": {
    "draftAndPublish": false
  },
  "attributes": {
    "symbol": {
      "type": "string",
      "required": true,
      "unique": true
    },
    "label": {
      "type": "string",
      "required": true,
      "unique": true
    },
    "description": {
      "type": "text"
    },
    "uri": {
      "type": "string"
    }
  },
  "initialData": [
    [
      "D",
      "Direct",
      "",
      ""
    ],
    [
      "I",
      "Indirect",
      "",
      ""
    ]
  ]
}