{
  "plot-selections": {
    "uuid": "a9cb9e38-690f-41c9-8151-06108caf539d",
    "set": "1",
    "active": false,
    "plot-based-protocol": false,
    "skip-observations": true,
    "survey-model": "plot-selection-survey",
    "feature-types": [],
    "uri": {
      "properties": null,
      "attributes": "https://linked.data.gov.au/def/nrm/d1e0ed8d-04a4-43de-87be-e6863de148cb",
      "procedure": "https://linked.data.gov.au/def/nrm/67e84ed4-fefa-4c75-afe4-8afdfdf0b2a0"
    }
  },
  "plot-layout-and-visit": {
    "uuid": "d7179862-1be3-49fc-8ec9-2e219c6f3854",
    "set": "1",
    "active": true,
    "survey-model": "plot-definition-survey",
    "plot-based-protocol": true,
    "pull-plot-uri": true,
    "custom-configs": {
      "handle-plot-points": true,
      "handle-fauna-plot-points": true
    },
    "skip-observations": true,
    "skip-site-visit": true,
    "output-site-name": true,
    "feature-types": [],
    "uri": {
      "properties": null,
      "attributes": "https://linked.data.gov.au/def/nrm/d1e0ed8d-04a4-43de-87be-e6863de148cb",
      "procedure": "https://linked.data.gov.au/def/nrm/f411e246-6777-42b0-b755-32ca1784780b"
    }
  },
  "plot-description-enhanced-protocol": {
    "uuid": "617df00c-0e4f-4267-9efc-9ca9eae19686",
    "set": "1",
    "active": true,
    "survey-model": "plot-description-enhanced",
    "plot-based-protocol": true,
    "skip-fields": ["nearest_infrastructure"],
    "custom-configs": {
      "handle-multi-feature-types": true,
      "handle-create-multi-feature": true
    },
    "feature-types": [
      "disturbance",
      "land surface",
      "landform",
      "plant community",
      "plant occurrence"
    ],
    "protocol_shape": "plot-description/plot-description-enhanced-protocol-shapes",
    "uri": {
      "properties": "https://linked.data.gov.au/def/nrm/84f645c7-9094-40e5-977c-82da64aeb85e",
      "attributes": "https://linked.data.gov.au/def/nrm/40bbc517-2904-4229-a726-a4b39f1c3313",
      "procedure": "https://linked.data.gov.au/def/nrm/88068941-4dc9-4b44-bcfe-5eeeb3ba1a21"
    }
  },
  "plot-description-standard-protocol": {
    "uuid": "dc10f902-e310-45eb-b82a-bebab050b46b",
    "set": "1",
    "active": true,
    "survey-model": "plot-description-standard",
    "plot-based-protocol": true,
    "custom-configs": {
      "handle-multi-feature-types": true,
      "handle-create-multi-feature": true
    },
    "skip-fields": ["nearest_infrastructure"],
    "feature-types": ["disturbance", "plant community", "plant occurrence"],
    "protocol_shape": "plot-description/plot-description-standard-protocol-shapes",
    "uri": {
      "properties": "https://linked.data.gov.au/def/nrm/cdd61f02-261e-48c0-a4af-046c22bc8202",
      "attributes": "https://linked.data.gov.au/def/nrm/6f332ea8-a8e9-4471-aca8-88b8cc4c226d",
      "procedure": "https://linked.data.gov.au/def/nrm/615edd85-ea58-4d3c-b737-d31d8447ad49"
    }
  },
  "floristic-full-protocol": {
    "uuid": "e15db26f-55de-4459-841b-d7ef87dea5cd",
    "set": "1",
    "active": true,
    "survey-model": "floristics-veg-survey-full",
    "plot-based-protocol": true,
    "custom-configs": {
      "handle-media": true,
      "handle-barcode": true
    },
    "feature-types-group-key": "date_time",
    "specimen-feature-type": "plant population",
    "feature-types": ["plant population"],
    "skip-fields": ["voucher_lite", "voucher_full"],
    "protocol_shape": "floristics/floristics-enhanced-protocol-shapes",
    "uri": {
      "properties": "https://linked.data.gov.au/def/nrm/669b2433-75d3-4639-a3b0-73cd1f4dbd45",
      "attributes": "https://linked.data.gov.au/def/nrm/b6807fb1-27cf-4fe5-a261-1e128b540c44",
      "procedure": "https://linked.data.gov.au/def/nrm/35175f0d-bdd7-4e32-908f-17f7239e78fa"
    }
  },
  "floristic-lite-protocol": {
    "uuid": "bbd550c0-04c5-4a8c-ae39-cc748e920fd4",
    "set": "1",
    "active": true,
    "survey-model": "floristics-veg-survey-lite",
    "plot-based-protocol": true,
    "custom-configs": {
      "handle-media": true,
      "handle-barcode": true
    },
    "specimen-feature-type": "plant population",
    "feature-types": ["plant population"],
    "skip-fields": ["voucher_lite", "voucher_full"],
    "protocol_shape": "floristics/floristics-standard-protocol-shapes",
    "uri": {
      "properties": "https://linked.data.gov.au/def/nrm/44942870-743d-4989-aa40-581bdc84f078",
      "attributes": "https://linked.data.gov.au/def/nrm/4498d0da-ac0e-419b-84b4-107cf5915828",
      "procedure": "https://linked.data.gov.au/def/nrm/bc2ba93e-43f9-425f-83cd-bbf5c422bdf8"
    }
  },
  "plant-tissue-full-protocol": {
    "uuid": "b92005b0-f418-4208-8671-58993089f587",
    "set": "1",
    "active": true,
    "survey-model": "floristics-veg-genetic-voucher-survey",
    "plot-based-protocol": true,
    "feature-types-group-key": "date_time",
    "custom-configs": {
      "handle-barcode": true,
      "handle-replicate": true
    },
    "specimen-sample-label": "plant-tissue-vouchers",
    "specimen-sampling-label": "plant-tissue-vouchering",
    "replicate-sample-label": "plant-specimen",
    "replicate-sampling-label": "plant-specimen-collection",
    "specimen-feature-type": "plant population",
    "feature-types": ["plant population"],
    "add_prefix_attributes": [
      "voucher_barcode",
      "replicate",
      "genetic_voucher_barcode"
    ],
    "protocol_shape": "plant-tissue-vouchering/plant-tissue-vouchering-standard-protocol-shapes",
    "uri": {
      "properties": "https://linked.data.gov.au/def/nrm/35d63c14-8ca0-4012-bdee-981482c87d47",
      "attributes": "https://linked.data.gov.au/def/nrm/b5e78e5f-4cd4-4261-a42d-c7616aae90a6",
      "procedure": "https://linked.data.gov.au/def/nrm/c20d9a04-702d-429a-ab5f-d7424cd2990d"
    }
  },
  "plant-tissue-lite-protocol": {
    "uuid": "f01e0673-a29d-48bb-b6ce-cf1c0f0de345",
    "set": "1",
    "active": true,
    "survey-model": "floristics-veg-genetic-voucher-survey",
    "plot-based-protocol": true,
    "feature-types-group-key": "date_time",
    "custom-configs": {
      "handle-barcode": true,
      "handle-replicate": true
    },
    "specimen-sample-label": "plant-tissue-vouchers",
    "specimen-sampling-label": "plant-tissue-vouchering",
    "replicate-sample-label": "plant-specimen",
    "replicate-sampling-label": "plant-specimen-collection",
    "specimen-feature-type": "plant population",
    "add_prefix_attributes": [
      "voucher_barcode",
      "replicate",
      "genetic_voucher_barcode"
    ],
    "feature-types": ["plant population"],
    "protocol_shape": "plant-tissue-vouchering/plant-tissue-vouchering-standard-protocol-shapes",
    "uri": {
      "properties": "https://linked.data.gov.au/def/nrm/b5bf92b3-b72f-4b6b-b78a-7e6ca13ba908",
      "attributes": "https://linked.data.gov.au/def/nrm/e72b0273-13ef-4164-9549-068bc96d3e0f",
      "procedure": "https://linked.data.gov.au/def/nrm/c20d9a04-702d-429a-ab5f-d7424cd2990d"
    }
  },
  "cover-full-protocol": {
    "uuid": "93e65339-4bce-4ca1-a323-78977865ef93",
    "set": "1",
    "active": true,
    "survey-model": "cover-point-intercept-survey",
    "plot-based-protocol": true,
    "feature-types-group-key": "point_number",
    "temporary-save-concepts": true,
    "custom-configs": {
      "handle-transect": true,
      "multiple-transect": false,
      "resolve-transect-point": true,
      "handle-multi-obs-collection-types": true,
      "handle-create-multi-obs-collection": true,
      "handle-additional-multi-obs-member": true
    },
    "reset-linked-attributes": true,
    "skip-fields": ["single_photo", "growth_form_1", "growth_form_2", "dead"],
    "filter-object-fields": {
      "floristics_voucher_full": ["field_name"]
    },
    "transect-feature-types": ["plant occurrence", "land surface"],
    "priority-feature-types": ["plant occurrence"],
    "feature-types": ["plant occurrence", "land surface"],
    "protocol_shape": "cover/cover-enhanced-protocol-shapes",
    "uri": {
      "properties": "https://linked.data.gov.au/def/nrm/bc009349-c1d0-4000-a5d0-1b1c18c3ea0e",
      "attributes": "https://linked.data.gov.au/def/nrm/b9c2b3ac-a683-484e-a800-a5912a7fb103",
      "procedure": "https://linked.data.gov.au/def/nrm/576f634e-2706-4f18-b561-0636d4c007d0"
    }
  },
  "cover-lite-protocol": {
    "uuid": "37a3b018-3779-4c4f-bfb3-d38eb53a2568",
    "set": "1",
    "active": true,
    "survey-model": "cover-point-intercept-survey",
    "plot-based-protocol": true,
    "feature-types-group-key": "point_number",
    "temporary-save-concepts": true,
    "custom-configs": {
      "handle-transect": true,
      "multiple-transect": false,
      "resolve-transect-point": true,
      "handle-multi-obs-collection-types": true,
      "handle-create-multi-obs-collection": true,
      "handle-additional-multi-obs-member": true
    },
    "reset-linked-attributes": true,
    "skip-fields": ["single_photo", "growth_form_1", "growth_form_2"],
    "transect-feature-types": ["land surface"],
    "priority-feature-types": ["land surface"],
    "feature-types": ["land surface"],
    "protocol_shape": "cover/cover-standard-protocol-shapes",
    "uri": {
      "properties": "https://linked.data.gov.au/def/nrm/bc9aa42b-f908-4c73-adb2-d1847eee4ea3",
      "attributes": "https://linked.data.gov.au/def/nrm/f0695a65-3b13-4758-b97d-6041bc81b6da",
      "procedure": "https://linked.data.gov.au/def/nrm/aa1525f9-c3f2-4f7d-98cc-6a7d3aec9d8a"
    }
  },
  "opportunistic": {
    "uuid": "068d17e8-e042-ae42-1e42-cff4006e64b0",
    "set": "1",
    "active": true,
    "plot-based-protocol": false,
    "survey-model": "opportunistic-survey",
    "custom-configs": {
      "handle-media": true,
      "handle-media-attributes": true,
      "handle-observer": true,
      "handle-barcode": true,
      "handle-barcode-attributes": true,
      "handle-barcode-observations": true,
      "handle-specimen-type-fields": true
    },
    "photo-sample-label": "photo-video-audio",
    "photo-sampling-label": "taking-representative-media",
    "conditional-feature-types": [
      {
        "field": "taxa_type",
        "values": ["VP", "NVP"],
        "type": "plant occurrence"
      },
      {
        "field": "taxa_type",
        "values": ["AM", "BI", "INV", "MA", "RE"],
        "type": "animal occurrence"
      }
    ],
    "feature-add-multiple": true,
    "feature-types": [
      "animal individual",
      "animal occurrence",
      "plant community",
      "plant occurrence"
    ],
    "skip-fields": ["preservation_type"],
    "protocol_shape": "opportunistic-observations-protocol-shapes",
    "uri": {
      "properties": "https://linked.data.gov.au/def/nrm/d3f85cc2-f3e8-4900-a2ac-19fc27fd14f9",
      "attributes": "https://linked.data.gov.au/def/nrm/36bc359e-5748-4f53-b6a1-548663155357",
      "procedure": "https://linked.data.gov.au/def/nrm/6fd39a33-9c4f-469e-80a5-e76b5d5f04a6"
    }
  },
  "photo-points-dslr-panorama-protocol": {
    "uuid": "5fd206b5-25cb-4371-bd90-7b2e8801ea25",
    "set": "1",
    "active": true,
    "survey-model": "photopoints-survey",
    "plot-based-protocol": true,
    "custom-configs": {
      "handle-media": true,
      "handle-plot-establishment": true,
      "handle-photo-position-establishment": true
    },
    "feature-types": [],
    "uri": {
      "properties": null,
      "attributes": "https://linked.data.gov.au/def/nrm/b8a3cb36-3963-4dac-8ce7-528ac954afcf",
      "procedure": "https://linked.data.gov.au/def/nrm/1cc740f1-d659-48c7-b9d0-55ae8ddfbed8"
    }
  },
  "photo-points-compact-panorama-protocol": {
    "uuid": "383fa013-c52d-4186-911b-35e9b2375653",
    "set": "1",
    "active": true,
    "survey-model": "photopoints-survey",
    "plot-based-protocol": true,
    "custom-configs": {
      "handle-media": true,
      "handle-plot-establishment": true,
      "handle-photo-position-establishment": true
    },
    "feature-types": [],
    "uri": {
      "properties": null,
      "attributes": "https://linked.data.gov.au/def/nrm/8cde32b9-059e-4a46-a73c-ffe3c2c9e141",
      "procedure": "https://linked.data.gov.au/def/nrm/b5eee078-d1f8-4ced-9f1a-182dadb0c7a5"
    }
  },
  "photo-points-device-panorama-protocol": {
    "uuid": "2dbb595b-3541-46bd-b200-13db3a823b74",
    "set": "1",
    "active": true,
    "survey-model": "photopoints-survey",
    "plot-based-protocol": true,
    "custom-configs": {
      "handle-photo-sampler": true,
      "handle-plot-establishment": true,
      "handle-photo-position-establishment": true
    },
    "feature-types": [],
    "uri": {
      "properties": null,
      "attributes": "https://linked.data.gov.au/def/nrm/612e360e-b1b9-4cf3-a5bd-55f709db66f3",
      "procedure": "https://linked.data.gov.au/def/nrm/a6d4a219-7bbf-4017-91c6-106b4848480c"
    }
  },
  "vegetation-mapping": {
    "uuid": "cd2cbbc7-2f17-4b0f-91b4-06f46e9c90f2",
    "set": "1",
    "active": true,
    "plot-based-protocol": false,
    "survey-model": "vegetation-mapping-survey",
    "skip-adding-obs-attr": true,
    "custom-configs": {
      "handle-media": true,
      "handle-media-attributes": true,
      "handle-barcode": true,
      "handle-barcode-attributes": true,
      "handle-barcode-observations": true,
      "handle-multi-obs-collection-types": true,
      "handle-create-multi-obs-collection": true
    },
    "specimen-feature-type": "vegetation stratum",
    "feature-types": [
      "plant community",
      "disturbance",
      "vegetation stratum",
      "land surface"
    ],
    "specimen-sample-label": "flora-voucher-specimen",
    "specimen-sampling-label": "plant-vouchering",
    "photo-sample-label": "photos",
    "photo-sampling-label": "taking-photos",
    "protocol_shape": "vegetation-mapping-protocol-shapes",
    "uri": {
      "properties": "https://linked.data.gov.au/def/nrm/2089561b-5b49-472a-812f-3de661505ccb",
      "attributes": "https://linked.data.gov.au/def/nrm/f3140111-3744-4333-bbae-e302978a4bfc",
      "procedure": "https://linked.data.gov.au/def/nrm/15361f98-7669-410e-9b04-e9be069c7508"
    }
  },
  "fauna-ground-counts-transects": {
    "uuid": "a76dac21-94f4-4851-af91-31f6dd00750f",
    "set": "3",
    "active": true,
    "survey-model": "fauna-ground-counts-survey",
    "module": "Fauna ground counts",
    "plot-based-protocol": false,
    "setup-id-based-protocol": true,
    "custom-configs": {
      "handle-setup-id-based-observations": true,
      "handle-transect-start": true,
      "handle-transect-end": true,
      "handle-transect-attributes-photo": true,

      "handle-setup-id-transect-attr": true,
      "handle-setup-id-transect-obs": true,

      "handle-sample-obs-collection": true,
      "handle-sample-obs-collection-attr": true,
      "handle-sample-obs-collection-obs": true,

      "handle-observer": true,
      "handle-equipments-sampler": true
    },
    "add_prefix_attributes": ["observation"],
    "skip-fields": [
      "species",
      "equipment_type",
      "sightability_distance",
      "cat_coat_colour"
    ],
    "photo-sample-label": "(field)",
    "photo-sampling-label": "taking-photos-for-(field)",
    "feature-types": ["weather", "animal occurrence", "plant community"],
    "feature-types-to-sample": ["weather", "animal occurrence"],
    "feature-types-to-sampling": ["animal occurrence"],
    "protocol_shape": "fauna-ground-counts/fauna-ground-counts-transects-protocol-shapes",
    "uri": {
      "properties": "https://linked.data.gov.au/def/nrm/c9fe51f4-8be6-4fdb-b8c7-7c289c574e86",
      "attributes": "https://linked.data.gov.au/def/nrm/0e3928a5-f3f6-4722-83d1-a69c24c3d170",
      "procedure": "https://linked.data.gov.au/def/nrm/97c64ff0-455c-4e74-ba81-2aeb4adf042f"
    }
  },
  "fauna-ground-counts-vantage-point": {
    "uuid": "d706fd34-2f05-4559-b738-a65615a3d756",
    "set": "3",
    "active": true,
    "survey-model": "ground-counts-vantage-point-survey",
    "module": "Fauna ground counts",
    "plot-based-protocol": false,
    "setup-id-based-protocol": true,
    "feature-types-group-key": "applicable_outlook_zone",
    "custom-configs": {
      "handle-setup-id-based-observations": true,
      "handle-vantage-point": true,
      "handle-vantage-start": true,
      "handle-vantage-end": true,

      "handle-outlook-zone": true,
      "handle-outlook-zone-attr": true,
      "handle-outlook-zone-obs": true,
      "handle-outlook-zone-attributes-photo": true,

      "handle-sample-obs-collection": true,
      "handle-sample-obs-collection-attr": true,
      "handle-sample-obs-collection-obs": true,

      "handle-observer": true,
      "handle-equipments-sampler": true
    },
    "add_prefix_attributes": ["observations"],
    "skip-fields": [
      "species",
      "equipment_type",
      "sightability_distance",
      "vantage_point_equipment_lut",
      "vantage_point_type",
      "cat_coat_colour"
    ],
    "photo-sample-label": "(field)",
    "photo-sampling-label": "taking-photos-for-(field)",
    "feature-types": ["weather", "animal occurrence", "plant community"],
    "feature-types-to-sample": ["weather", "animal occurrence"],
    "feature-types-to-sampling": ["animal occurrence"],
    "protocol_shape": "fauna-ground-counts/fauna-ground-counts-vantage-point-protocol-shapes",
    "uri": {
      "properties": "https://linked.data.gov.au/def/nrm/74f59e32-0f17-4909-8096-2b26d061aae9",
      "attributes": "https://linked.data.gov.au/def/nrm/277f545b-4dff-4b42-9b09-1bc13b125520",
      "procedure": "https://linked.data.gov.au/def/nrm/44c5567d-3437-4e89-b0b7-caefc07bb16c"
    }
  },
  "off-plot-belt-transect": {
    "uuid": "2cd7b489-b582-41f6-9dcc-264f6ea7801a",
    "set": "3",
    "active": false,
    "survey-model": "off-plot-belt-transect-survey",
    "module": "Sign-based fauna survey",
    "plot-based-protocol": false,
    "setup-id-based-protocol": true,
    "custom-configs": {
      "handle-setup-id-based-observations": true,
      "handle-transect-start": true,
      "handle-transect-end": true,

      "handle-setup-id-transect-attr": true,
      "handle-setup-id-transect-obs": true,

      "handle-sample-obs-collection": true,
      "handle-sample-obs-collection-attr": true,
      "handle-sample-obs-collection-obs": true,

      "handle-quadrat": true,
      "handle-quadrat-attr": true,
      "handle-quadrat-obs": true,

      "handle-quadrat-sample-obs-collection": true,
      "handle-quadrat-sample-obs-collection-attr": true,
      "handle-quadrat-sample-obs-collection-obs": true,

      "handle-observer": true
    },
    "skip-fields": ["attributable_fauna_species", "transect_route_type"],
    "feature-types": ["weather", "animal evidence", "quadrat"],
    "feature-types-to-sample": ["weather"],
    "photo-sample-label": "transect-start-photo",
    "photo-sampling-label": "taking-photos-for-transect-start-location",
    "protocol_shape": "sign-based-fauna/off-plot-belt-transect-protocol-shapes",
    "uri": {
      "properties": "https://linked.data.gov.au/def/nrm/86521884-f913-4cc2-b2b7-7f747b19c650",
      "attributes": "https://linked.data.gov.au/def/nrm/d766f894-8445-425f-8731-46cd6b900a41",
      "procedure": "https://linked.data.gov.au/def/nrm/bb4407f3-8e47-46d8-9aa3-179b348a74bb"
    }
  },
  "within-plot-belt-transect": {
    "uuid": "648d545a-cdae-4c19-bc65-0c9f93d9c0eb",
    "set": "3",
    "active": false,
    "survey-model": "within-plot-belt-transect-survey",
    "module": "Sign-based fauna survey",
    "plot-based-protocol": true,
    "setup-id-based-protocol": true,
    "custom-configs": {
      "handle-setup-id-based-observations": true,
      "resolve-transect-point": true,

      "handle-setup-id-transect-attr": true,
      "handle-setup-id-transect-obs": true,

      "handle-sample-obs-collection": true,
      "handle-sample-obs-collection-attr": true,
      "handle-sample-obs-collection-obs": true,

      "handle-quadrat": true,
      "handle-quadrat-attr": true,
      "handle-quadrat-obs": true,

      "handle-quadrat-sample-obs-collection": true,
      "handle-quadrat-sample-obs-collection-attr": true,
      "handle-quadrat-sample-obs-collection-obs": true,

      "handle-observer": true
    },
    "skip-fields": ["attributable_fauna_species", "transect_route_type"],
    "feature-types": ["weather", "animal evidence", "quadrat"],
    "photo-sample-label": "transect-start-photo",
    "photo-sampling-label": "taking-photos-for-transect-start-location",
    "protocol_shape": "sign-based-fauna/within-plot-belt-transect-protocol-shapes",
    "uri": {
      "properties": "https://linked.data.gov.au/def/nrm/9c52d0e9-8fff-45d6-8777-d03e52ab3675",
      "attributes": "https://linked.data.gov.au/def/nrm/e000df3a-c9e7-4e6c-af63-294a3fa9012c",
      "procedure": "https://linked.data.gov.au/def/nrm/4307974a-f0ea-4d84-abee-de2451eac329"
    }
  },
  "sign-based-plot-sign-search": {
    "uuid": "cc826a19-a1e7-4dfe-8d6e-f135d258d7f9",
    "set": "3",
    "active": false,
    "survey-model": "sign-based-active-plot-search-survey",
    "module": "Sign-based fauna survey",
    "plot-based-protocol": true,
    "custom-configs": {
      "handle-nearby-track-transect-attr": true,
      "handle-nearby-track-transect-position": true,

      "handle-sample-obs-collection": true,
      "handle-sample-obs-collection-attr": true,
      "handle-sample-obs-collection-obs": true,

      "handle-track-log": true,
      "handle-observer": true
    },
    "skip-fields": [
      "track_station_substrate",
      "track_substrate_multi_lut",
      "attributable_fauna_species",
      "target_species_multi_lut",
      "track_substrate"
    ],
    "add_prefix_attributes": [
      "weather",
      "temperature",
      "precipitation",
      "precipitation_duration",
      "wind_description",
      "cloud_cover",
      "moon_phase"
    ],
    "specimen-feature-type": "animal evidence",
    "feature-types": ["weather", "animal evidence"],
    "feature-types-to-sample": ["animal evidence"],
    "feature-types-to-sampling": ["animal evidence"],
    "protocol_shape": "sign-based-fauna/plot-sign-search-protocol-shapes",
    "uri": {
      "properties": "https://linked.data.gov.au/def/nrm/831f9c5e-f56a-4837-b484-0065debb8403",
      "attributes": "https://linked.data.gov.au/def/nrm/39eaf30a-a7fd-4f55-98e2-fe21f52edf11",
      "procedure": "https://linked.data.gov.au/def/nrm/7347c555-311b-49ed-8928-ab57880a6916"
    }
  },
  "sign-based-fauna-track-station": {
    "uuid": "685b5e9b-20c2-4688-9b04-b6caaf084aad",
    "set": "3",
    "active": false,
    "survey-model": "sign-based-track-station-setup",
    "module": "Sign-based fauna survey",
    "plot-based-protocol": false,
    "setup-id-based-protocol": true,
    "custom-configs": {
      "handle-setup-id-based-observations": true,
      "handle-survey-transect-fields": true,
      "handle-track-station-attribute": true,
      "handle-track-station-attribute-photo": true,
      "handle-track-station-habitat-attribute": true,
      "handle-track-station-habitat-attribute-photo": true
    },
    "skip-fields": [
      "track_station_substrate",
      "attributable_fauna_species",
      "target_species_multi_lut"
    ],
    "feature-types": ["weather", "animal evidence", "quadrat"],
    "protocol_shape": "sign-based-fauna/track-stations-protocol-shapes",
    "uri": {
      "properties": "https://linked.data.gov.au/def/nrm/000b05f2-f8ae-4ca1-b8da-ee7d95da97f5",
      "attributes": "https://linked.data.gov.au/def/nrm/29a236a0-5636-4432-9e46-e8c200ea8919",
      "procedure": "https://linked.data.gov.au/def/nrm/fff59959-79b9-44f5-916d-16733f58cec5"
    }
  },

  "sign-based-fauna-vehicle-track": {
    "uuid": "0c5d1d14-c71b-467f-aced-abe1c83c15d3",
    "set": "3",
    "active": false,
    "survey-model": "sign-based-vehicle-track-survey",
    "module": "Sign-based fauna survey",
    "plot-based-protocol": false,
    "setup-id-based-protocol": true,
    "custom-configs": {
      "handle-setup-id-based-observations": true,
      "handle-transect-start": true,
      "handle-transect-end": true,
      "handle-transect-attributes": true,
      "handle-transect-attributes-photo": true,
      "handle-fauna-sign-observations": true
    },
    "feature-types": ["weather", "animal evidence", "quadrat"],
    "photo-sample-label": "transect-start-photo",
    "photo-sampling-label": "taking-photos-for-transect-start-location",
    "protocol_shape": "sign-based-fauna/vehicle-track-protocol-shapes",
    "uri": {
      "properties": "https://linked.data.gov.au/def/nrm/be7baddd-63a4-4b50-9b1b-06ebebb2f834",
      "attributes": "https://linked.data.gov.au/def/nrm/42e0ce6d-8233-4ff1-8553-8f3e1ba68830",
      "procedure": "https://linked.data.gov.au/def/nrm/d885edf1-fbdb-47f2-9ddf-098e98fb82fe"
    }
  },
  "basal-wedge-protocol": {
    "uuid": "4b8b35c7-15ef-4abd-a7b2-2f4e24509b52",
    "set": "2",
    "active": false,
    "survey-model": "basal-wedge-survey",
    "plot-based-protocol": true,
    "feature-types-group-key": "date_time",
    "custom-configs": {
      "handle-tree-obs": true,
      "handle-tree-attr": true,
      "handle-basal-area": true
    },
    "extra-fields": ["basal area"],
    "feature-types": ["plant population", "plant community"],
    "protocol_shape": "basal-area/basal-area-basal-wedge-protocol-shapes",
    "uri": {
      "properties": "https://linked.data.gov.au/def/nrm/84b0a152-e6f6-4ea2-b973-04238034bb52",
      "attributes": "https://linked.data.gov.au/def/nrm/2c11309d-b846-4a40-a571-6af773d380c6",
      "procedure": "https://linked.data.gov.au/def/nrm/a7d605e0-7d90-473e-aac0-21cdf380576f"
    }
  },
  "basal-dbh-protocol": {
    "uuid": "5005b0af-4360-4a8c-a203-b2c9e440547e",
    "set": "2",
    "active": false,
    "survey-model": "basal-area-dbh-measure-survey",
    "plot-based-protocol": true,
    "custom-configs": {
      "handle-tree-obs": true,
      "handle-stem-obs": true,
      "handle-tree-attr": true,
      "handle-stem-attr": true,
      "handle-dbh-sampler": true,
      "handle-tree-bool-iri": true
    },
    "feature-types": ["plant population", "plant occurrence"],
    "protocol_shape": "basal-area/basal-area-dbh-protocol-shapes",
    "uri": {
      "properties": "https://linked.data.gov.au/def/nrm/37d541e6-756f-4248-88cd-ade4775e3b7b",
      "attributes": "https://linked.data.gov.au/def/nrm/2c11309d-b846-4a40-a571-6af773d380c6",
      "procedure": "https://linked.data.gov.au/def/nrm/5a00862b-a885-472e-8bee-561ec502653f"
    }
  },
  "fauna-aerial-survey": {
    "uuid": "90c0f4cc-a22a-4820-9a8b-a01564bc197a",
    "set": "3",
    "active": false,
    "survey-model": "aerial-survey",
    "module": "Fauna aerial survey",
    "plot-based-protocol": false,
    "setup-id-based-protocol": true,
    "nested-setup-id-fields": ["ferals_aerial_count_survey", "transects"],
    "non-null-models": {
      "aerial-setup-desktop": "setup_ID"
    },
    "custom-configs": {
      "handle-setup-id-based-observations": true
    },
    "feature-types": ["weather", "animal evidence", "quadrat"],
    "photo-sample-label": "transect-start-photo",
    "photo-sampling-label": "taking-photos-for-transect-start-location",
    "protocol_shape": "fauna-aerial-survey-protocol-shapes",
    "uri": {
      "properties": "https://linked.data.gov.au/def/nrm/ad679770-8a8e-4c68-b634-25da49ecda83",
      "attributes": "https://linked.data.gov.au/def/nrm/12055e5d-d1e6-41e5-9de0-d2c3b085d30b",
      "procedure": "https://linked.data.gov.au/def/nrm/69e33304-f95e-41d3-b8bc-6307d3d774bf"
    }
  },
  "soil-site-observation-and-pit-characterisation": {
    "uuid": "1de5eed1-8f97-431c-b7ca-a8371deb3c28",
    "active": false,
    "set": "3",
    "survey-model": "soil-pit-characterisation-full",
    "plot-based-protocol": true,
    "feature-types": [
      "disturbance",
      "land surface",
      "soil horizon",
      "soil sample"
    ],
    "uri": {
      "properties": "https://linked.data.gov.au/def/nrm/5b7addb7-ae3d-47eb-b5d8-f34cc211875a",
      "attributes": "https://linked.data.gov.au/def/nrm/329d23b9-fda3-4bd5-aa6c-fc8da54cc6c1",
      "procedure": "https://linked.data.gov.au/def/nrm/8f00b7c6-34b4-4203-8dcc-4be47f21d7db"
    }
  },
  "soil-sub-pit-and-metagenomics": {
    "uuid": "1dd7d3ff-11b5-4690-8167-d8fe148656b9",
    "active": false,
    "set": "3",
    "survey-model": "soil-sub-pit-and-metagenomics-survey",
    "plot-based-protocol": true,
    "feature-types": ["soil horizon", "soil profile", "habitat"],
    "uri": {
      "properties": "https://linked.data.gov.au/def/nrm/a706a967-21d2-4336-b786-b04cd11e8a18",
      "attributes": "https://linked.data.gov.au/def/nrm/0bba57b4-f96c-448b-bc67-58bcd968e01a",
      "procedure": "https://linked.data.gov.au/def/nrm/9a1ab016-60d6-4876-a751-b25ccb734c2d"
    }
  },
  "soils-bulk-density": {
    "uuid": "39da41f1-dd45-4838-ae57-ea50588fd2bc",
    "active": false,
    "set": "2",
    "survey-model": "soil-bulk-density-survey",
    "plot-based-protocol": true,
    "feature-types": ["soil horizon", "soil profile", "habitat"],
    "uri": {
      "properties": "https://linked.data.gov.au/def/nrm/72b5340f-6654-4ee8-81dc-6a492964b20c",
      "attributes": "https://linked.data.gov.au/def/nrm/265eff6c-8ea2-4f9a-bcd1-09c5ff02e891",
      "procedure": "https://linked.data.gov.au/def/nrm/d9e6739a-c2dd-4619-be43-1251449a6436"
    }
  },
  "bird-protocol": {
    "uuid": "c1b38b0f-a888-4f28-871b-83da2ac1e533",
    "active": false,
    "set": "2",
    "survey-model": "bird-survey",
    "plot-based-protocol": true,
    "feature-types": ["bird occurrence", "bird population", "weather"],
    "protocol_shape": "vertebrate-fauna/vertebrate-fauna-bird-survey-protocol-shapes",
    "uri": {
      "properties": "https://linked.data.gov.au/def/nrm/d2768d6b-769c-4355-9358-6d2d98de4baf",
      "attributes": "https://linked.data.gov.au/def/nrm/7717e0ae-aea0-434d-892f-45bc3a40e0b4",
      "procedure": "https://linked.data.gov.au/def/nrm/98db8232-2c51-4907-99a7-0ccb8b825382"
    }
  },

  "coarse-woody-debris-plots-measure-protocol": {
    "uuid": "6e613128-92e8-4525-854c-4021f1d4d02f",
    "survey-model": "coarse-woody-debris-survey",
    "set": "2",
    "active": false,
    "plot-based-protocol": true,
    "feature-types": ["dead wood", "stand dead wood"],
    "uri": {
      "properties": "https://linked.data.gov.au/def/nrm/479f0a22-3de2-4db7-87f7-1bcf4db3d180",
      "attributes": "https://linked.data.gov.au/def/nrm/5bee1509-b8fc-452e-9a06-0aa03d8f196f",
      "procedure": "https://linked.data.gov.au/def/nrm/7d50794a-8784-4ab9-99ff-a324bb6e0831"
    }
  },
  "condition-sub-plot-protocol": {
    "uuid": "7f95710a-2003-4119-a2c6-41ce4e34d12a",
    "survey-model": "condition-survey",
    "active": false,
    "set": "2",
    "plot-based-protocol": true,
    "custom-configs": {
      "skip-fields": ["insect_damage"]
    },
    "feature-types": [
      "land surface substrate",
      "plant individual",
      "plant specimen"
    ],
    "uri": {
      "properties": "https://linked.data.gov.au/def/nrm/39b279f5-f026-4fe4-8c01-d1c5d3af6f3c",
      "attributes": "https://linked.data.gov.au/def/nrm/ce3412d6-a99e-482c-9651-5b2b5ac42456",
      "procedure": "https://linked.data.gov.au/def/nrm/51ba4b25-5508-46a8-9d7c-028012082d88"
    }
  },
  "recruitment-age-class-protocol": {
    "uuid": "a05f8914-ef4f-4a46-8cf1-d035c9c46d4d",
    "survey-model": "recruitment-field-survey",
    "plot-based-protocol": true,
    "active": false,
    "set": "2",
    "feature-types": [
      "plant individual",
      "plant occurrence",
      "plant population"
    ],
    "uri": {
      "properties": "https://linked.data.gov.au/def/nrm/36c493f1-6a2e-4d48-9c3a-df104d98124b",
      "attributes": "https://linked.data.gov.au/def/nrm/15f69532-0fe8-498f-b667-cf130c84475b",
      "procedure": "https://linked.data.gov.au/def/nrm/c93922b2-3b0e-4ee1-b1ef-c9719d039f5f"
    }
  },
  "recruitment-survivorship-protocol": {
    "uuid": "db841be3-dfb7-4860-9474-a131f4de5954",
    "active": false,
    "set": "2",
    "survey-model": "recruitment-survivorship-survey",
    "plot-based-protocol": true,
    "feature-types": ["plant individual"],
    "uri": {
      "properties": "https://linked.data.gov.au/def/nrm/6bea1c41-0a98-465a-a146-1d3cfbf6f6fa",
      "attributes": "https://linked.data.gov.au/def/nrm/fd311a29-d15b-497a-9ddd-ce00f1259fac",
      "procedure": "https://linked.data.gov.au/def/nrm/f470e27d-20ed-46dc-b64a-d67b39a9dffc"
    }
  },
  "camera-traps-fauna-protocol": {
    "uuid": "ad088dbe-02b2-472a-901f-bd081e590bcf",
    "active": false,
    "set": "2",
    "survey-model": "camera-trap-deployment-survey",
    "plot-based-protocol": false,
    "custom-configs": {
      "skip-fields": ["camera_trap_mount", "deployment_comments"]
    },
    "feature-types": ["habitat"],
    "uri": {
      "properties": "https://linked.data.gov.au/def/nrm/9af8cb76-bf1f-4506-b93a-75152217bf8c",
      "attributes": "https://linked.data.gov.au/def/nrm/637a0757-d63b-448b-a518-c99902e3b242",
      "procedure": "https://linked.data.gov.au/def/nrm/a2afccd5-766e-44bc-98c1-f27aae26727f"
    }
  },
  "camera-traps-array-protocol": {
    "uuid": "ad088dbe-02b2-472a-901f-bd081e590bcf",
    "active": false,
    "set": "2",
    "survey-model": "camera-trap-deployment-survey",
    "plot-based-protocol": false,
    "custom-configs": {
      "skip-fields": ["camera_trap_mount", "deployment_comments"]
    },
    "feature-types": ["habitat"],
    "uri": {
      "properties": "https://linked.data.gov.au/def/nrm/5e7f9234-ce66-46ea-9b5e-d8c692de63c5",
      "attributes": "https://linked.data.gov.au/def/nrm/e2d8b951-c1fd-4de9-9bd3-313ddcd79ab8",
      "procedure": "https://linked.data.gov.au/def/nrm/1a6953e4-a830-41f8-9cfd-11ead4dd6bc2"
    }
  }
}
