{
  "url": "https://graphdb.tern.org.au/repositories/dawe_vocabs_core?query=%0A++PREFIX+skos%3A+%3Chttp%3A%2F%2Fwww.w3.org%2F2004%2F02%2Fskos%2Fcore%23%3E%0A++PREFIX+rdfs%3A+%3Chttp%3A%2F%2Fwww.w3.org%2F2000%2F01%2Frdf-schema%23%3E%0A++PREFIX+tern%3A+%3Chttps%3A%2F%2Fw3id.org%2Ftern%2Fontologies%2Ftern%2F%3E%0A++select+%3Fconcept+%3FfeatureType+%28sample%28%3F__label%29+as+%3Flabel%29+%28sample%28%3F_featureTypeLabel%29+as+%3FfeatureTypeLabel%29+%3FvalueType+%28sample%28%3F_valueTypeLabel%29+as+%3FvalueTypeLabel%29+%3FcategoricalCollection+%28sample%28%3F_categoricalCollectionLabel%29+as+%3FcategoricalCollectionLabel%29%0A++from+%3Chttp%3A%2F%2Fwww.ontotext.com%2Fexplicit%3E%0A++from+%3Chttps%3A%2F%2Flinked.data.gov.au%2Fdef%2Fnrm%3E%0A++where+%7B+%0A++++++%23+Collection+of+observable+properties.%0A++++++%3Chttps%3A%2F%2Flinked.data.gov.au%2Fdef%2Fnrm%2Fa3333793-95bd-47fc-ba90-b8fc65a40456%3E+skos%3Amember+%3Fconcept+.%0A++++++%0A++++++%3Fconcept+skos%3AprefLabel+%3F_label+.%0A++++++bind%28str%28%3F_label%29+as+%3F__label%29%0A++%0A++++++optional+%7B+%0A++++++++++%3Fconcept+tern%3AhasFeatureType+%3FfeatureType+.%0A++++++++++service+%3Crepository%3Atern_vocabs_core%3E+%7B%0A++++++++++++++%3FfeatureType+skos%3AprefLabel+%3F_featureTypeLabel+.%0A++++++++++%7D%0A++++++%7D%0A++%0A++++++optional+%7B%0A++++++++%3Fconcept+tern%3AvalueType+%3FvalueType+.%0A++++++++service+%3Crepository%3Aknowledge_graph_core%3E+%7B%0A++++++++++%3FvalueType+skos%3AprefLabel+%3F_valueTypeLabel+.%0A++++++++%7D%0A++++++%7D%0A++%0A++++++optional+%7B%0A++++++++%3Fconcept+tern%3AhasCategoricalCollection+%3FcategoricalCollection+.%0A++++++++optional+%7B%0A++++++++++++%7B%0A++++++++++++++++service+%3Crepository%3Atern_vocabs_core%3E+%7B%0A++++++++++++++++++++%3FcategoricalCollection+skos%3AprefLabel+%3F_categoricalCollectionLabel+.%0A++++++++++++++++%7D%0A++++++++++++%7D%0A++++++++++++union+%7B%0A++++++++++++++++service+%3Crepository%3Aausplots_vocabs_core%3E+%7B%0A++++++++++++++++++++%3FcategoricalCollection+skos%3AprefLabel+%3F_categoricalCollectionLabel+.%0A++++++++++++++++%7D%0A++++++++++++%7D%0A++++++++++++union+%7B%0A++++++++++++++++%3FcategoricalCollection+skos%3AprefLabel+%3F_categoricalCollectionLabel+.%0A++++++++++++%7D%0A++++++++%7D%0A++++%7D%0A++%7D+%0A++group+by+%3Fconcept+%3FfeatureType+%3FvalueType+%3FcategoricalCollection%0A++order+by+lcase%28%3Flabel%29%0A++%0A++++++++",
  "method": "post",
  "params": {
    "query": "\n  PREFIX skos: <http://www.w3.org/2004/02/skos/core#>\n  PREFIX rdfs: <http://www.w3.org/2000/01/rdf-schema#>\n  PREFIX tern: <https://w3id.org/tern/ontologies/tern/>\n  select ?concept ?featureType (sample(?__label) as ?label) (sample(?_featureTypeLabel) as ?featureTypeLabel) ?valueType (sample(?_valueTypeLabel) as ?valueTypeLabel) ?categoricalCollection (sample(?_categoricalCollectionLabel) as ?categoricalCollectionLabel)\n  from <http://www.ontotext.com/explicit>\n  from <https://linked.data.gov.au/def/nrm>\n  where { \n      # Collection of observable properties.\n      <https://linked.data.gov.au/def/nrm/a3333793-95bd-47fc-ba90-b8fc65a40456> skos:member ?concept .\n      \n      ?concept skos:prefLabel ?_label .\n      bind(str(?_label) as ?__label)\n  \n      optional { \n          ?concept tern:hasFeatureType ?featureType .\n          service <repository:tern_vocabs_core> {\n              ?featureType skos:prefLabel ?_featureTypeLabel .\n          }\n      }\n  \n      optional {\n        ?concept tern:valueType ?valueType .\n        service <repository:knowledge_graph_core> {\n          ?valueType skos:prefLabel ?_valueTypeLabel .\n        }\n      }\n  \n      optional {\n        ?concept tern:hasCategoricalCollection ?categoricalCollection .\n        optional {\n            {\n                service <repository:tern_vocabs_core> {\n                    ?categoricalCollection skos:prefLabel ?_categoricalCollectionLabel .\n                }\n            }\n            union {\n                service <repository:ausplots_vocabs_core> {\n                    ?categoricalCollection skos:prefLabel ?_categoricalCollectionLabel .\n                }\n            }\n            union {\n                ?categoricalCollection skos:prefLabel ?_categoricalCollectionLabel .\n            }\n        }\n    }\n  } \n  group by ?concept ?featureType ?valueType ?categoricalCollection\n  order by lcase(?label)\n  \n        "
  },
  "body": {},
  "headers": {
    "content-type": "application/x-www-form-urlencoded",
    "accept": "application/sparql-results+json",
    "store-key": "https://linked.data.gov.au/def/nrm/a3333793-95bd-47fc-ba90-b8fc65a40456-graph_db_observable_properties"
  },
  "response": {
    "head": {
      "vars": [
        "concept",
        "featureType",
        "label",
        "featureTypeLabel",
        "valueType",
        "valueTypeLabel",
        "categoricalCollection",
        "categoricalCollectionLabel"
      ]
    },
    "results": {
      "bindings": [
        {
          "concept": {
            "type": "uri",
            "value": "https://linked.data.gov.au/def/nrm/c810367e-abae-5c42-8283-886752ddd331"
          },
          "label": {
            "type": "literal",
            "value": "animal carcass (partial)"
          }
        },
        {
          "concept": {
            "type": "uri",
            "value": "https://linked.data.gov.au/def/nrm/71efc83c-2ece-5799-a236-b7e4e9b49b92"
          },
          "label": {
            "type": "literal",
            "value": "animal carcass (whole)"
          }
        },
        {
          "concept": {
            "type": "uri",
            "value": "https://linked.data.gov.au/def/nrm/fe8cac2d-e965-514a-8138-dadf6f6751fa"
          },
          "label": {
            "type": "literal",
            "value": "animal hair/fur"
          }
        },
        {
          "concept": {
            "type": "uri",
            "value": "https://linked.data.gov.au/def/nrm/f9f69d93-df75-5021-883a-efac00502b09"
          },
          "label": {
            "type": "literal",
            "value": "animal scale"
          }
        },
        {
          "concept": {
            "type": "uri",
            "value": "https://linked.data.gov.au/def/nrm/b28a6ddd-c9c6-5839-9945-028f92707770"
          },
          "label": {
            "type": "literal",
            "value": "animal skin"
          }
        },
        {
          "concept": {
            "type": "uri",
            "value": "https://linked.data.gov.au/def/nrm/a722592b-75b5-4f04-901c-a7e83ab904e6"
          },
          "label": {
            "type": "literal",
            "value": "animal tissue voucher - fat"
          }
        },
        {
          "concept": {
            "type": "uri",
            "value": "https://linked.data.gov.au/def/nrm/50e07968-ba94-5ed8-b963-8d8e156d21b9"
          },
          "label": {
            "type": "literal",
            "value": "animal tissue voucher - heart"
          }
        },
        {
          "concept": {
            "type": "uri",
            "value": "https://linked.data.gov.au/def/nrm/65c51ed9-4e53-5823-b0e6-6a888de172a7"
          },
          "label": {
            "type": "literal",
            "value": "animal tissue voucher - kidney"
          }
        },
        {
          "concept": {
            "type": "uri",
            "value": "https://linked.data.gov.au/def/nrm/226873c8-5bc1-5788-8684-509adafdb91b"
          },
          "label": {
            "type": "literal",
            "value": "animal tissue voucher - liver"
          }
        },
        {
          "concept": {
            "type": "uri",
            "value": "https://linked.data.gov.au/def/nrm/1da79f6f-fd69-533a-8afc-755366543026"
          },
          "label": {
            "type": "literal",
            "value": "animal tissue voucher - muscle"
          }
        },
        {
          "concept": {
            "type": "uri",
            "value": "https://linked.data.gov.au/def/nrm/07ef9a24-969e-5a4f-876a-bf19005dd73d"
          },
          "label": {
            "type": "literal",
            "value": "animal tissue voucher - skull"
          }
        },
        {
          "concept": {
            "type": "uri",
            "value": "https://linked.data.gov.au/def/nrm/199896fa-e29e-4ef9-b980-988cc1351ced"
          },
          "label": {
            "type": "literal",
            "value": "animal tissue voucher - spleen"
          }
        },
        {
          "concept": {
            "type": "uri",
            "value": "https://linked.data.gov.au/def/nrm/b01d9b87-c252-58c4-a94f-fed6292f0830"
          },
          "label": {
            "type": "literal",
            "value": "animal tissue voucher - stomach contents"
          }
        },
        {
          "concept": {
            "type": "uri",
            "value": "https://linked.data.gov.au/def/nrm/9430fb9f-e9e0-5c2b-950c-e525fedb6908"
          },
          "label": {
            "type": "literal",
            "value": "blood (whole)"
          }
        },
        {
          "concept": {
            "type": "uri",
            "value": "https://linked.data.gov.au/def/nrm/b52635ac-a4bd-53d1-b1e9-133604a11bbe"
          },
          "label": {
            "type": "literal",
            "value": "blood smear"
          }
        },
        {
          "concept": {
            "type": "uri",
            "value": "https://linked.data.gov.au/def/nrm/ce300451-6e4f-510b-b95a-14b1cc827bec"
          },
          "label": {
            "type": "literal",
            "value": "bone/teeth"
          }
        },
        {
          "concept": {
            "type": "uri",
            "value": "https://linked.data.gov.au/def/nrm/3bb659e2-240f-521b-9587-fdc93d2d5cfe"
          },
          "label": {
            "type": "literal",
            "value": "ear clip or punch"
          }
        },
        {
          "concept": {
            "type": "uri",
            "value": "https://linked.data.gov.au/def/nrm/18d4c44d-4c5b-57b2-8eb1-37f3ba0826a0"
          },
          "label": {
            "type": "literal",
            "value": "feather"
          }
        },
        {
          "concept": {
            "type": "uri",
            "value": "https://linked.data.gov.au/def/nrm/a96d7507-e823-5f3a-a26b-62313538e0bb"
          },
          "label": {
            "type": "literal",
            "value": "Other"
          }
        },
        {
          "concept": {
            "type": "uri",
            "value": "https://linked.data.gov.au/def/nrm/e3a4c141-a85e-58cc-bf8c-66c35d27f44f"
          },
          "label": {
            "type": "literal",
            "value": "plant specimen - complete"
          }
        },
        {
          "concept": {
            "type": "uri",
            "value": "https://linked.data.gov.au/def/nrm/41a4201a-98ad-4c61-b7f8-1bca37e10315"
          },
          "label": {
            "type": "literal",
            "value": "plant specimen - partial"
          }
        },
        {
          "concept": {
            "type": "uri",
            "value": "https://linked.data.gov.au/def/nrm/50708dcf-27c0-5e4b-b99c-d707efc03f2a"
          },
          "label": {
            "type": "literal",
            "value": "Soil sample (eDNA)"
          }
        },
        {
          "concept": {
            "type": "uri",
            "value": "https://linked.data.gov.au/def/nrm/da87e0f1-8227-5dce-881e-87981d5fc57f"
          },
          "label": {
            "type": "literal",
            "value": "tail"
          }
        },
        {
          "concept": {
            "type": "uri",
            "value": "https://linked.data.gov.au/def/nrm/dffc236d-a306-5e2e-8ef8-f79cbf57f3b1"
          },
          "label": {
            "type": "literal",
            "value": "toe"
          }
        },
        {
          "concept": {
            "type": "uri",
            "value": "https://linked.data.gov.au/def/nrm/19db6460-805b-581e-8567-d5d9e7cb2347"
          },
          "label": {
            "type": "literal",
            "value": "Water sample (eDNA)"
          }
        },
        {
          "concept": {
            "type": "uri",
            "value": "https://linked.data.gov.au/def/nrm/28dadf59-ab8f-491a-881d-272f397719e3"
          },
          "label": {
            "type": "literal",
            "value": "wing"
          }
        }
      ]
    }
  }
}