{
  "url": "https://graphdb.tern.org.au/repositories/dawe_vocabs_core?query=%0A++PREFIX+skos%3A+%3Chttp%3A%2F%2Fwww.w3.org%2F2004%2F02%2Fskos%2Fcore%23%3E%0A++PREFIX+rdfs%3A+%3Chttp%3A%2F%2Fwww.w3.org%2F2000%2F01%2Frdf-schema%23%3E%0A++PREFIX+tern%3A+%3Chttps%3A%2F%2Fw3id.org%2Ftern%2Fontologies%2Ftern%2F%3E%0A++select+%3Fconcept+%3FfeatureType+%28sample%28%3F__label%29+as+%3Flabel%29+%28sample%28%3F_featureTypeLabel%29+as+%3FfeatureTypeLabel%29+%3FvalueType+%28sample%28%3F_valueTypeLabel%29+as+%3FvalueTypeLabel%29+%3FcategoricalCollection+%28sample%28%3F_categoricalCollectionLabel%29+as+%3FcategoricalCollectionLabel%29%0A++from+%3Chttp%3A%2F%2Fwww.ontotext.com%2Fexplicit%3E%0A++from+%3Chttps%3A%2F%2Flinked.data.gov.au%2Fdef%2Fnrm%3E%0A++where+%7B+%0A++++++%23+Collection+of+observable+properties.%0A++++++%3Chttps%3A%2F%2Flinked.data.gov.au%2Fdef%2Fnrm%2F7ea12fed-6b87-4c20-9ab4-600b32ce15ec%3E+skos%3Amember+%3Fconcept+.%0A++++++%0A++++++%3Fconcept+skos%3AprefLabel+%3F_label+.%0A++++++bind%28str%28%3F_label%29+as+%3F__label%29%0A++%0A++++++optional+%7B+%0A++++++++++%3Fconcept+tern%3AhasFeatureType+%3FfeatureType+.%0A++++++++++service+%3Crepository%3Atern_vocabs_core%3E+%7B%0A++++++++++++++%3FfeatureType+skos%3AprefLabel+%3F_featureTypeLabel+.%0A++++++++++%7D%0A++++++%7D%0A++%0A++++++optional+%7B%0A++++++++%3Fconcept+tern%3AvalueType+%3FvalueType+.%0A++++++++service+%3Crepository%3Aknowledge_graph_core%3E+%7B%0A++++++++++%3FvalueType+skos%3AprefLabel+%3F_valueTypeLabel+.%0A++++++++%7D%0A++++++%7D%0A++%0A++++++optional+%7B%0A++++++++%3Fconcept+tern%3AhasCategoricalCollection+%3FcategoricalCollection+.%0A++++++++optional+%7B%0A++++++++++++%7B%0A++++++++++++++++service+%3Crepository%3Atern_vocabs_core%3E+%7B%0A++++++++++++++++++++%3FcategoricalCollection+skos%3AprefLabel+%3F_categoricalCollectionLabel+.%0A++++++++++++++++%7D%0A++++++++++++%7D%0A++++++++++++union+%7B%0A++++++++++++++++service+%3Crepository%3Aausplots_vocabs_core%3E+%7B%0A++++++++++++++++++++%3FcategoricalCollection+skos%3AprefLabel+%3F_categoricalCollectionLabel+.%0A++++++++++++++++%7D%0A++++++++++++%7D%0A++++++++++++union+%7B%0A++++++++++++++++%3FcategoricalCollection+skos%3AprefLabel+%3F_categoricalCollectionLabel+.%0A++++++++++++%7D%0A++++++++%7D%0A++++%7D%0A++%7D+%0A++group+by+%3Fconcept+%3FfeatureType+%3FvalueType+%3FcategoricalCollection%0A++order+by+lcase%28%3Flabel%29%0A++%0A++++++++",
  "method": "post",
  "params": {
    "query": "\n  PREFIX skos: <http://www.w3.org/2004/02/skos/core#>\n  PREFIX rdfs: <http://www.w3.org/2000/01/rdf-schema#>\n  PREFIX tern: <https://w3id.org/tern/ontologies/tern/>\n  select ?concept ?featureType (sample(?__label) as ?label) (sample(?_featureTypeLabel) as ?featureTypeLabel) ?valueType (sample(?_valueTypeLabel) as ?valueTypeLabel) ?categoricalCollection (sample(?_categoricalCollectionLabel) as ?categoricalCollectionLabel)\n  from <http://www.ontotext.com/explicit>\n  from <https://linked.data.gov.au/def/nrm>\n  where { \n      # Collection of observable properties.\n      <https://linked.data.gov.au/def/nrm/7ea12fed-6b87-4c20-9ab4-600b32ce15ec> skos:member ?concept .\n      \n      ?concept skos:prefLabel ?_label .\n      bind(str(?_label) as ?__label)\n  \n      optional { \n          ?concept tern:hasFeatureType ?featureType .\n          service <repository:tern_vocabs_core> {\n              ?featureType skos:prefLabel ?_featureTypeLabel .\n          }\n      }\n  \n      optional {\n        ?concept tern:valueType ?valueType .\n        service <repository:knowledge_graph_core> {\n          ?valueType skos:prefLabel ?_valueTypeLabel .\n        }\n      }\n  \n      optional {\n        ?concept tern:hasCategoricalCollection ?categoricalCollection .\n        optional {\n            {\n                service <repository:tern_vocabs_core> {\n                    ?categoricalCollection skos:prefLabel ?_categoricalCollectionLabel .\n                }\n            }\n            union {\n                service <repository:ausplots_vocabs_core> {\n                    ?categoricalCollection skos:prefLabel ?_categoricalCollectionLabel .\n                }\n            }\n            union {\n                ?categoricalCollection skos:prefLabel ?_categoricalCollectionLabel .\n            }\n        }\n    }\n  } \n  group by ?concept ?featureType ?valueType ?categoricalCollection\n  order by lcase(?label)\n  \n        "
  },
  "body": {},
  "headers": {
    "content-type": "application/x-www-form-urlencoded",
    "accept": "application/sparql-results+json",
    "store-key": "https://linked.data.gov.au/def/nrm/7ea12fed-6b87-4c20-9ab4-600b32ce15ec-graph_db_observable_properties"
  },
  "response": {
    "head": {
      "vars": [
        "concept",
        "featureType",
        "label",
        "featureTypeLabel",
        "valueType",
        "valueTypeLabel",
        "categoricalCollection",
        "categoricalCollectionLabel"
      ]
    },
    "results": {
      "bindings": [
        {
          "concept": {
            "type": "uri",
            "value": "https://linked.data.gov.au/def/nrm/538e423a-3f73-5c52-8a30-13ef2ba5e77f"
          },
          "label": {
            "type": "literal",
            "value": "Amphibian"
          }
        },
        {
          "concept": {
            "type": "uri",
            "value": "https://linked.data.gov.au/def/nrm/f9874c91-f61d-5b74-90d1-aa71d3805b45"
          },
          "label": {
            "type": "literal",
            "value": "Bird"
          }
        },
        {
          "concept": {
            "type": "uri",
            "value": "https://linked.data.gov.au/def/nrm/fbbbe145-1da7-4827-af58-2b0e3d90aa01"
          },
          "label": {
            "type": "literal",
            "value": "frogs"
          }
        },
        {
          "concept": {
            "type": "uri",
            "value": "https://linked.data.gov.au/def/nrm/f03ce044-9c2c-52ec-adf9-5aa4960d58a8"
          },
          "label": {
            "type": "literal",
            "value": "Invertebrate"
          }
        },
        {
          "concept": {
            "type": "uri",
            "value": "https://linked.data.gov.au/def/nrm/e537a3de-6b76-5638-8d95-0a47cc00359a"
          },
          "label": {
            "type": "literal",
            "value": "Mammals"
          }
        },
        {
          "concept": {
            "type": "uri",
            "value": "https://linked.data.gov.au/def/nrm/599d9085-baad-5f32-86dc-3d112ecdae9c"
          },
          "label": {
            "type": "literal",
            "value": "Non-vascular plant"
          }
        },
        {
          "concept": {
            "type": "uri",
            "value": "https://linked.data.gov.au/def/nrm/51bf988a-8672-56f7-96cb-9c363eb0cfd4"
          },
          "label": {
            "type": "literal",
            "value": "Reptile"
          }
        },
        {
          "concept": {
            "type": "uri",
            "value": "https://linked.data.gov.au/def/nrm/7def5e09-00a6-5ace-b48b-6f93b4d4bf8a"
          },
          "label": {
            "type": "literal",
            "value": "Vascular plant"
          }
        },
        {
          "concept": {
            "type": "uri",
            "value": "https://linked.data.gov.au/def/nrm/ce524d80-3ca4-48fe-b798-1f494e152fb2"
          },
          "label": {
            "type": "literal",
            "value": "vegetation community"
          }
        }
      ]
    }
  }
}