{
  "url": "https://graphdb.tern.org.au/repositories/dawe_vocabs_core?query=%0ASELECT+%3Ftitle+%3Fvalue%0A%0A++++++++++++%7B+%0A%0A++++++++++++%3Chttps%3A%2F%2Flinked.data.gov.au%2Fdef%2Fnrm%2F13f7d5bb-ac64-4f1e-b07c-68f8823a85ea%3E+%3Ftitle+%3Fvalue%0A%0A++++++++++++%7D",
  "method": "post",
  "params": {
    "query": "\nSELECT ?title ?value\n\n            { \n\n            <https://linked.data.gov.au/def/nrm/13f7d5bb-ac64-4f1e-b07c-68f8823a85ea> ?title ?value\n\n            }"
  },
  "body": {},
  "headers": {
    "content-type": "application/x-www-form-urlencoded",
    "accept": "application/sparql-results+json",
    "store-key": "https://linked.data.gov.au/def/nrm/13f7d5bb-ac64-4f1e-b07c-68f8823a85ea-sparql_query"
  },
  "response": {
    "head": {
      "vars": [
        "title",
        "value"
      ]
    },
    "results": {
      "bindings": [
        {
          "title": {
            "type": "uri",
            "value": "http://www.w3.org/1999/02/22-rdf-syntax-ns#type"
          },
          "value": {
            "type": "uri",
            "value": "http://www.w3.org/2004/02/skos/core#Concept"
          }
        },
        {
          "title": {
            "type": "uri",
            "value": "http://www.w3.org/2000/01/rdf-schema#isDefinedBy"
          },
          "value": {
            "type": "uri",
            "value": "https://linked.data.gov.au/def/nrm"
          }
        },
        {
          "title": {
            "type": "uri",
            "value": "http://purl.org/dc/terms/description"
          },
          "value": {
            "type": "literal",
            "value": "A program can encompass a range of activities, including projects, tasks, or interventions, organized and coordinated to achieve a common purpose. Some examples include, National Landcare Program, The Threatened Species Recovery Program, etc."
          }
        },
        {
          "title": {
            "type": "uri",
            "value": "http://www.w3.org/2004/02/skos/core#definition"
          },
          "value": {
            "type": "literal",
            "value": "A structured set of activities, initiatives, or procedures designed to achieve specific objectives or goals within a defined timeframe."
          }
        },
        {
          "title": {
            "type": "uri",
            "value": "http://www.w3.org/2004/02/skos/core#prefLabel"
          },
          "value": {
            "type": "literal",
            "value": "program"
          }
        },
        {
          "title": {
            "type": "uri",
            "value": "http://www.w3.org/2004/02/skos/core#historyNote"
          },
          "value": {
            "type": "literal",
            "value": "Added this new attribute concept based on the version-2 changes of EMSA modules (EMSA v2 Review process, March, 2024). "
          }
        },
        {
          "title": {
            "type": "uri",
            "value": "http://purl.org/dc/terms/source"
          },
          "value": {
            "type": "literal",
            "value": "McCallum K, Laws M, Cox B, Potter T, Bignall J, O’Neill S, Sparrow B. (2023) Plot Selection and Layout Module. In ‘Ecological Field Monitoring Protocols Manual using the Ecological Monitoring System Australia’. (Eds S O’Neill, K Irvine, A Tokmakoff, B Sparrow). TERN, Adelaide."
          }
        },
        {
          "title": {
            "type": "uri",
            "value": "https://w3id.org/tern/ontologies/tern/isAttributeOf"
          },
          "value": {
            "type": "uri",
            "value": "https://linked.data.gov.au/def/nrm/8a4f71cc-7572-4b97-a3ef-c8061551b1fe"
          }
        },
        {
          "title": {
            "type": "uri",
            "value": "https://w3id.org/tern/ontologies/tern/valueType"
          },
          "value": {
            "type": "uri",
            "value": "https://w3id.org/tern/ontologies/tern/IRI"
          }
        },
        {
          "title": {
            "type": "uri",
            "value": "https://schema.org/url"
          },
          "value": {
            "datatype": "http://www.w3.org/2001/XMLSchema#anyURI",
            "type": "literal",
            "value": "https://github.com/ternaustralia/dawe-rlp-vocabs/tree/main/vocab_files/attribute_concepts/program.ttl"
          }
        },
        {
          "title": {
            "type": "uri",
            "value": "https://w3id.org/tern/ontologies/tern/isMemberOf"
          },
          "value": {
            "type": "uri",
            "value": "https://linked.data.gov.au/def/nrm/d1e0ed8d-04a4-43de-87be-e6863de148cb"
          }
        }
      ]
    }
  }
}