{
  "url": "https://graphdb.tern.org.au/repositories/dawe_vocabs_core?query=%0ASELECT+%3Ftitle+%3Fvalue%0A%0A++++++++++++%7B+%0A%0A++++++++++++%3Chttps%3A%2F%2Flinked.data.gov.au%2Fdef%2Fnrm%2F00df82dc-6851-57d3-9e25-9a8a1b3d5245%3E+%3Ftitle+%3Fvalue%0A%0A++++++++++++%7D",
  "method": "post",
  "params": {
    "query": "\nSELECT ?title ?value\n\n            { \n\n            <https://linked.data.gov.au/def/nrm/00df82dc-6851-57d3-9e25-9a8a1b3d5245> ?title ?value\n\n            }"
  },
  "body": {},
  "headers": {
    "content-type": "application/x-www-form-urlencoded",
    "accept": "application/sparql-results+json",
    "store-key": "https://linked.data.gov.au/def/nrm/00df82dc-6851-57d3-9e25-9a8a1b3d5245-sparql_query"
  },
  "response": {
    "head": {
      "vars": [
        "title",
        "value"
      ]
    },
    "results": {
      "bindings": [
        {
          "title": {
            "type": "uri",
            "value": "http://www.w3.org/1999/02/22-rdf-syntax-ns#type"
          },
          "value": {
            "type": "uri",
            "value": "http://www.w3.org/2004/02/skos/core#Concept"
          }
        },
        {
          "title": {
            "type": "uri",
            "value": "http://www.w3.org/2000/01/rdf-schema#isDefinedBy"
          },
          "value": {
            "type": "uri",
            "value": "https://linked.data.gov.au/def/nrm"
          }
        },
        {
          "title": {
            "type": "uri",
            "value": "http://www.w3.org/2004/02/skos/core#definition"
          },
          "value": {
            "type": "literal",
            "value": "A unique alphanumeric code assigned to the current project, serving as an identifier when establishing plots during an ecological survey."
          }
        },
        {
          "title": {
            "type": "uri",
            "value": "http://www.w3.org/2004/02/skos/core#prefLabel"
          },
          "value": {
            "type": "literal",
            "value": "project code"
          }
        },
        {
          "title": {
            "type": "uri",
            "value": "http://www.w3.org/2004/02/skos/core#altLabel"
          },
          "value": {
            "type": "literal",
            "value": "current project for plot"
          }
        },
        {
          "title": {
            "type": "uri",
            "value": "http://www.w3.org/2004/02/skos/core#altLabel"
          },
          "value": {
            "type": "literal",
            "value": "project(s) for plot"
          }
        },
        {
          "title": {
            "type": "uri",
            "value": "http://www.w3.org/2004/02/skos/core#historyNote"
          },
          "value": {
            "type": "literal",
            "value": "Updated source and definition based on the version-2 changes of EMSA modules (EMSA v2 Review process, March, 2024)."
          }
        },
        {
          "title": {
            "type": "uri",
            "value": "http://purl.org/dc/terms/source"
          },
          "value": {
            "type": "literal",
            "value": "McCallum K, Laws M, Cox B, Potter T, Bignall J, O’Neill S, Sparrow B. (2023) Plot Selection and Layout Module. In ‘Ecological Field Monitoring Protocols Manual using the Ecological Monitoring System Australia’. (Eds S O’Neill, K Irvine, A Tokmakoff, B Sparrow). TERN, Adelaide."
          }
        },
        {
          "title": {
            "type": "uri",
            "value": "https://w3id.org/tern/ontologies/tern/isAttributeOf"
          },
          "value": {
            "type": "uri",
            "value": "https://w3id.org/tern/ontologies/tern/Input"
          }
        },
        {
          "title": {
            "type": "uri",
            "value": "https://w3id.org/tern/ontologies/tern/isAttributeOf"
          },
          "value": {
            "type": "uri",
            "value": "https://w3id.org/tern/ontologies/org/Project"
          }
        },
        {
          "title": {
            "type": "uri",
            "value": "https://w3id.org/tern/ontologies/tern/valueType"
          },
          "value": {
            "type": "uri",
            "value": "https://w3id.org/tern/ontologies/tern/Text"
          }
        },
        {
          "title": {
            "type": "uri",
            "value": "https://schema.org/url"
          },
          "value": {
            "datatype": "http://www.w3.org/2001/XMLSchema#anyURI",
            "type": "literal",
            "value": "https://github.com/ternaustralia/dawe-rlp-vocabs/tree/main/vocab_files/attribute_concepts/current-project-code.ttl"
          }
        },
        {
          "title": {
            "type": "uri",
            "value": "https://w3id.org/tern/ontologies/tern/isMemberOf"
          },
          "value": {
            "type": "uri",
            "value": "https://linked.data.gov.au/def/nrm/756fe09c-9ca7-4fb6-af37-4a504e39bca4"
          }
        },
        {
          "title": {
            "type": "uri",
            "value": "https://w3id.org/tern/ontologies/tern/isMemberOf"
          },
          "value": {
            "type": "uri",
            "value": "https://linked.data.gov.au/def/nrm/d1e0ed8d-04a4-43de-87be-e6863de148cb"
          }
        },
        {
          "title": {
            "type": "uri",
            "value": "https://w3id.org/tern/ontologies/tern/isMemberOf"
          },
          "value": {
            "type": "uri",
            "value": "https://linked.data.gov.au/def/nrm/342af0f8-b851-483d-ba83-1b801da3bd79"
          }
        },
        {
          "title": {
            "type": "uri",
            "value": "https://w3id.org/tern/ontologies/tern/isMemberOf"
          },
          "value": {
            "type": "uri",
            "value": "https://linked.data.gov.au/def/nrm/277f545b-4dff-4b42-9b09-1bc13b125520"
          }
        },
        {
          "title": {
            "type": "uri",
            "value": "https://w3id.org/tern/ontologies/tern/isMemberOf"
          },
          "value": {
            "type": "uri",
            "value": "https://linked.data.gov.au/def/nrm/0e3928a5-f3f6-4722-83d1-a69c24c3d170"
          }
        }
      ]
    }
  }
}