{
  "url": "https://graphdb.tern.org.au/repositories/dawe_vocabs_core?query=%0A++PREFIX+skos%3A+%3Chttp%3A%2F%2Fwww.w3.org%2F2004%2F02%2Fskos%2Fcore%23%3E%0A++PREFIX+rdfs%3A+%3Chttp%3A%2F%2Fwww.w3.org%2F2000%2F01%2Frdf-schema%23%3E%0A++PREFIX+tern%3A+%3Chttps%3A%2F%2Fw3id.org%2Ftern%2Fontologies%2Ftern%2F%3E%0A++select+%3Fconcept+%3FfeatureType+%28sample%28%3F__label%29+as+%3Flabel%29+%28sample%28%3F_featureTypeLabel%29+as+%3FfeatureTypeLabel%29+%3FvalueType+%28sample%28%3F_valueTypeLabel%29+as+%3FvalueTypeLabel%29+%3FcategoricalCollection+%28sample%28%3F_categoricalCollectionLabel%29+as+%3FcategoricalCollectionLabel%29%0A++from+%3Chttp%3A%2F%2Fwww.ontotext.com%2Fexplicit%3E%0A++from+%3Chttps%3A%2F%2Flinked.data.gov.au%2Fdef%2Fnrm%3E%0A++where+%7B+%0A++++++%23+Collection+of+observable+properties.%0A++++++%3Chttps%3A%2F%2Flinked.data.gov.au%2Fdef%2Fnrm%2F19d91a7a-2733-4b84-9d2b-4bda4808c003%3E+skos%3Amember+%3Fconcept+.%0A++++++%0A++++++%3Fconcept+skos%3AprefLabel+%3F_label+.%0A++++++bind%28str%28%3F_label%29+as+%3F__label%29%0A++%0A++++++optional+%7B+%0A++++++++++%3Fconcept+tern%3AhasFeatureType+%3FfeatureType+.%0A++++++++++service+%3Crepository%3Atern_vocabs_core%3E+%7B%0A++++++++++++++%3FfeatureType+skos%3AprefLabel+%3F_featureTypeLabel+.%0A++++++++++%7D%0A++++++%7D%0A++%0A++++++optional+%7B%0A++++++++%3Fconcept+tern%3AvalueType+%3FvalueType+.%0A++++++++service+%3Crepository%3Aknowledge_graph_core%3E+%7B%0A++++++++++%3FvalueType+skos%3AprefLabel+%3F_valueTypeLabel+.%0A++++++++%7D%0A++++++%7D%0A++%0A++++++optional+%7B%0A++++++++%3Fconcept+tern%3AhasCategoricalCollection+%3FcategoricalCollection+.%0A++++++++optional+%7B%0A++++++++++++%7B%0A++++++++++++++++service+%3Crepository%3Atern_vocabs_core%3E+%7B%0A++++++++++++++++++++%3FcategoricalCollection+skos%3AprefLabel+%3F_categoricalCollectionLabel+.%0A++++++++++++++++%7D%0A++++++++++++%7D%0A++++++++++++union+%7B%0A++++++++++++++++service+%3Crepository%3Aausplots_vocabs_core%3E+%7B%0A++++++++++++++++++++%3FcategoricalCollection+skos%3AprefLabel+%3F_categoricalCollectionLabel+.%0A++++++++++++++++%7D%0A++++++++++++%7D%0A++++++++++++union+%7B%0A++++++++++++++++%3FcategoricalCollection+skos%3AprefLabel+%3F_categoricalCollectionLabel+.%0A++++++++++++%7D%0A++++++++%7D%0A++++%7D%0A++%7D+%0A++group+by+%3Fconcept+%3FfeatureType+%3FvalueType+%3FcategoricalCollection%0A++order+by+lcase%28%3Flabel%29%0A++%0A++++++++",
  "method": "post",
  "params": {
    "query": "\n  PREFIX skos: <http://www.w3.org/2004/02/skos/core#>\n  PREFIX rdfs: <http://www.w3.org/2000/01/rdf-schema#>\n  PREFIX tern: <https://w3id.org/tern/ontologies/tern/>\n  select ?concept ?featureType (sample(?__label) as ?label) (sample(?_featureTypeLabel) as ?featureTypeLabel) ?valueType (sample(?_valueTypeLabel) as ?valueTypeLabel) ?categoricalCollection (sample(?_categoricalCollectionLabel) as ?categoricalCollectionLabel)\n  from <http://www.ontotext.com/explicit>\n  from <https://linked.data.gov.au/def/nrm>\n  where { \n      # Collection of observable properties.\n      <https://linked.data.gov.au/def/nrm/19d91a7a-2733-4b84-9d2b-4bda4808c003> skos:member ?concept .\n      \n      ?concept skos:prefLabel ?_label .\n      bind(str(?_label) as ?__label)\n  \n      optional { \n          ?concept tern:hasFeatureType ?featureType .\n          service <repository:tern_vocabs_core> {\n              ?featureType skos:prefLabel ?_featureTypeLabel .\n          }\n      }\n  \n      optional {\n        ?concept tern:valueType ?valueType .\n        service <repository:knowledge_graph_core> {\n          ?valueType skos:prefLabel ?_valueTypeLabel .\n        }\n      }\n  \n      optional {\n        ?concept tern:hasCategoricalCollection ?categoricalCollection .\n        optional {\n            {\n                service <repository:tern_vocabs_core> {\n                    ?categoricalCollection skos:prefLabel ?_categoricalCollectionLabel .\n                }\n            }\n            union {\n                service <repository:ausplots_vocabs_core> {\n                    ?categoricalCollection skos:prefLabel ?_categoricalCollectionLabel .\n                }\n            }\n            union {\n                ?categoricalCollection skos:prefLabel ?_categoricalCollectionLabel .\n            }\n        }\n    }\n  } \n  group by ?concept ?featureType ?valueType ?categoricalCollection\n  order by lcase(?label)\n  \n        "
  },
  "body": {},
  "headers": {
    "content-type": "application/x-www-form-urlencoded",
    "accept": "application/sparql-results+json",
    "store-key": "https://linked.data.gov.au/def/nrm/19d91a7a-2733-4b84-9d2b-4bda4808c003-graph_db_observable_properties"
  },
  "response": {
    "head": {
      "vars": [
        "concept",
        "featureType",
        "label",
        "featureTypeLabel",
        "valueType",
        "valueTypeLabel",
        "categoricalCollection",
        "categoricalCollectionLabel"
      ]
    },
    "results": {
      "bindings": [
        {
          "concept": {
            "type": "uri",
            "value": "https://linked.data.gov.au/def/nrm/8c41fdce-9273-5535-822e-dbaf79ed5ee4"
          },
          "label": {
            "type": "literal",
            "value": "Alluvial fan"
          }
        },
        {
          "concept": {
            "type": "uri",
            "value": "https://linked.data.gov.au/def/nrm/a80fd3dd-894e-5ad6-a2dc-b7e82e26baa5"
          },
          "label": {
            "type": "literal",
            "value": "Alluvial plain"
          }
        },
        {
          "concept": {
            "type": "uri",
            "value": "https://linked.data.gov.au/def/nrm/fde010ad-fa2a-54cf-b5a0-0695c4e26cf9"
          },
          "label": {
            "type": "literal",
            "value": "Anastomotic plain"
          }
        },
        {
          "concept": {
            "type": "uri",
            "value": "https://linked.data.gov.au/def/nrm/ccb1f667-0c07-54e4-95ea-c4fc9038ee9b"
          },
          "label": {
            "type": "literal",
            "value": "Badlands"
          }
        },
        {
          "concept": {
            "type": "uri",
            "value": "https://linked.data.gov.au/def/nrm/87804991-be35-577e-a860-e705d43b15de"
          },
          "label": {
            "type": "literal",
            "value": "Bar Plain"
          }
        },
        {
          "concept": {
            "type": "uri",
            "value": "https://linked.data.gov.au/def/nrm/5aeedd22-e88a-536e-bb85-7037686528b3"
          },
          "label": {
            "type": "literal",
            "value": "Beach ridge plain"
          }
        },
        {
          "concept": {
            "type": "uri",
            "value": "https://linked.data.gov.au/def/nrm/73d97557-6934-5036-8262-96be453e7adf"
          },
          "label": {
            "type": "literal",
            "value": "Caldera"
          }
        },
        {
          "concept": {
            "type": "uri",
            "value": "https://linked.data.gov.au/def/nrm/73e51c76-d4f4-5e93-a310-e5100958ae61"
          },
          "label": {
            "type": "literal",
            "value": "Chenier plain"
          }
        },
        {
          "concept": {
            "type": "uri",
            "value": "https://linked.data.gov.au/def/nrm/3e6d793d-77c7-520d-af77-d22c32ed6e8a"
          },
          "label": {
            "type": "literal",
            "value": "Coral reef"
          }
        },
        {
          "concept": {
            "type": "uri",
            "value": "https://linked.data.gov.au/def/nrm/b4956cb2-d66f-5e4e-9e34-ff8ed1e9df24"
          },
          "label": {
            "type": "literal",
            "value": "Covered plain"
          }
        },
        {
          "concept": {
            "type": "uri",
            "value": "https://linked.data.gov.au/def/nrm/d554d4b1-a716-5d61-a96e-57a95df29050"
          },
          "label": {
            "type": "literal",
            "value": "Delta"
          }
        },
        {
          "concept": {
            "type": "uri",
            "value": "https://linked.data.gov.au/def/nrm/101075ba-daf8-5cfa-bc3e-faa8e4f7ea55"
          },
          "label": {
            "type": "literal",
            "value": "Dunefield"
          }
        },
        {
          "concept": {
            "type": "uri",
            "value": "https://linked.data.gov.au/def/nrm/8250c6af-a20a-58b1-8796-a9ee90cb15f9"
          },
          "label": {
            "type": "literal",
            "value": "Escarpment"
          }
        },
        {
          "concept": {
            "type": "uri",
            "value": "https://linked.data.gov.au/def/nrm/09f2d5d6-21b7-5e0d-b3c4-aad508a27e00"
          },
          "label": {
            "type": "literal",
            "value": "Floodplain"
          }
        },
        {
          "concept": {
            "type": "uri",
            "value": "https://linked.data.gov.au/def/nrm/2b145527-2fda-5970-bddf-3f65219f537c"
          },
          "label": {
            "type": "literal",
            "value": "Hills"
          }
        },
        {
          "concept": {
            "type": "uri",
            "value": "https://linked.data.gov.au/def/nrm/6ee19567-5635-5226-9415-188b629498f0"
          },
          "label": {
            "type": "literal",
            "value": "Karst"
          }
        },
        {
          "concept": {
            "type": "uri",
            "value": "https://linked.data.gov.au/def/nrm/831af0e7-a307-5cf7-977b-1b19dba5969b"
          },
          "label": {
            "type": "literal",
            "value": "Lacustrine plain"
          }
        },
        {
          "concept": {
            "type": "uri",
            "value": "https://linked.data.gov.au/def/nrm/428d2787-a221-523b-9cbd-3b8a7a2312f8"
          },
          "label": {
            "type": "literal",
            "value": "Landform pattern-  Tidal flat"
          }
        },
        {
          "concept": {
            "type": "uri",
            "value": "https://linked.data.gov.au/def/nrm/2757b086-873a-51b9-82a6-8b0687712165"
          },
          "label": {
            "type": "literal",
            "value": "Lava plain"
          }
        },
        {
          "concept": {
            "type": "uri",
            "value": "https://linked.data.gov.au/def/nrm/18c8b51a-e0a6-54e5-98c9-09defdef9763"
          },
          "label": {
            "type": "literal",
            "value": "Longitudinal dunefield"
          }
        },
        {
          "concept": {
            "type": "uri",
            "value": "https://linked.data.gov.au/def/nrm/5af57dba-5cdd-53f6-952d-f91c490735f7"
          },
          "label": {
            "type": "literal",
            "value": "Low hills"
          }
        },
        {
          "concept": {
            "type": "uri",
            "value": "https://linked.data.gov.au/def/nrm/e269a514-c9cc-5e54-a09f-95a715724cc2"
          },
          "label": {
            "type": "literal",
            "value": "Made land"
          }
        },
        {
          "concept": {
            "type": "uri",
            "value": "https://linked.data.gov.au/def/nrm/55ea97b3-31c5-5004-95e2-646277c4f9fb"
          },
          "label": {
            "type": "literal",
            "value": "Marine plain"
          }
        },
        {
          "concept": {
            "type": "uri",
            "value": "https://linked.data.gov.au/def/nrm/22eacf7a-4c3a-5777-9cc7-7d40b0b3b7ee"
          },
          "label": {
            "type": "literal",
            "value": "Meander plain"
          }
        },
        {
          "concept": {
            "type": "uri",
            "value": "https://linked.data.gov.au/def/nrm/5f902b80-4a34-5321-af9a-776908b65ec8"
          },
          "label": {
            "type": "literal",
            "value": "Meteor crater"
          }
        },
        {
          "concept": {
            "type": "uri",
            "value": "https://linked.data.gov.au/def/nrm/cd36dfa8-1280-57d6-863d-aa944ca964ed"
          },
          "label": {
            "type": "literal",
            "value": "Mountains"
          }
        },
        {
          "concept": {
            "type": "uri",
            "value": "https://linked.data.gov.au/def/nrm/94ee6b46-e2f1-5101-8666-3cbcd8697f0f"
          },
          "label": {
            "type": "literal",
            "value": "not collected"
          }
        },
        {
          "concept": {
            "type": "uri",
            "value": "https://linked.data.gov.au/def/nrm/cffe8060-0916-5217-9b90-dfd262fbc12e"
          },
          "label": {
            "type": "literal",
            "value": "Parabolic dunefield"
          }
        },
        {
          "concept": {
            "type": "uri",
            "value": "https://linked.data.gov.au/def/nrm/392c68e8-e681-556d-a1ae-4a7aecf5144d"
          },
          "label": {
            "type": "literal",
            "value": "Pediment"
          }
        },
        {
          "concept": {
            "type": "uri",
            "value": "https://linked.data.gov.au/def/nrm/ddb933d6-468f-552b-a752-c5a2fe383537"
          },
          "label": {
            "type": "literal",
            "value": "Pediplain"
          }
        },
        {
          "concept": {
            "type": "uri",
            "value": "https://linked.data.gov.au/def/nrm/49c66272-9b1e-5d4c-b9c2-d12b242edbce"
          },
          "label": {
            "type": "literal",
            "value": "Peneplain"
          }
        },
        {
          "concept": {
            "type": "uri",
            "value": "https://linked.data.gov.au/def/nrm/d7154911-ea70-5613-9b4d-8fb80b36cda0"
          },
          "label": {
            "type": "literal",
            "value": "Plain"
          }
        },
        {
          "concept": {
            "type": "uri",
            "value": "https://linked.data.gov.au/def/nrm/d0cc9e41-ca4c-50a4-bfe5-c2fa623a8dd5"
          },
          "label": {
            "type": "literal",
            "value": "Plateau"
          }
        },
        {
          "concept": {
            "type": "uri",
            "value": "https://linked.data.gov.au/def/nrm/4762dc21-27f1-5ed9-b5cb-82d2b6e4398f"
          },
          "label": {
            "type": "literal",
            "value": "Playa plain"
          }
        },
        {
          "concept": {
            "type": "uri",
            "value": "https://linked.data.gov.au/def/nrm/f0e21988-4659-5de2-aa77-9d4112ead940"
          },
          "label": {
            "type": "literal",
            "value": "Rises"
          }
        },
        {
          "concept": {
            "type": "uri",
            "value": "https://linked.data.gov.au/def/nrm/e32ddb5c-4d3b-5204-a3d8-9987e8ca493c"
          },
          "label": {
            "type": "literal",
            "value": "Sandplain"
          }
        },
        {
          "concept": {
            "type": "uri",
            "value": "https://linked.data.gov.au/def/nrm/abcf11d3-2aa2-5ec8-9123-99b22c9e8cc9"
          },
          "label": {
            "type": "literal",
            "value": "Sheet-flood fan"
          }
        },
        {
          "concept": {
            "type": "uri",
            "value": "https://linked.data.gov.au/def/nrm/4ac6938b-e588-528d-bb91-a344217fb6de"
          },
          "label": {
            "type": "literal",
            "value": "Stagnant alluvial plain"
          }
        },
        {
          "concept": {
            "type": "uri",
            "value": "https://linked.data.gov.au/def/nrm/36cac678-b741-5649-8ab7-b2a0d11168b3"
          },
          "label": {
            "type": "literal",
            "value": "Terrace (alluvial)"
          }
        },
        {
          "concept": {
            "type": "uri",
            "value": "https://linked.data.gov.au/def/nrm/1208831d-e64f-5543-a28c-99693b0d7643"
          },
          "label": {
            "type": "literal",
            "value": "Terraced land (alluvial)"
          }
        },
        {
          "concept": {
            "type": "uri",
            "value": "https://linked.data.gov.au/def/nrm/49e8888f-04c3-5689-8a49-421b0169ae53"
          },
          "label": {
            "type": "literal",
            "value": "Volcano"
          }
        }
      ]
    }
  }
}