{
  "url": "https://graphdb.tern.org.au/repositories/dawe_vocabs_core?query=PREFIX+urnp%3A+%3Curn%3Aproperty%3A%3E%0A++++++++PREFIX+skos%3A+%3Chttp%3A%2F%2Fwww.w3.org%2F2004%2F02%2Fskos%2Fcore%23%3E%0A++++++++select+%3Fattribute+%7B%0A++++++++++++%3Fs+urnp%3AobservableProperty+%3Chttps%3A%2F%2Flinked.data.gov.au%2Fdef%2Fnrm%2Fcf1aef8a-a782-4480-9c41-a7f6d170d7fc%3E+%3B%0A++++++++++++++++urnp%3AobservablePropertiesCollection+%3Chttps%3A%2F%2Flinked.data.gov.au%2Fdef%2Fnrm%2Fcdd61f02-261e-48c0-a4af-046c22bc8202%3E+%3B%0A++++++++++++urnp%3AhasAttribute+%3Fattribute+.%0A++++++++%7D",
  "method": "post",
  "params": {
    "query": "PREFIX urnp: <urn:property:>\n        PREFIX skos: <http://www.w3.org/2004/02/skos/core#>\n        select ?attribute {\n            ?s urnp:observableProperty <https://linked.data.gov.au/def/nrm/cf1aef8a-a782-4480-9c41-a7f6d170d7fc> ;\n                urnp:observablePropertiesCollection <https://linked.data.gov.au/def/nrm/cdd61f02-261e-48c0-a4af-046c22bc8202> ;\n            urnp:hasAttribute ?attribute .\n        }"
  },
  "body": {},
  "headers": {
    "content-type": "application/x-www-form-urlencoded",
    "accept": "application/sparql-results+json",
    "store-key": "https://linked.data.gov.au/def/nrm/cf1aef8a-a782-4480-9c41-a7f6d170d7fc-https://linked.data.gov.au/def/nrm/cdd61f02-261e-48c0-a4af-046c22bc8202-get_attribute"
  },
  "response": {
    "head": {
      "vars": [
        "attribute"
      ]
    },
    "results": {
      "bindings": [
        {
          "attribute": {
            "type": "uri",
            "value": "https://linked.data.gov.au/def/nrm/85a53519-b7d6-517f-8353-d83da5a3baec"
          }
        }
      ]
    }
  }
}