{
  "url": "https://core.vocabs.paratoo.tern.org.au/api/lut-veg-growth-forms",
  "method": "get",
  "params": {},
  "body": {},
  "headers": {},
  "response": {
    "data": [
      {
        "id": 1,
        "attributes": {
          "symbol": "V",
          "label": "Sedge",
          "description": "Herbaceous, usually perennial erect plant generally with a tufted habit and of the families Cyperaceae (true sedges) or Restionaceae (node sedges).",
          "uri": "https://linked.data.gov.au/def/nrm/a7b8b3c8-a329-5a62-8741-e1d6efe9528b",
          "createdAt": "2024-10-29T03:53:57.568Z",
          "updatedAt": "2024-12-02T06:34:43.856Z"
        }
      },
      {
        "id": 2,
        "attributes": {
          "symbol": "X",
          "label": "Grass-tree",
          "description": "Australian grass trees. Members of the Xanthorrhoeaceae family.",
          "uri": "https://linked.data.gov.au/def/nrm/1be47880-4ee6-5df9-8eda-551c58078771",
          "createdAt": "2024-10-29T03:53:57.583Z",
          "updatedAt": "2024-12-02T06:34:43.889Z"
        }
      },
      {
        "id": 3,
        "attributes": {
          "symbol": "Z",
          "label": "Heath shrub",
          "description": "Shrub usually less than 2 m, with sclerophyllous leaves having high fibre:protein ratios and with an area of nanophyll or smaller (less than 225 mm2). Often a member of one the following families: Ericaceae, Myrtaceae, Fabaceae and Proteaceae. Commonly occur on nutrient-poor substrates.",
          "uri": "https://linked.data.gov.au/def/nrm/2f9fed56-ebfe-5ca3-b520-f0666413c367",
          "createdAt": "2024-10-29T03:53:57.595Z",
          "updatedAt": "2024-12-02T06:34:43.922Z"
        }
      },
      {
        "id": 4,
        "attributes": {
          "symbol": "Q",
          "label": "Aquatic",
          "description": "Plant growing in an inland waterway or wetland with the majority of its biomass under water for most of the year. Fresh, saline or brackish water.",
          "uri": "https://linked.data.gov.au/def/nrm/b5ee3b40-0c5d-5b73-8550-e7e46dc74bee",
          "createdAt": "2024-10-29T03:53:57.617Z",
          "updatedAt": "2024-12-02T06:34:43.958Z"
        }
      },
      {
        "id": 5,
        "attributes": {
          "symbol": "T",
          "label": "Tree",
          "description": "Woody plants, more than 2 m tall with a single stem or branches well above the base.",
          "uri": "https://linked.data.gov.au/def/nrm/9b841f72-4903-5d65-818f-d386a6eca15f",
          "createdAt": "2024-10-29T03:53:57.633Z",
          "updatedAt": "2024-12-02T06:34:43.989Z"
        }
      },
      {
        "id": 6,
        "attributes": {
          "symbol": "D",
          "label": "Tree-fern",
          "description": "Characterised by large and usually branched leaves (fronds), arborescent and terrestrial; spores in sporangia on the leaves.",
          "uri": "https://linked.data.gov.au/def/nrm/2b964103-c6d7-56c1-8906-6f7b586cf352",
          "createdAt": "2024-10-29T03:53:57.646Z",
          "updatedAt": "2024-12-02T06:34:44.020Z"
        }
      },
      {
        "id": 7,
        "attributes": {
          "symbol": "A",
          "label": "Cycad",
          "description": "Members of the families Cycadaceae and Zamiaceae.",
          "uri": "https://linked.data.gov.au/def/nrm/02a1b24e-42fb-5c7c-b5a1-0d73d48ed364",
          "createdAt": "2024-10-29T03:53:57.660Z",
          "updatedAt": "2024-12-02T06:34:44.058Z"
        }
      },
      {
        "id": 8,
        "attributes": {
          "symbol": "O",
          "label": "Lower plant",
          "description": "Algae, fungus.",
          "uri": "",
          "createdAt": "2024-10-29T03:53:57.673Z",
          "updatedAt": "2024-12-02T06:34:44.085Z"
        }
      },
      {
        "id": 9,
        "attributes": {
          "symbol": "F",
          "label": "Forb",
          "description": "Herbaceous or slightly woody, annual or sometimes perennial plant (usually a dicotyledon).",
          "uri": "https://linked.data.gov.au/def/nrm/3d134553-3ac4-5634-9711-8a52204b038e",
          "createdAt": "2024-10-29T03:53:57.686Z",
          "updatedAt": "2024-12-02T06:34:44.123Z"
        }
      },
      {
        "id": 10,
        "attributes": {
          "symbol": "R",
          "label": "Rush",
          "description": "Herbaceous, usually perennial erect monocot that is neither a grass nor a sedge. For the purposes of NVIS, rushes include the monocotyledon families Juncaceae, Typhaceae, Liliaceae, Iridaceae, Xyridaceae and the genus Lomandra (i.e. \"graminoid\" or grass-like genera).",
          "uri": "https://linked.data.gov.au/def/nrm/ebca532a-2d76-5622-8078-5751be80b7e6",
          "createdAt": "2024-10-29T03:53:57.700Z",
          "updatedAt": "2024-12-02T06:34:44.159Z"
        }
      },
      {
        "id": 11,
        "attributes": {
          "symbol": "B",
          "label": "Bryophyte",
          "description": "Mosses and Liverworts. Mosses are small plants usually with a slender leaf-bearing stem with no true vascular tissue. Liverworts are often moss-like in appearance or consisting of a flat, ribbon-like green thallus.",
          "uri": "https://linked.data.gov.au/def/nrm/bb8edf40-de5b-5088-aa42-3a006a91ef7f",
          "createdAt": "2024-10-29T03:53:57.718Z",
          "updatedAt": "2024-12-02T06:34:44.194Z"
        }
      },
      {
        "id": 12,
        "attributes": {
          "symbol": "C",
          "label": "Chenopod shrub",
          "description": "Single or multi-stemmed, semi-succulent shrub of the family Chenopodiaceae exhibiting drought and salt tolerance.",
          "uri": "https://linked.data.gov.au/def/nrm/18a999a5-938c-5a4c-88f2-de7fd1f56bcc",
          "createdAt": "2024-10-29T03:53:57.731Z",
          "updatedAt": "2024-12-02T06:34:44.234Z"
        }
      },
      {
        "id": 13,
        "attributes": {
          "symbol": "K",
          "label": "Epiphyte",
          "description": "Epiphytes, mistletoes and parasites. Plant with roots attached to the aerial portions of other plants. Can often be another growth form, such as fern or forb.",
          "uri": "https://linked.data.gov.au/def/nrm/33261434-d5b6-560b-b036-866660c8bcbd",
          "createdAt": "2024-10-29T03:53:57.743Z",
          "updatedAt": "2024-12-02T06:34:44.264Z"
        }
      },
      {
        "id": 14,
        "attributes": {
          "symbol": "E",
          "label": "Fern",
          "description": "Ferns and fern allies, except tree-fern, above. Characterised by large and usually branched leaves (fronds), herbaceous and terrestrial to aquatic; spores in sporangia on the leaves.",
          "uri": "https://linked.data.gov.au/def/nrm/860d33aa-2b8b-51c4-aa39-641ef684a4c7",
          "createdAt": "2024-10-29T03:53:57.761Z",
          "updatedAt": "2024-12-02T06:34:44.294Z"
        }
      },
      {
        "id": 15,
        "attributes": {
          "symbol": "H",
          "label": "Hummock grass",
          "description": "Coarse xeromorphic grass with a mound-like form often dead in the middle; genus is Triodia.",
          "uri": "https://linked.data.gov.au/def/nrm/549135a7-1d2d-5201-ab60-1b0d8be3c816",
          "createdAt": "2024-10-29T03:53:57.775Z",
          "updatedAt": "2024-12-02T06:34:44.331Z"
        }
      },
      {
        "id": 16,
        "attributes": {
          "symbol": "S",
          "label": "Shrub",
          "description": "Woody plants multi-stemmed at the base (or within 200 mm from ground level) or if single stemmed, less than 2 m.",
          "uri": "https://linked.data.gov.au/def/nrm/5712f289-b19b-5e09-9ebb-37d697a95185",
          "createdAt": "2024-10-29T03:53:57.787Z",
          "updatedAt": "2024-12-02T06:34:44.364Z"
        }
      },
      {
        "id": 17,
        "attributes": {
          "symbol": "Y",
          "label": "Mallee shrub",
          "description": "Commonly less than 8 m tall, usually with five or more trunks, of which at least three of the largest do not exceed 100 mm diameter at breast height (1.3 m).",
          "uri": "https://linked.data.gov.au/def/nrm/de758c7e-e109-5c65-83a9-d27eaed1ab94",
          "createdAt": "2024-10-29T03:53:57.801Z",
          "updatedAt": "2024-12-02T06:34:44.392Z"
        }
      },
      {
        "id": 18,
        "attributes": {
          "symbol": "M",
          "label": "Tree Mallee",
          "description": "Woody perennial plant usually of the genus Eucalyptus. Multi-stemmed with fewer than five trunks of which at least three exceed 100 mm diameter at breast height (1.3 m). Usually 8 m or more.",
          "uri": "https://linked.data.gov.au/def/nrm/66aa8058-5e60-5025-a84e-de1234f23d8b",
          "createdAt": "2024-10-29T03:53:57.819Z",
          "updatedAt": "2024-12-02T06:34:44.432Z"
        }
      },
      {
        "id": 19,
        "attributes": {
          "symbol": "G",
          "label": "Tussock grass",
          "description": "Grass forming discrete but open tussocks usually with distinct individual shoots, or if not, then forming a hummock. These are the common agricultural grasses.",
          "uri": "https://linked.data.gov.au/def/nrm/e1eb0092-da6c-57b6-adde-707ed97fb30c",
          "createdAt": "2024-10-29T03:53:57.836Z",
          "updatedAt": "2024-12-02T06:34:44.469Z"
        }
      },
      {
        "id": 20,
        "attributes": {
          "symbol": "L",
          "label": "Vine",
          "description": "Climbing, twining, winding or sprawling plants usually with a woody stem.",
          "uri": "https://linked.data.gov.au/def/nrm/97b443f0-335e-5974-856f-6067e1bfab7d",
          "createdAt": "2024-10-29T03:53:57.849Z",
          "updatedAt": "2024-12-02T06:34:44.499Z"
        }
      },
      {
        "id": 21,
        "attributes": {
          "symbol": "W",
          "label": "Other grass",
          "description": "Member of the family Poaceae, but having neither a distinctive tussock nor hummock appearance. Examples include stoloniferous species such as Cynodon dactylon.",
          "uri": "",
          "createdAt": "2024-10-29T03:53:57.862Z",
          "updatedAt": "2024-12-02T06:34:44.533Z"
        }
      },
      {
        "id": 22,
        "attributes": {
          "symbol": "UK",
          "label": "Unknown",
          "description": "Unknown/unable to be determined.",
          "uri": "https://linked.data.gov.au/def/nrm/f6b0f6d8-16d8-5dd7-b1b7-66b0c020b96f",
          "createdAt": "2024-10-29T03:53:57.878Z",
          "updatedAt": "2024-12-02T06:34:44.564Z"
        }
      },
      {
        "id": 23,
        "attributes": {
          "symbol": "U",
          "label": "Samphire shrub",
          "description": "Genera (of Tribe Salicornioideae, viz.: Halosarcia, Pachycornia, Sarcocornia, Sclerostegia, Tecticornia and Tegicornia) with articulate branches, fleshy stems and reduced flowers within the Chenopodiaceae family, succulent chenopods (Wilson 1980). Also the genus Suaeda.",
          "uri": "https://linked.data.gov.au/def/nrm/0042bfe6-1df3-5456-8ab4-45b6028980d3",
          "createdAt": "2024-10-29T03:53:57.891Z",
          "updatedAt": "2024-12-02T06:34:44.595Z"
        }
      },
      {
        "id": 24,
        "attributes": {
          "symbol": "N",
          "label": "Lichen",
          "description": "Composite plant consisting of a fungus living symbiotically with algae; without true roots, stems or leaves.",
          "uri": "https://linked.data.gov.au/def/nrm/4e5e46b9-d5da-5975-9bba-d6eacad12875",
          "createdAt": "2024-10-29T03:53:57.910Z",
          "updatedAt": "2024-12-02T06:34:44.631Z"
        }
      },
      {
        "id": 25,
        "attributes": {
          "symbol": "P",
          "label": "Palm",
          "description": "Palms and other arborescent monocotyledons. Members of the Arecaceae family or the genus Pandanus (often multi-stemmed).",
          "uri": "https://linked.data.gov.au/def/nrm/a35e09f9-051c-527b-b99c-a2fa4df9bd01",
          "createdAt": "2024-10-29T03:53:57.930Z",
          "updatedAt": "2024-12-02T06:34:44.663Z"
        }
      },
      {
        "id": 26,
        "attributes": {
          "symbol": "J",
          "label": "Seagrass",
          "description": "Flowering angiosperms forming sparse to dense mats of material at the subtidal and down to 30 m below MSL. Occasionally exposed..",
          "uri": "https://linked.data.gov.au/def/nrm/581291c8-5ff5-54b8-829c-93804f4b3691",
          "createdAt": "2024-10-29T03:53:57.945Z",
          "updatedAt": "2024-12-02T06:34:44.696Z"
        }
      }
    ],
    "meta": {
      "pagination": {
        "page": 1,
        "pageSize": 1000,
        "pageCount": 1,
        "total": 26
      }
    }
  }
}