{
  "url": "https://graphdb.tern.org.au/repositories/dawe_vocabs_core?query=%0ASELECT+%3Ftitle+%3Fvalue%0A%0A++++++++++++%7B+%0A%0A++++++++++++%3Chttps%3A%2F%2Flinked.data.gov.au%2Fdef%2Fnrm%2Fca245b0d-b3e2-4dbc-8a72-d8cd1868a1ce%3E+%3Ftitle+%3Fvalue%0A%0A++++++++++++%7D",
  "method": "post",
  "params": {
    "query": "\nSELECT ?title ?value\n\n            { \n\n            <https://linked.data.gov.au/def/nrm/ca245b0d-b3e2-4dbc-8a72-d8cd1868a1ce> ?title ?value\n\n            }"
  },
  "body": {},
  "headers": {
    "content-type": "application/x-www-form-urlencoded",
    "accept": "application/sparql-results+json",
    "store-key": "https://linked.data.gov.au/def/nrm/ca245b0d-b3e2-4dbc-8a72-d8cd1868a1ce-sparql_query"
  },
  "response": {
    "head": {
      "vars": [
        "title",
        "value"
      ]
    },
    "results": {
      "bindings": [
        {
          "title": {
            "type": "uri",
            "value": "http://www.w3.org/1999/02/22-rdf-syntax-ns#type"
          },
          "value": {
            "type": "uri",
            "value": "http://www.w3.org/2004/02/skos/core#Concept"
          }
        },
        {
          "title": {
            "type": "uri",
            "value": "http://www.w3.org/2000/01/rdf-schema#isDefinedBy"
          },
          "value": {
            "type": "uri",
            "value": "https://linked.data.gov.au/def/nrm"
          }
        },
        {
          "title": {
            "type": "uri",
            "value": "http://www.w3.org/2004/02/skos/core#definition"
          },
          "value": {
            "type": "literal",
            "value": "Indicates whether the count/number of individuals sampled from a species population is an extact match or an estimate."
          }
        },
        {
          "title": {
            "type": "uri",
            "value": "http://www.w3.org/2004/02/skos/core#prefLabel"
          },
          "value": {
            "type": "literal",
            "value": "count - exact or estimate"
          }
        },
        {
          "title": {
            "type": "uri",
            "value": "http://www.w3.org/2004/02/skos/core#altLabel"
          },
          "value": {
            "type": "literal",
            "value": "exact or estimate"
          }
        },
        {
          "title": {
            "type": "uri",
            "value": "http://www.w3.org/2004/02/skos/core#altLabel"
          },
          "value": {
            "type": "literal",
            "value": "number - exact or estimate"
          }
        },
        {
          "title": {
            "type": "uri",
            "value": "http://purl.org/dc/terms/source"
          },
          "value": {
            "type": "literal",
            "value": "Bignall J, Laws M, McCallum K, Cox B, O’Neill S, Potter T, Morgan R, Sparrow B. Opportune Module. In ‘Ecological Field Monitoring Protocols Manual using the Ecological Monitoring System Australia’. (Eds S O’Neill, K Irvine, A Tokmakoff, B Sparrow). TERN, Adelaide."
          }
        },
        {
          "title": {
            "type": "uri",
            "value": "https://w3id.org/tern/ontologies/tern/hasCategoricalCollection"
          },
          "value": {
            "type": "uri",
            "value": "https://linked.data.gov.au/def/nrm/12750b20-0e91-4878-9029-b4d9d7788429"
          }
        },
        {
          "title": {
            "type": "uri",
            "value": "https://w3id.org/tern/ontologies/tern/valueType"
          },
          "value": {
            "type": "uri",
            "value": "https://w3id.org/tern/ontologies/tern/IRI"
          }
        },
        {
          "title": {
            "type": "uri",
            "value": "https://schema.org/url"
          },
          "value": {
            "datatype": "http://www.w3.org/2001/XMLSchema#anyURI",
            "type": "literal",
            "value": "https://github.com/ternaustralia/dawe-rlp-vocabs/tree/main/vocab_files/attribute_concepts/count-exact-or-estimate.ttl"
          }
        },
        {
          "title": {
            "type": "uri",
            "value": "https://w3id.org/tern/ontologies/tern/isMemberOf"
          },
          "value": {
            "type": "uri",
            "value": "https://linked.data.gov.au/def/nrm/ccc2c832-9942-4dd4-816e-d44775836021"
          }
        },
        {
          "title": {
            "type": "uri",
            "value": "https://w3id.org/tern/ontologies/tern/isMemberOf"
          },
          "value": {
            "type": "uri",
            "value": "https://linked.data.gov.au/def/nrm/36bc359e-5748-4f53-b6a1-548663155357"
          }
        },
        {
          "title": {
            "type": "uri",
            "value": "https://w3id.org/tern/ontologies/tern/isMemberOf"
          },
          "value": {
            "type": "uri",
            "value": "https://linked.data.gov.au/def/nrm/9d643bf1-67b0-4f7d-9e74-c2dba44678dd"
          }
        }
      ]
    }
  }
}