{
  "url": "https://core.vocabs.paratoo.tern.org.au/api/lut-veg-growth-stages",
  "method": "get",
  "params": {},
  "body": {},
  "headers": {},
  "response": {
    "data": [
      {
        "id": 1,
        "attributes": {
          "symbol": "ER",
          "label": "Early Regeneration",
          "description": "",
          "uri": "",
          "createdAt": "2024-10-29T03:53:57.979Z",
          "updatedAt": "2024-12-02T06:34:44.742Z"
        }
      },
      {
        "id": 2,
        "attributes": {
          "symbol": "AR",
          "label": "Advanced Regeneration",
          "description": "",
          "uri": "",
          "createdAt": "2024-10-29T03:53:57.991Z",
          "updatedAt": "2024-12-02T06:34:44.769Z"
        }
      },
      {
        "id": 3,
        "attributes": {
          "symbol": "UA",
          "label": "Uneven Age",
          "description": "",
          "uri": "",
          "createdAt": "2024-10-29T03:53:58.007Z",
          "updatedAt": "2024-12-02T06:34:44.805Z"
        }
      },
      {
        "id": 4,
        "attributes": {
          "symbol": "MP",
          "label": "Mature Phase",
          "description": "",
          "uri": "",
          "createdAt": "2024-10-29T03:53:58.021Z",
          "updatedAt": "2024-12-02T06:34:44.834Z"
        }
      },
      {
        "id": 5,
        "attributes": {
          "symbol": "SP",
          "label": "Senescent Phase",
          "description": "",
          "uri": "",
          "createdAt": "2024-10-29T03:53:58.038Z",
          "updatedAt": "2024-12-02T06:34:44.867Z"
        }
      }
    ],
    "meta": {
      "pagination": {
        "page": 1,
        "pageSize": 1000,
        "pageCount": 1,
        "total": 5
      }
    }
  }
}