{
  "url": "https://core.vocabs.paratoo.tern.org.au/api/lut-opportune-voucher-type-tier-1s",
  "method": "get",
  "params": {},
  "body": {},
  "headers": {},
  "response": {
    "data": [
      {
        "id": 1,
        "attributes": {
          "symbol": "AT",
          "label": "Animal tissue",
          "description": "",
          "uri": "",
          "createdAt": "2024-10-29T03:53:37.192Z",
          "updatedAt": "2024-12-02T06:33:56.752Z"
        }
      },
      {
        "id": 2,
        "attributes": {
          "symbol": "Blood",
          "label": "Blood",
          "description": "",
          "uri": "https://linked.data.gov.au/def/nrm/9430fb9f-e9e0-5c2b-950c-e525fedb6908",
          "createdAt": "2024-10-29T03:53:37.210Z",
          "updatedAt": "2024-12-02T06:33:56.782Z"
        }
      },
      {
        "id": 3,
        "attributes": {
          "symbol": "Carcass",
          "label": "Carcass",
          "description": "",
          "uri": "",
          "createdAt": "2024-10-29T03:53:37.224Z",
          "updatedAt": "2024-12-02T06:33:56.816Z"
        }
      },
      {
        "id": 4,
        "attributes": {
          "symbol": "Plant",
          "label": "Plant",
          "description": "",
          "uri": "",
          "createdAt": "2024-10-29T03:53:37.238Z",
          "updatedAt": "2024-12-02T06:33:56.849Z"
        }
      },
      {
        "id": 5,
        "attributes": {
          "symbol": "PT",
          "label": "Plant tissue",
          "description": "",
          "uri": "",
          "createdAt": "2024-10-29T03:53:37.251Z",
          "updatedAt": "2024-12-02T06:33:56.884Z"
        }
      },
      {
        "id": 6,
        "attributes": {
          "symbol": "Regurgitant",
          "label": "Regurgitant",
          "description": "",
          "uri": "",
          "createdAt": "2024-10-29T03:53:37.265Z",
          "updatedAt": "2024-12-02T06:33:56.919Z"
        }
      },
      {
        "id": 7,
        "attributes": {
          "symbol": "Scat",
          "label": "Scat",
          "description": "",
          "uri": "",
          "createdAt": "2024-10-29T03:53:37.282Z",
          "updatedAt": "2024-12-02T06:33:56.948Z"
        }
      },
      {
        "id": 8,
        "attributes": {
          "symbol": "Other",
          "label": "Other (specify)",
          "description": "",
          "uri": "",
          "createdAt": "2024-10-29T03:53:37.296Z",
          "updatedAt": "2024-12-02T06:33:56.976Z"
        }
      }
    ],
    "meta": {
      "pagination": {
        "page": 1,
        "pageSize": 1000,
        "pageCount": 1,
        "total": 8
      }
    }
  }
}