{
  "url": "https://graphdb.tern.org.au/repositories/dawe_vocabs_core?query=%0A++PREFIX+skos%3A+%3Chttp%3A%2F%2Fwww.w3.org%2F2004%2F02%2Fskos%2Fcore%23%3E%0A++PREFIX+rdfs%3A+%3Chttp%3A%2F%2Fwww.w3.org%2F2000%2F01%2Frdf-schema%23%3E%0A++PREFIX+tern%3A+%3Chttps%3A%2F%2Fw3id.org%2Ftern%2Fontologies%2Ftern%2F%3E%0A++select+%3Fconcept+%3FfeatureType+%28sample%28%3F__label%29+as+%3Flabel%29+%28sample%28%3F_featureTypeLabel%29+as+%3FfeatureTypeLabel%29+%3FvalueType+%28sample%28%3F_valueTypeLabel%29+as+%3FvalueTypeLabel%29+%3FcategoricalCollection+%28sample%28%3F_categoricalCollectionLabel%29+as+%3FcategoricalCollectionLabel%29%0A++from+%3Chttp%3A%2F%2Fwww.ontotext.com%2Fexplicit%3E%0A++from+%3Chttps%3A%2F%2Flinked.data.gov.au%2Fdef%2Fnrm%3E%0A++where+%7B+%0A++++++%23+Collection+of+observable+properties.%0A++++++%3Chttps%3A%2F%2Flinked.data.gov.au%2Fdef%2Fnrm%2Fc1a58967-cb12-4c2c-a7ca-9cee2589919c%3E+skos%3Amember+%3Fconcept+.%0A++++++%0A++++++%3Fconcept+skos%3AprefLabel+%3F_label+.%0A++++++bind%28str%28%3F_label%29+as+%3F__label%29%0A++%0A++++++optional+%7B+%0A++++++++++%3Fconcept+tern%3AhasFeatureType+%3FfeatureType+.%0A++++++++++service+%3Crepository%3Atern_vocabs_core%3E+%7B%0A++++++++++++++%3FfeatureType+skos%3AprefLabel+%3F_featureTypeLabel+.%0A++++++++++%7D%0A++++++%7D%0A++%0A++++++optional+%7B%0A++++++++%3Fconcept+tern%3AvalueType+%3FvalueType+.%0A++++++++service+%3Crepository%3Aknowledge_graph_core%3E+%7B%0A++++++++++%3FvalueType+skos%3AprefLabel+%3F_valueTypeLabel+.%0A++++++++%7D%0A++++++%7D%0A++%0A++++++optional+%7B%0A++++++++%3Fconcept+tern%3AhasCategoricalCollection+%3FcategoricalCollection+.%0A++++++++optional+%7B%0A++++++++++++%7B%0A++++++++++++++++service+%3Crepository%3Atern_vocabs_core%3E+%7B%0A++++++++++++++++++++%3FcategoricalCollection+skos%3AprefLabel+%3F_categoricalCollectionLabel+.%0A++++++++++++++++%7D%0A++++++++++++%7D%0A++++++++++++union+%7B%0A++++++++++++++++service+%3Crepository%3Aausplots_vocabs_core%3E+%7B%0A++++++++++++++++++++%3FcategoricalCollection+skos%3AprefLabel+%3F_categoricalCollectionLabel+.%0A++++++++++++++++%7D%0A++++++++++++%7D%0A++++++++++++union+%7B%0A++++++++++++++++%3FcategoricalCollection+skos%3AprefLabel+%3F_categoricalCollectionLabel+.%0A++++++++++++%7D%0A++++++++%7D%0A++++%7D%0A++%7D+%0A++group+by+%3Fconcept+%3FfeatureType+%3FvalueType+%3FcategoricalCollection%0A++order+by+lcase%28%3Flabel%29%0A++%0A++++++++",
  "method": "post",
  "params": {
    "query": "\n  PREFIX skos: <http://www.w3.org/2004/02/skos/core#>\n  PREFIX rdfs: <http://www.w3.org/2000/01/rdf-schema#>\n  PREFIX tern: <https://w3id.org/tern/ontologies/tern/>\n  select ?concept ?featureType (sample(?__label) as ?label) (sample(?_featureTypeLabel) as ?featureTypeLabel) ?valueType (sample(?_valueTypeLabel) as ?valueTypeLabel) ?categoricalCollection (sample(?_categoricalCollectionLabel) as ?categoricalCollectionLabel)\n  from <http://www.ontotext.com/explicit>\n  from <https://linked.data.gov.au/def/nrm>\n  where { \n      # Collection of observable properties.\n      <https://linked.data.gov.au/def/nrm/c1a58967-cb12-4c2c-a7ca-9cee2589919c> skos:member ?concept .\n      \n      ?concept skos:prefLabel ?_label .\n      bind(str(?_label) as ?__label)\n  \n      optional { \n          ?concept tern:hasFeatureType ?featureType .\n          service <repository:tern_vocabs_core> {\n              ?featureType skos:prefLabel ?_featureTypeLabel .\n          }\n      }\n  \n      optional {\n        ?concept tern:valueType ?valueType .\n        service <repository:knowledge_graph_core> {\n          ?valueType skos:prefLabel ?_valueTypeLabel .\n        }\n      }\n  \n      optional {\n        ?concept tern:hasCategoricalCollection ?categoricalCollection .\n        optional {\n            {\n                service <repository:tern_vocabs_core> {\n                    ?categoricalCollection skos:prefLabel ?_categoricalCollectionLabel .\n                }\n            }\n            union {\n                service <repository:ausplots_vocabs_core> {\n                    ?categoricalCollection skos:prefLabel ?_categoricalCollectionLabel .\n                }\n            }\n            union {\n                ?categoricalCollection skos:prefLabel ?_categoricalCollectionLabel .\n            }\n        }\n    }\n  } \n  group by ?concept ?featureType ?valueType ?categoricalCollection\n  order by lcase(?label)\n  \n        "
  },
  "body": {},
  "headers": {
    "content-type": "application/x-www-form-urlencoded",
    "accept": "application/sparql-results+json",
    "store-key": "https://linked.data.gov.au/def/nrm/c1a58967-cb12-4c2c-a7ca-9cee2589919c-graph_db_observable_properties"
  },
  "response": {
    "head": {
      "vars": [
        "concept",
        "featureType",
        "label",
        "featureTypeLabel",
        "valueType",
        "valueTypeLabel",
        "categoricalCollection",
        "categoricalCollectionLabel"
      ]
    },
    "results": {
      "bindings": [
        {
          "concept": {
            "type": "uri",
            "value": "https://linked.data.gov.au/def/nrm/e2ca4495-5e11-5f98-9bf1-14ff4bb4bbd5"
          },
          "label": {
            "type": "literal",
            "value": "Alcove"
          }
        },
        {
          "concept": {
            "type": "uri",
            "value": "https://linked.data.gov.au/def/nrm/95d1041f-0a82-50d5-9702-f58a95029f95"
          },
          "label": {
            "type": "literal",
            "value": "Backplain"
          }
        },
        {
          "concept": {
            "type": "uri",
            "value": "https://linked.data.gov.au/def/nrm/d110a3b2-a34f-5d94-828d-e539c22ae2b5"
          },
          "label": {
            "type": "literal",
            "value": "Bank (stream bank)"
          }
        },
        {
          "concept": {
            "type": "uri",
            "value": "https://linked.data.gov.au/def/nrm/f38db675-d185-5bc3-ba02-3c30394b38dc"
          },
          "label": {
            "type": "literal",
            "value": "Bar (stream bar)"
          }
        },
        {
          "concept": {
            "type": "uri",
            "value": "https://linked.data.gov.au/def/nrm/287d64df-98f4-58c3-950e-2356a15687fd"
          },
          "label": {
            "type": "literal",
            "value": "Barchan dune"
          }
        },
        {
          "concept": {
            "type": "uri",
            "value": "https://linked.data.gov.au/def/nrm/63960cfe-9e04-52b7-8940-4d6c2ebe0a02"
          },
          "label": {
            "type": "literal",
            "value": "Beach"
          }
        },
        {
          "concept": {
            "type": "uri",
            "value": "https://linked.data.gov.au/def/nrm/1470deb8-2762-5fd9-8c53-fc6cf2f18a4e"
          },
          "label": {
            "type": "literal",
            "value": "Beach ridge"
          }
        },
        {
          "concept": {
            "type": "uri",
            "value": "https://linked.data.gov.au/def/nrm/9da5cf89-4487-5f93-b351-0782a42ae362"
          },
          "label": {
            "type": "literal",
            "value": "Bench"
          }
        },
        {
          "concept": {
            "type": "uri",
            "value": "https://linked.data.gov.au/def/nrm/283386fa-c297-5d2a-b453-fca857ddf51d"
          },
          "label": {
            "type": "literal",
            "value": "Berm"
          }
        },
        {
          "concept": {
            "type": "uri",
            "value": "https://linked.data.gov.au/def/nrm/e13edfb1-b27f-5f73-ac06-bb40b2520684"
          },
          "label": {
            "type": "literal",
            "value": "Blow-out"
          }
        },
        {
          "concept": {
            "type": "uri",
            "value": "https://linked.data.gov.au/def/nrm/37480929-9e0f-5ad7-8df9-914920540692"
          },
          "label": {
            "type": "literal",
            "value": "Breakaway"
          }
        },
        {
          "concept": {
            "type": "uri",
            "value": "https://linked.data.gov.au/def/nrm/c68c6fca-6465-5607-a2eb-32634881cddf"
          },
          "label": {
            "type": "literal",
            "value": "Channel bench"
          }
        },
        {
          "concept": {
            "type": "uri",
            "value": "https://linked.data.gov.au/def/nrm/c5274b62-aa6d-5168-a941-37842c6d4791"
          },
          "label": {
            "type": "literal",
            "value": "Cirque"
          }
        },
        {
          "concept": {
            "type": "uri",
            "value": "https://linked.data.gov.au/def/nrm/41df86fc-66ec-5ef5-a605-edbe1b3c5edc"
          },
          "label": {
            "type": "literal",
            "value": "Cliff"
          }
        },
        {
          "concept": {
            "type": "uri",
            "value": "https://linked.data.gov.au/def/nrm/141a8baa-89e0-5a55-b9fd-05a3c0b8c79c"
          },
          "label": {
            "type": "literal",
            "value": "Cliff-footslope"
          }
        },
        {
          "concept": {
            "type": "uri",
            "value": "https://linked.data.gov.au/def/nrm/b4c53a4f-3e36-507e-8f29-6468c146cd3c"
          },
          "label": {
            "type": "literal",
            "value": "Collapse doline"
          }
        },
        {
          "concept": {
            "type": "uri",
            "value": "https://linked.data.gov.au/def/nrm/85b66cd6-ced2-5176-8338-6cf889145d08"
          },
          "label": {
            "type": "literal",
            "value": "Cone (volcanic)"
          }
        },
        {
          "concept": {
            "type": "uri",
            "value": "https://linked.data.gov.au/def/nrm/1431e5bb-f41a-56cc-b685-9aeed406fe63"
          },
          "label": {
            "type": "literal",
            "value": "Crater"
          }
        },
        {
          "concept": {
            "type": "uri",
            "value": "https://linked.data.gov.au/def/nrm/a75e7c17-b8c5-50b2-a0ca-74cfc6a65229"
          },
          "label": {
            "type": "literal",
            "value": "Cut face"
          }
        },
        {
          "concept": {
            "type": "uri",
            "value": "https://linked.data.gov.au/def/nrm/47eeb3d4-8cd0-50b5-b837-4a54a22e3f31"
          },
          "label": {
            "type": "literal",
            "value": "Cut-over surface"
          }
        },
        {
          "concept": {
            "type": "uri",
            "value": "https://linked.data.gov.au/def/nrm/2ac8be18-9aae-56e3-aa07-65929e667648"
          },
          "label": {
            "type": "literal",
            "value": "Dam"
          }
        },
        {
          "concept": {
            "type": "uri",
            "value": "https://linked.data.gov.au/def/nrm/8e448737-8d60-56a6-94df-9399d5b9e174"
          },
          "label": {
            "type": "literal",
            "value": "Deflation basin"
          }
        },
        {
          "concept": {
            "type": "uri",
            "value": "https://linked.data.gov.au/def/nrm/5de0ce45-d559-57b0-8328-83e133672104"
          },
          "label": {
            "type": "literal",
            "value": "Drainage depression"
          }
        },
        {
          "concept": {
            "type": "uri",
            "value": "https://linked.data.gov.au/def/nrm/e874a1f0-e788-5a8c-9331-4b8329222759"
          },
          "label": {
            "type": "literal",
            "value": "Dune"
          }
        },
        {
          "concept": {
            "type": "uri",
            "value": "https://linked.data.gov.au/def/nrm/5c7e64fc-188c-5d94-b727-c88458bc7f95"
          },
          "label": {
            "type": "literal",
            "value": "Dune crest"
          }
        },
        {
          "concept": {
            "type": "uri",
            "value": "https://linked.data.gov.au/def/nrm/032a1c8b-1048-5c81-bd06-8afce5c12451"
          },
          "label": {
            "type": "literal",
            "value": "Dune slope"
          }
        },
        {
          "concept": {
            "type": "uri",
            "value": "https://linked.data.gov.au/def/nrm/045be349-f9ed-52d6-89ca-68c7ade53e41"
          },
          "label": {
            "type": "literal",
            "value": "Embankment"
          }
        },
        {
          "concept": {
            "type": "uri",
            "value": "https://linked.data.gov.au/def/nrm/7cb2f197-c3e8-5491-b0db-78b839405fd7"
          },
          "label": {
            "type": "literal",
            "value": "Estuary"
          }
        },
        {
          "concept": {
            "type": "uri",
            "value": "https://linked.data.gov.au/def/nrm/4524d1f6-1951-502e-b7fe-8439acd3448a"
          },
          "label": {
            "type": "literal",
            "value": "Fan"
          }
        },
        {
          "concept": {
            "type": "uri",
            "value": "https://linked.data.gov.au/def/nrm/1958c732-bbdd-5984-acec-5f56c2b82a06"
          },
          "label": {
            "type": "literal",
            "value": "Fil-top"
          }
        },
        {
          "concept": {
            "type": "uri",
            "value": "https://linked.data.gov.au/def/nrm/6ff1c19e-cd58-5c14-b39d-6c093ba8b994"
          },
          "label": {
            "type": "literal",
            "value": "Floodout"
          }
        },
        {
          "concept": {
            "type": "uri",
            "value": "https://linked.data.gov.au/def/nrm/c87e531a-ced5-579b-9c58-befdf3ee53b6"
          },
          "label": {
            "type": "literal",
            "value": "Footslope"
          }
        },
        {
          "concept": {
            "type": "uri",
            "value": "https://linked.data.gov.au/def/nrm/1ed7b887-8971-5d45-8ada-48e18386de45"
          },
          "label": {
            "type": "literal",
            "value": "Foredune"
          }
        },
        {
          "concept": {
            "type": "uri",
            "value": "https://linked.data.gov.au/def/nrm/37421601-50ec-5371-b697-e9e18a54ba92"
          },
          "label": {
            "type": "literal",
            "value": "Gully"
          }
        },
        {
          "concept": {
            "type": "uri",
            "value": "https://linked.data.gov.au/def/nrm/30bd2063-582d-5156-8ea0-faab8d16b102"
          },
          "label": {
            "type": "literal",
            "value": "Hillcrest"
          }
        },
        {
          "concept": {
            "type": "uri",
            "value": "https://linked.data.gov.au/def/nrm/f1c3145c-ff9d-5303-8281-e2a9866167d7"
          },
          "label": {
            "type": "literal",
            "value": "Hillslope"
          }
        },
        {
          "concept": {
            "type": "uri",
            "value": "https://linked.data.gov.au/def/nrm/a19a72a0-2433-5fd2-8f64-16503637b9ee"
          },
          "label": {
            "type": "literal",
            "value": "Hummocky (weakly oriented dune)"
          }
        },
        {
          "concept": {
            "type": "uri",
            "value": "https://linked.data.gov.au/def/nrm/c21bb284-7262-5dee-bd5b-8ecfe47961a0"
          },
          "label": {
            "type": "literal",
            "value": "Intertidal flat"
          }
        },
        {
          "concept": {
            "type": "uri",
            "value": "https://linked.data.gov.au/def/nrm/5b1e7e84-5a23-5444-91c1-f97a872bc38e"
          },
          "label": {
            "type": "literal",
            "value": "Lagoon"
          }
        },
        {
          "concept": {
            "type": "uri",
            "value": "https://linked.data.gov.au/def/nrm/077edbc4-8980-5e85-a6eb-1f4bd3aa1bbf"
          },
          "label": {
            "type": "literal",
            "value": "Lake"
          }
        },
        {
          "concept": {
            "type": "uri",
            "value": "https://linked.data.gov.au/def/nrm/c94a751a-13d2-5840-b147-928c89ed1d7b"
          },
          "label": {
            "type": "literal",
            "value": "Landform Element- Mound"
          }
        },
        {
          "concept": {
            "type": "uri",
            "value": "https://linked.data.gov.au/def/nrm/c20b62d5-3426-5317-9f27-b894f814cecf"
          },
          "label": {
            "type": "literal",
            "value": "Landform element- Tidal flat"
          }
        },
        {
          "concept": {
            "type": "uri",
            "value": "https://linked.data.gov.au/def/nrm/eecee680-ecd8-5955-8434-dc9e7246f08d"
          },
          "label": {
            "type": "literal",
            "value": "Landslide"
          }
        },
        {
          "concept": {
            "type": "uri",
            "value": "https://linked.data.gov.au/def/nrm/a749658e-2521-5fe0-8aaf-e352c3639fc1"
          },
          "label": {
            "type": "literal",
            "value": "Levee"
          }
        },
        {
          "concept": {
            "type": "uri",
            "value": "https://linked.data.gov.au/def/nrm/1fc7edc1-8d57-568f-9a98-9ab9ddcf2816"
          },
          "label": {
            "type": "literal",
            "value": "Linear or longitudinal (seif) dune"
          }
        },
        {
          "concept": {
            "type": "uri",
            "value": "https://linked.data.gov.au/def/nrm/5cd65691-a295-577c-9f94-cd4756337e3f"
          },
          "label": {
            "type": "literal",
            "value": "Lunette"
          }
        },
        {
          "concept": {
            "type": "uri",
            "value": "https://linked.data.gov.au/def/nrm/b357ae54-1094-5957-bf45-500ceab54a37"
          },
          "label": {
            "type": "literal",
            "value": "Maar"
          }
        },
        {
          "concept": {
            "type": "uri",
            "value": "https://linked.data.gov.au/def/nrm/1248ad7d-fb9c-564f-93c4-0c6bf3fe9088"
          },
          "label": {
            "type": "literal",
            "value": "Ox-bow"
          }
        },
        {
          "concept": {
            "type": "uri",
            "value": "https://linked.data.gov.au/def/nrm/b2025ffe-3999-5c93-a6ef-295bfed37242"
          },
          "label": {
            "type": "literal",
            "value": "Parabolic dune"
          }
        },
        {
          "concept": {
            "type": "uri",
            "value": "https://linked.data.gov.au/def/nrm/392c68e8-e681-556d-a1ae-4a7aecf5144d"
          },
          "label": {
            "type": "literal",
            "value": "Pediment"
          }
        },
        {
          "concept": {
            "type": "uri",
            "value": "https://linked.data.gov.au/def/nrm/0de17230-6ae6-5c2e-ab07-0bbe262a3501"
          },
          "label": {
            "type": "literal",
            "value": "Pit"
          }
        },
        {
          "concept": {
            "type": "uri",
            "value": "https://linked.data.gov.au/def/nrm/d7154911-ea70-5613-9b4d-8fb80b36cda0"
          },
          "label": {
            "type": "literal",
            "value": "Plain"
          }
        },
        {
          "concept": {
            "type": "uri",
            "value": "https://linked.data.gov.au/def/nrm/45db9fbc-4730-51bb-9329-8818736698cc"
          },
          "label": {
            "type": "literal",
            "value": "Playa/pan"
          }
        },
        {
          "concept": {
            "type": "uri",
            "value": "https://linked.data.gov.au/def/nrm/e705f231-3807-5f0b-9afd-59a1c9093a36"
          },
          "label": {
            "type": "literal",
            "value": "Prior stream"
          }
        },
        {
          "concept": {
            "type": "uri",
            "value": "https://linked.data.gov.au/def/nrm/0eec5735-6c35-58bf-9cc7-d129f4c6b8b2"
          },
          "label": {
            "type": "literal",
            "value": "Reef flat"
          }
        },
        {
          "concept": {
            "type": "uri",
            "value": "https://linked.data.gov.au/def/nrm/4ee55457-4922-5d00-b13d-ca381ad44f63"
          },
          "label": {
            "type": "literal",
            "value": "Residual rise"
          }
        },
        {
          "concept": {
            "type": "uri",
            "value": "https://linked.data.gov.au/def/nrm/9969b531-7f6c-54a6-a23c-123c332d3428"
          },
          "label": {
            "type": "literal",
            "value": "Risecrest"
          }
        },
        {
          "concept": {
            "type": "uri",
            "value": "https://linked.data.gov.au/def/nrm/bceaebcb-9ab0-54b0-8ea2-b66c3efe9490"
          },
          "label": {
            "type": "literal",
            "value": "Riseslope"
          }
        },
        {
          "concept": {
            "type": "uri",
            "value": "https://linked.data.gov.au/def/nrm/bc6e0ac3-f1ef-5f6b-bcf9-7e23b620f256"
          },
          "label": {
            "type": "literal",
            "value": "Rock flat"
          }
        },
        {
          "concept": {
            "type": "uri",
            "value": "https://linked.data.gov.au/def/nrm/9fcf1019-135e-5fad-9fab-ea6da190eb05"
          },
          "label": {
            "type": "literal",
            "value": "Rock platform"
          }
        },
        {
          "concept": {
            "type": "uri",
            "value": "https://linked.data.gov.au/def/nrm/54c94292-798f-5a26-8455-d1a302756f4f"
          },
          "label": {
            "type": "literal",
            "value": "Scald"
          }
        },
        {
          "concept": {
            "type": "uri",
            "value": "https://linked.data.gov.au/def/nrm/115cecfd-35f7-51bf-b884-6267b453f50a"
          },
          "label": {
            "type": "literal",
            "value": "Scarp"
          }
        },
        {
          "concept": {
            "type": "uri",
            "value": "https://linked.data.gov.au/def/nrm/d9f167e1-bc10-56b3-8c13-5d6ee1213b10"
          },
          "label": {
            "type": "literal",
            "value": "Scarp-footslope"
          }
        },
        {
          "concept": {
            "type": "uri",
            "value": "https://linked.data.gov.au/def/nrm/d85de894-c9f3-545d-a131-906301d4ff91"
          },
          "label": {
            "type": "literal",
            "value": "Scroll"
          }
        },
        {
          "concept": {
            "type": "uri",
            "value": "https://linked.data.gov.au/def/nrm/69a64f8c-65b5-5185-8e16-39ce4f28a839"
          },
          "label": {
            "type": "literal",
            "value": "Scroll plain"
          }
        },
        {
          "concept": {
            "type": "uri",
            "value": "https://linked.data.gov.au/def/nrm/130cad8e-0a82-515a-ad75-6b84d165db6c"
          },
          "label": {
            "type": "literal",
            "value": "Solution doline"
          }
        },
        {
          "concept": {
            "type": "uri",
            "value": "https://linked.data.gov.au/def/nrm/71bc069c-03d3-53a5-a8d7-ef6a8f039389"
          },
          "label": {
            "type": "literal",
            "value": "Stream bed"
          }
        },
        {
          "concept": {
            "type": "uri",
            "value": "https://linked.data.gov.au/def/nrm/987ae37a-02be-5ef7-a4a6-1b13406fa277"
          },
          "label": {
            "type": "literal",
            "value": "Stream channel"
          }
        },
        {
          "concept": {
            "type": "uri",
            "value": "https://linked.data.gov.au/def/nrm/368641eb-467f-570b-9846-e8ebccb10186"
          },
          "label": {
            "type": "literal",
            "value": "Summit surface"
          }
        },
        {
          "concept": {
            "type": "uri",
            "value": "https://linked.data.gov.au/def/nrm/dd2d43e4-2a30-509f-817a-407b271e8204"
          },
          "label": {
            "type": "literal",
            "value": "Supratidal flat"
          }
        },
        {
          "concept": {
            "type": "uri",
            "value": "https://linked.data.gov.au/def/nrm/d901256e-66ab-5e26-a806-17a6ab335ae7"
          },
          "label": {
            "type": "literal",
            "value": "Swale"
          }
        },
        {
          "concept": {
            "type": "uri",
            "value": "https://linked.data.gov.au/def/nrm/4b14473a-033a-58f1-b02c-16f47da90265"
          },
          "label": {
            "type": "literal",
            "value": "Swamp"
          }
        },
        {
          "concept": {
            "type": "uri",
            "value": "https://linked.data.gov.au/def/nrm/93fed9db-1788-54b3-8731-89430eb8f79a"
          },
          "label": {
            "type": "literal",
            "value": "Talus"
          }
        },
        {
          "concept": {
            "type": "uri",
            "value": "https://linked.data.gov.au/def/nrm/64008844-d6ff-5fa3-9218-48a3d57ada21"
          },
          "label": {
            "type": "literal",
            "value": "Terrace Flat"
          }
        },
        {
          "concept": {
            "type": "uri",
            "value": "https://linked.data.gov.au/def/nrm/496d5410-d95c-5fe0-9b67-f9364550c4e4"
          },
          "label": {
            "type": "literal",
            "value": "Terrace plain"
          }
        },
        {
          "concept": {
            "type": "uri",
            "value": "https://linked.data.gov.au/def/nrm/b82cfeb6-1194-513a-ba81-5010cb9eb38b"
          },
          "label": {
            "type": "literal",
            "value": "Tidal creek"
          }
        },
        {
          "concept": {
            "type": "uri",
            "value": "https://linked.data.gov.au/def/nrm/c1c77cbf-4251-5437-b8c8-c3e44304f023"
          },
          "label": {
            "type": "literal",
            "value": "Tor"
          }
        },
        {
          "concept": {
            "type": "uri",
            "value": "https://linked.data.gov.au/def/nrm/e31ccd59-0ce4-56ad-87a9-4e7a1cda9605"
          },
          "label": {
            "type": "literal",
            "value": "Trench"
          }
        },
        {
          "concept": {
            "type": "uri",
            "value": "https://linked.data.gov.au/def/nrm/548c40d1-6c33-511d-be44-0c9f4f1360da"
          },
          "label": {
            "type": "literal",
            "value": "Tumulus"
          }
        },
        {
          "concept": {
            "type": "uri",
            "value": "https://linked.data.gov.au/def/nrm/f823af68-b200-57b2-9d6e-c1f15f01b4a4"
          },
          "label": {
            "type": "literal",
            "value": "Valley flat"
          }
        }
      ]
    }
  }
}