{
  "url": "https://core.vocabs.paratoo.tern.org.au/api/lut-condition-life-stages",
  "method": "get",
  "params": {},
  "body": {},
  "headers": {},
  "response": {
    "data": [
      {
        "id": 1,
        "attributes": {
          "symbol": "SED",
          "label": "Seedling",
          "description": "A life stage/phenological stage of plants. For Trees: individuals <2 cm DBH; For Shrubs: <5cm height.",
          "uri": "https://linked.data.gov.au/def/nrm/6ab77673-43ec-51ce-ad13-8e5cf772ec8f",
          "createdAt": "2024-10-29T03:53:22.431Z",
          "updatedAt": "2024-12-02T06:33:22.163Z"
        }
      },
      {
        "id": 2,
        "attributes": {
          "symbol": "SAP",
          "label": "Sapling",
          "description": "A life stage of plants. For Trees: individuals <2 m height and ~2-10 cm DBH; For Shrubs: has not reached maximum height, apical dominance.",
          "uri": "https://linked.data.gov.au/def/nrm/f458582f-86fa-53be-b151-c4d7bbee4af2",
          "createdAt": "2024-10-29T03:53:22.452Z",
          "updatedAt": "2024-12-02T06:33:22.198Z"
        }
      },
      {
        "id": 3,
        "attributes": {
          "symbol": "BUD",
          "label": "Buds",
          "description": "Plants have buds formed in varying stages of development for flowering.",
          "uri": "",
          "createdAt": "2024-10-29T03:53:22.466Z",
          "updatedAt": "2024-12-02T06:33:22.229Z"
        }
      },
      {
        "id": 4,
        "attributes": {
          "symbol": "FLO",
          "label": "Flowers",
          "description": "Plants are in flower.",
          "uri": "",
          "createdAt": "2024-10-29T03:53:22.477Z",
          "updatedAt": "2024-12-02T06:33:22.258Z"
        }
      },
      {
        "id": 5,
        "attributes": {
          "symbol": "IMF",
          "label": "Immature Fruit",
          "description": "Life stage of plants with immature fruits, not shedding seed.",
          "uri": "https://linked.data.gov.au/def/nrm/d04f948c-2bd6-5e3d-af55-b35e48dc654e",
          "createdAt": "2024-10-29T03:53:22.490Z",
          "updatedAt": "2024-12-02T06:33:22.292Z"
        }
      },
      {
        "id": 6,
        "attributes": {
          "symbol": "MAF",
          "label": "Mature",
          "description": "Fruits fruits ripe and/or shedding seed.",
          "uri": "",
          "createdAt": "2024-10-29T03:53:22.501Z",
          "updatedAt": "2024-12-02T06:33:22.323Z"
        }
      },
      {
        "id": 7,
        "attributes": {
          "symbol": "RES",
          "label": "Recently Shed",
          "description": "Life stage of plants in a non-reproductive phase which show signs of having shed seed or fruits within the last 12 months.",
          "uri": "https://linked.data.gov.au/def/nrm/033e289d-45d5-5d1f-a48b-ebc2e2260dd0",
          "createdAt": "2024-10-29T03:53:22.513Z",
          "updatedAt": "2024-12-02T06:33:22.352Z"
        }
      },
      {
        "id": 8,
        "attributes": {
          "symbol": "DD",
          "label": "Dead/dormant",
          "description": "Indicates above-ground material only is dead and includes plant species that may still have dormant below-ground organs (eg orchids, lilies etc.)",
          "uri": "",
          "createdAt": "2024-10-29T03:53:22.524Z",
          "updatedAt": "2024-12-02T06:33:22.385Z"
        }
      },
      {
        "id": 9,
        "attributes": {
          "symbol": "RE",
          "label": "Regenerating",
          "description": "Woody perennial which is resprouting after significant loss of foliage.",
          "uri": "",
          "createdAt": "2024-10-29T03:53:22.542Z",
          "updatedAt": "2024-12-02T06:33:22.417Z"
        }
      },
      {
        "id": 10,
        "attributes": {
          "symbol": "VEG",
          "label": "Vegetative",
          "description": "Life stage of plants in a non-reproductive phase (i.e. no flowers, buds or unshed seed), that do not classify as seedlings or saplings.",
          "uri": "https://linked.data.gov.au/def/nrm/a5b9db61-6631-5dbc-b8b0-f116e9ff58e4",
          "createdAt": "2024-10-29T03:53:22.553Z",
          "updatedAt": "2024-12-02T06:33:22.454Z"
        }
      }
    ],
    "meta": {
      "pagination": {
        "page": 1,
        "pageSize": 1000,
        "pageCount": 1,
        "total": 10
      }
    }
  }
}