{
  "url": "https://graphdb.tern.org.au/repositories/dawe_vocabs_core?query=%0A++PREFIX+skos%3A+%3Chttp%3A%2F%2Fwww.w3.org%2F2004%2F02%2Fskos%2Fcore%23%3E%0A++PREFIX+rdfs%3A+%3Chttp%3A%2F%2Fwww.w3.org%2F2000%2F01%2Frdf-schema%23%3E%0A++PREFIX+tern%3A+%3Chttps%3A%2F%2Fw3id.org%2Ftern%2Fontologies%2Ftern%2F%3E%0A++select+%3Fconcept+%3FfeatureType+%28sample%28%3F__label%29+as+%3Flabel%29+%28sample%28%3F_featureTypeLabel%29+as+%3FfeatureTypeLabel%29+%3FvalueType+%28sample%28%3F_valueTypeLabel%29+as+%3FvalueTypeLabel%29+%3FcategoricalCollection+%28sample%28%3F_categoricalCollectionLabel%29+as+%3FcategoricalCollectionLabel%29%0A++from+%3Chttp%3A%2F%2Fwww.ontotext.com%2Fexplicit%3E%0A++from+%3Chttps%3A%2F%2Flinked.data.gov.au%2Fdef%2Fnrm%3E%0A++where+%7B+%0A++++++%23+Collection+of+observable+properties.%0A++++++%3Chttps%3A%2F%2Flinked.data.gov.au%2Fdef%2Fnrm%2F30985f0b-095b-50ee-8dfe-f872f73ea5a0%3E+skos%3Amember+%3Fconcept+.%0A++++++%0A++++++%3Fconcept+skos%3AprefLabel+%3F_label+.%0A++++++bind%28str%28%3F_label%29+as+%3F__label%29%0A++%0A++++++optional+%7B+%0A++++++++++%3Fconcept+tern%3AhasFeatureType+%3FfeatureType+.%0A++++++++++service+%3Crepository%3Atern_vocabs_core%3E+%7B%0A++++++++++++++%3FfeatureType+skos%3AprefLabel+%3F_featureTypeLabel+.%0A++++++++++%7D%0A++++++%7D%0A++%0A++++++optional+%7B%0A++++++++%3Fconcept+tern%3AvalueType+%3FvalueType+.%0A++++++++service+%3Crepository%3Aknowledge_graph_core%3E+%7B%0A++++++++++%3FvalueType+skos%3AprefLabel+%3F_valueTypeLabel+.%0A++++++++%7D%0A++++++%7D%0A++%0A++++++optional+%7B%0A++++++++%3Fconcept+tern%3AhasCategoricalCollection+%3FcategoricalCollection+.%0A++++++++optional+%7B%0A++++++++++++%7B%0A++++++++++++++++service+%3Crepository%3Atern_vocabs_core%3E+%7B%0A++++++++++++++++++++%3FcategoricalCollection+skos%3AprefLabel+%3F_categoricalCollectionLabel+.%0A++++++++++++++++%7D%0A++++++++++++%7D%0A++++++++++++union+%7B%0A++++++++++++++++service+%3Crepository%3Aausplots_vocabs_core%3E+%7B%0A++++++++++++++++++++%3FcategoricalCollection+skos%3AprefLabel+%3F_categoricalCollectionLabel+.%0A++++++++++++++++%7D%0A++++++++++++%7D%0A++++++++++++union+%7B%0A++++++++++++++++%3FcategoricalCollection+skos%3AprefLabel+%3F_categoricalCollectionLabel+.%0A++++++++++++%7D%0A++++++++%7D%0A++++%7D%0A++%7D+%0A++group+by+%3Fconcept+%3FfeatureType+%3FvalueType+%3FcategoricalCollection%0A++order+by+lcase%28%3Flabel%29%0A++%0A++++++++",
  "method": "post",
  "params": {
    "query": "\n  PREFIX skos: <http://www.w3.org/2004/02/skos/core#>\n  PREFIX rdfs: <http://www.w3.org/2000/01/rdf-schema#>\n  PREFIX tern: <https://w3id.org/tern/ontologies/tern/>\n  select ?concept ?featureType (sample(?__label) as ?label) (sample(?_featureTypeLabel) as ?featureTypeLabel) ?valueType (sample(?_valueTypeLabel) as ?valueTypeLabel) ?categoricalCollection (sample(?_categoricalCollectionLabel) as ?categoricalCollectionLabel)\n  from <http://www.ontotext.com/explicit>\n  from <https://linked.data.gov.au/def/nrm>\n  where { \n      # Collection of observable properties.\n      <https://linked.data.gov.au/def/nrm/30985f0b-095b-50ee-8dfe-f872f73ea5a0> skos:member ?concept .\n      \n      ?concept skos:prefLabel ?_label .\n      bind(str(?_label) as ?__label)\n  \n      optional { \n          ?concept tern:hasFeatureType ?featureType .\n          service <repository:tern_vocabs_core> {\n              ?featureType skos:prefLabel ?_featureTypeLabel .\n          }\n      }\n  \n      optional {\n        ?concept tern:valueType ?valueType .\n        service <repository:knowledge_graph_core> {\n          ?valueType skos:prefLabel ?_valueTypeLabel .\n        }\n      }\n  \n      optional {\n        ?concept tern:hasCategoricalCollection ?categoricalCollection .\n        optional {\n            {\n                service <repository:tern_vocabs_core> {\n                    ?categoricalCollection skos:prefLabel ?_categoricalCollectionLabel .\n                }\n            }\n            union {\n                service <repository:ausplots_vocabs_core> {\n                    ?categoricalCollection skos:prefLabel ?_categoricalCollectionLabel .\n                }\n            }\n            union {\n                ?categoricalCollection skos:prefLabel ?_categoricalCollectionLabel .\n            }\n        }\n    }\n  } \n  group by ?concept ?featureType ?valueType ?categoricalCollection\n  order by lcase(?label)\n  \n        "
  },
  "body": {},
  "headers": {
    "content-type": "application/x-www-form-urlencoded",
    "accept": "application/sparql-results+json",
    "store-key": "https://linked.data.gov.au/def/nrm/30985f0b-095b-50ee-8dfe-f872f73ea5a0-graph_db_observable_properties"
  },
  "response": {
    "head": {
      "vars": [
        "concept",
        "featureType",
        "label",
        "featureTypeLabel",
        "valueType",
        "valueTypeLabel",
        "categoricalCollection",
        "categoricalCollectionLabel"
      ]
    },
    "results": {
      "bindings": [
        {
          "concept": {
            "type": "uri",
            "value": "https://linked.data.gov.au/def/nrm/afd516e4-0cb0-5a47-aff9-14b991824e79"
          },
          "label": {
            "type": "literal",
            "value": "advanced regeneration"
          }
        },
        {
          "concept": {
            "type": "uri",
            "value": "https://linked.data.gov.au/def/nrm/f3875738-25f3-5d54-8877-afebc97fd891"
          },
          "label": {
            "type": "literal",
            "value": "early regeneration"
          }
        },
        {
          "concept": {
            "type": "uri",
            "value": "https://linked.data.gov.au/def/nrm/cd03aa9a-1221-5db9-99e7-800cba375db3"
          },
          "label": {
            "type": "literal",
            "value": "mature phase"
          }
        },
        {
          "concept": {
            "type": "uri",
            "value": "https://linked.data.gov.au/def/nrm/995b6dfd-3442-522b-a89b-71e71ebd07c9"
          },
          "label": {
            "type": "literal",
            "value": "senescent phase"
          }
        },
        {
          "concept": {
            "type": "uri",
            "value": "https://linked.data.gov.au/def/nrm/56dff2fb-9cc0-5262-8d70-15e383f88ab7"
          },
          "label": {
            "type": "literal",
            "value": "uneven age"
          }
        }
      ]
    }
  }
}