{
  "url": "https://graphdb.tern.org.au/repositories/dawe_vocabs_core?query=%0A++PREFIX+skos%3A+%3Chttp%3A%2F%2Fwww.w3.org%2F2004%2F02%2Fskos%2Fcore%23%3E%0A++PREFIX+rdfs%3A+%3Chttp%3A%2F%2Fwww.w3.org%2F2000%2F01%2Frdf-schema%23%3E%0A++PREFIX+tern%3A+%3Chttps%3A%2F%2Fw3id.org%2Ftern%2Fontologies%2Ftern%2F%3E%0A++select+%3Fconcept+%3FfeatureType+%28sample%28%3F__label%29+as+%3Flabel%29+%28sample%28%3F_featureTypeLabel%29+as+%3FfeatureTypeLabel%29+%3FvalueType+%28sample%28%3F_valueTypeLabel%29+as+%3FvalueTypeLabel%29+%3FcategoricalCollection+%28sample%28%3F_categoricalCollectionLabel%29+as+%3FcategoricalCollectionLabel%29%0A++from+%3Chttp%3A%2F%2Fwww.ontotext.com%2Fexplicit%3E%0A++from+%3Chttps%3A%2F%2Flinked.data.gov.au%2Fdef%2Fnrm%3E%0A++where+%7B+%0A++++++%23+Collection+of+observable+properties.%0A++++++%3Chttps%3A%2F%2Flinked.data.gov.au%2Fdef%2Fnrm%2Fd0fc07a7-3ec9-45ed-8850-885a32828d3c%3E+skos%3Amember+%3Fconcept+.%0A++++++%0A++++++%3Fconcept+skos%3AprefLabel+%3F_label+.%0A++++++bind%28str%28%3F_label%29+as+%3F__label%29%0A++%0A++++++optional+%7B+%0A++++++++++%3Fconcept+tern%3AhasFeatureType+%3FfeatureType+.%0A++++++++++service+%3Crepository%3Atern_vocabs_core%3E+%7B%0A++++++++++++++%3FfeatureType+skos%3AprefLabel+%3F_featureTypeLabel+.%0A++++++++++%7D%0A++++++%7D%0A++%0A++++++optional+%7B%0A++++++++%3Fconcept+tern%3AvalueType+%3FvalueType+.%0A++++++++service+%3Crepository%3Aknowledge_graph_core%3E+%7B%0A++++++++++%3FvalueType+skos%3AprefLabel+%3F_valueTypeLabel+.%0A++++++++%7D%0A++++++%7D%0A++%0A++++++optional+%7B%0A++++++++%3Fconcept+tern%3AhasCategoricalCollection+%3FcategoricalCollection+.%0A++++++++optional+%7B%0A++++++++++++%7B%0A++++++++++++++++service+%3Crepository%3Atern_vocabs_core%3E+%7B%0A++++++++++++++++++++%3FcategoricalCollection+skos%3AprefLabel+%3F_categoricalCollectionLabel+.%0A++++++++++++++++%7D%0A++++++++++++%7D%0A++++++++++++union+%7B%0A++++++++++++++++service+%3Crepository%3Aausplots_vocabs_core%3E+%7B%0A++++++++++++++++++++%3FcategoricalCollection+skos%3AprefLabel+%3F_categoricalCollectionLabel+.%0A++++++++++++++++%7D%0A++++++++++++%7D%0A++++++++++++union+%7B%0A++++++++++++++++%3FcategoricalCollection+skos%3AprefLabel+%3F_categoricalCollectionLabel+.%0A++++++++++++%7D%0A++++++++%7D%0A++++%7D%0A++%7D+%0A++group+by+%3Fconcept+%3FfeatureType+%3FvalueType+%3FcategoricalCollection%0A++order+by+lcase%28%3Flabel%29%0A++%0A++++++++",
  "method": "post",
  "params": {
    "query": "\n  PREFIX skos: <http://www.w3.org/2004/02/skos/core#>\n  PREFIX rdfs: <http://www.w3.org/2000/01/rdf-schema#>\n  PREFIX tern: <https://w3id.org/tern/ontologies/tern/>\n  select ?concept ?featureType (sample(?__label) as ?label) (sample(?_featureTypeLabel) as ?featureTypeLabel) ?valueType (sample(?_valueTypeLabel) as ?valueTypeLabel) ?categoricalCollection (sample(?_categoricalCollectionLabel) as ?categoricalCollectionLabel)\n  from <http://www.ontotext.com/explicit>\n  from <https://linked.data.gov.au/def/nrm>\n  where { \n      # Collection of observable properties.\n      <https://linked.data.gov.au/def/nrm/d0fc07a7-3ec9-45ed-8850-885a32828d3c> skos:member ?concept .\n      \n      ?concept skos:prefLabel ?_label .\n      bind(str(?_label) as ?__label)\n  \n      optional { \n          ?concept tern:hasFeatureType ?featureType .\n          service <repository:tern_vocabs_core> {\n              ?featureType skos:prefLabel ?_featureTypeLabel .\n          }\n      }\n  \n      optional {\n        ?concept tern:valueType ?valueType .\n        service <repository:knowledge_graph_core> {\n          ?valueType skos:prefLabel ?_valueTypeLabel .\n        }\n      }\n  \n      optional {\n        ?concept tern:hasCategoricalCollection ?categoricalCollection .\n        optional {\n            {\n                service <repository:tern_vocabs_core> {\n                    ?categoricalCollection skos:prefLabel ?_categoricalCollectionLabel .\n                }\n            }\n            union {\n                service <repository:ausplots_vocabs_core> {\n                    ?categoricalCollection skos:prefLabel ?_categoricalCollectionLabel .\n                }\n            }\n            union {\n                ?categoricalCollection skos:prefLabel ?_categoricalCollectionLabel .\n            }\n        }\n    }\n  } \n  group by ?concept ?featureType ?valueType ?categoricalCollection\n  order by lcase(?label)\n  \n        "
  },
  "body": {},
  "headers": {
    "content-type": "application/x-www-form-urlencoded",
    "accept": "application/sparql-results+json",
    "store-key": "https://linked.data.gov.au/def/nrm/d0fc07a7-3ec9-45ed-8850-885a32828d3c-graph_db_observable_properties"
  },
  "response": {
    "head": {
      "vars": [
        "concept",
        "featureType",
        "label",
        "featureTypeLabel",
        "valueType",
        "valueTypeLabel",
        "categoricalCollection",
        "categoricalCollectionLabel"
      ]
    },
    "results": {
      "bindings": [
        {
          "concept": {
            "type": "uri",
            "value": "https://linked.data.gov.au/def/nrm/18a999a5-938c-5a4c-88f2-de7fd1f56bcc"
          },
          "label": {
            "type": "literal",
            "value": "Chenopod"
          }
        },
        {
          "concept": {
            "type": "uri",
            "value": "https://linked.data.gov.au/def/nrm/2f9fed56-ebfe-5ca3-b520-f0666413c367"
          },
          "label": {
            "type": "literal",
            "value": "heath shrub"
          }
        },
        {
          "concept": {
            "type": "uri",
            "value": "https://linked.data.gov.au/def/nrm/94ee6b46-e2f1-5101-8666-3cbcd8697f0f"
          },
          "label": {
            "type": "literal",
            "value": "not collected"
          }
        },
        {
          "concept": {
            "type": "uri",
            "value": "https://linked.data.gov.au/def/nrm/b5ee3b40-0c5d-5b73-8550-e7e46dc74bee"
          },
          "label": {
            "type": "literal",
            "value": "NVIS growth form - aquatic"
          }
        },
        {
          "concept": {
            "type": "uri",
            "value": "https://linked.data.gov.au/def/nrm/bb8edf40-de5b-5088-aa42-3a006a91ef7f"
          },
          "label": {
            "type": "literal",
            "value": "NVIS growth form - bryophyte"
          }
        },
        {
          "concept": {
            "type": "uri",
            "value": "https://linked.data.gov.au/def/nrm/effb4bdd-60e4-402f-96a5-5417f0a7ac6a"
          },
          "label": {
            "type": "literal",
            "value": "NVIS growth form - chenopod shrub"
          }
        },
        {
          "concept": {
            "type": "uri",
            "value": "https://linked.data.gov.au/def/nrm/02a1b24e-42fb-5c7c-b5a1-0d73d48ed364"
          },
          "label": {
            "type": "literal",
            "value": "NVIS growth form - cycad"
          }
        },
        {
          "concept": {
            "type": "uri",
            "value": "https://linked.data.gov.au/def/nrm/33261434-d5b6-560b-b036-866660c8bcbd"
          },
          "label": {
            "type": "literal",
            "value": "NVIS growth form - epiphyte"
          }
        },
        {
          "concept": {
            "type": "uri",
            "value": "https://linked.data.gov.au/def/nrm/860d33aa-2b8b-51c4-aa39-641ef684a4c7"
          },
          "label": {
            "type": "literal",
            "value": "NVIS growth form - fern"
          }
        },
        {
          "concept": {
            "type": "uri",
            "value": "https://linked.data.gov.au/def/nrm/3d134553-3ac4-5634-9711-8a52204b038e"
          },
          "label": {
            "type": "literal",
            "value": "NVIS growth form - forb"
          }
        },
        {
          "concept": {
            "type": "uri",
            "value": "https://linked.data.gov.au/def/nrm/1be47880-4ee6-5df9-8eda-551c58078771"
          },
          "label": {
            "type": "literal",
            "value": "NVIS growth form - grass-tree"
          }
        },
        {
          "concept": {
            "type": "uri",
            "value": "https://linked.data.gov.au/def/nrm/549135a7-1d2d-5201-ab60-1b0d8be3c816"
          },
          "label": {
            "type": "literal",
            "value": "NVIS growth form - hummock grass"
          }
        },
        {
          "concept": {
            "type": "uri",
            "value": "https://linked.data.gov.au/def/nrm/4e5e46b9-d5da-5975-9bba-d6eacad12875"
          },
          "label": {
            "type": "literal",
            "value": "NVIS growth form - lichen"
          }
        },
        {
          "concept": {
            "type": "uri",
            "value": "https://linked.data.gov.au/def/nrm/9fce048c-9919-5ad1-9796-c6d70fa26596"
          },
          "label": {
            "type": "literal",
            "value": "NVIS growth form - lower plant"
          }
        },
        {
          "concept": {
            "type": "uri",
            "value": "https://linked.data.gov.au/def/nrm/de758c7e-e109-5c65-83a9-d27eaed1ab94"
          },
          "label": {
            "type": "literal",
            "value": "NVIS growth form - mallee shrub"
          }
        },
        {
          "concept": {
            "type": "uri",
            "value": "https://linked.data.gov.au/def/nrm/a35e09f9-051c-527b-b99c-a2fa4df9bd01"
          },
          "label": {
            "type": "literal",
            "value": "NVIS growth form - palm"
          }
        },
        {
          "concept": {
            "type": "uri",
            "value": "https://linked.data.gov.au/def/nrm/ebca532a-2d76-5622-8078-5751be80b7e6"
          },
          "label": {
            "type": "literal",
            "value": "NVIS growth form - rush"
          }
        },
        {
          "concept": {
            "type": "uri",
            "value": "https://linked.data.gov.au/def/nrm/581291c8-5ff5-54b8-829c-93804f4b3691"
          },
          "label": {
            "type": "literal",
            "value": "NVIS growth form - seagrass"
          }
        },
        {
          "concept": {
            "type": "uri",
            "value": "https://linked.data.gov.au/def/nrm/a7b8b3c8-a329-5a62-8741-e1d6efe9528b"
          },
          "label": {
            "type": "literal",
            "value": "NVIS growth form - sedge"
          }
        },
        {
          "concept": {
            "type": "uri",
            "value": "https://linked.data.gov.au/def/nrm/5712f289-b19b-5e09-9ebb-37d697a95185"
          },
          "label": {
            "type": "literal",
            "value": "NVIS growth form - shrub"
          }
        },
        {
          "concept": {
            "type": "uri",
            "value": "https://linked.data.gov.au/def/nrm/9b841f72-4903-5d65-818f-d386a6eca15f"
          },
          "label": {
            "type": "literal",
            "value": "NVIS growth form - tree"
          }
        },
        {
          "concept": {
            "type": "uri",
            "value": "https://linked.data.gov.au/def/nrm/66aa8058-5e60-5025-a84e-de1234f23d8b"
          },
          "label": {
            "type": "literal",
            "value": "NVIS growth form - tree mallee"
          }
        },
        {
          "concept": {
            "type": "uri",
            "value": "https://linked.data.gov.au/def/nrm/97b443f0-335e-5974-856f-6067e1bfab7d"
          },
          "label": {
            "type": "literal",
            "value": "NVIS growth form - vine"
          }
        },
        {
          "concept": {
            "type": "uri",
            "value": "https://linked.data.gov.au/def/nrm/ae81906f-7fd3-5aec-9557-33e95d05eaa0"
          },
          "label": {
            "type": "literal",
            "value": "other grasses"
          }
        },
        {
          "concept": {
            "type": "uri",
            "value": "https://linked.data.gov.au/def/nrm/0042bfe6-1df3-5456-8ab4-45b6028980d3"
          },
          "label": {
            "type": "literal",
            "value": "samphire shrubs"
          }
        },
        {
          "concept": {
            "type": "uri",
            "value": "https://linked.data.gov.au/def/nrm/2b964103-c6d7-56c1-8906-6f7b586cf352"
          },
          "label": {
            "type": "literal",
            "value": "tree-fern"
          }
        },
        {
          "concept": {
            "type": "uri",
            "value": "https://linked.data.gov.au/def/nrm/e1eb0092-da6c-57b6-adde-707ed97fb30c"
          },
          "label": {
            "type": "literal",
            "value": "tussock grass"
          }
        },
        {
          "concept": {
            "type": "uri",
            "value": "https://linked.data.gov.au/def/nrm/f6b0f6d8-16d8-5dd7-b1b7-66b0c020b96f"
          },
          "label": {
            "type": "literal",
            "value": "Unknown"
          }
        }
      ]
    }
  }
}