{
  "url": "https://core.vocabs.paratoo.tern.org.au/api/lut-opportune-voucher-type-tier-2s",
  "method": "get",
  "params": {},
  "body": {},
  "headers": {},
  "response": {
    "data": [
      {
        "id": 1,
        "attributes": {
          "symbol": "ECOP",
          "label": "Ear clip or punch",
          "description": "",
          "uri": "",
          "createdAt": "2024-10-29T03:53:37.325Z",
          "updatedAt": "2024-12-02T06:33:57.017Z"
        }
      },
      {
        "id": 2,
        "attributes": {
          "symbol": "Feather",
          "label": "Feather",
          "description": "",
          "uri": "",
          "createdAt": "2024-10-29T03:53:37.338Z",
          "updatedAt": "2024-12-02T06:33:57.044Z"
        }
      },
      {
        "id": 3,
        "attributes": {
          "symbol": "FF",
          "label": "Fur/hair",
          "description": "",
          "uri": "",
          "createdAt": "2024-10-29T03:53:37.353Z",
          "updatedAt": "2024-12-02T06:33:57.076Z"
        }
      },
      {
        "id": 4,
        "attributes": {
          "symbol": "Heart",
          "label": "Heart",
          "description": "",
          "uri": "",
          "createdAt": "2024-10-29T03:53:37.365Z",
          "updatedAt": "2024-12-02T06:33:57.104Z"
        }
      },
      {
        "id": 5,
        "attributes": {
          "symbol": "Kidney",
          "label": "Kidney",
          "description": "",
          "uri": "",
          "createdAt": "2024-10-29T03:53:37.385Z",
          "updatedAt": "2024-12-02T06:33:57.131Z"
        }
      },
      {
        "id": 6,
        "attributes": {
          "symbol": "Liver",
          "label": "Liver",
          "description": "",
          "uri": "",
          "createdAt": "2024-10-29T03:53:37.399Z",
          "updatedAt": "2024-12-02T06:33:57.161Z"
        }
      },
      {
        "id": 7,
        "attributes": {
          "symbol": "Spleen",
          "label": "Spleen",
          "description": "",
          "uri": "",
          "createdAt": "2024-10-29T03:53:37.411Z",
          "updatedAt": "2024-12-02T06:33:57.188Z"
        }
      },
      {
        "id": 8,
        "attributes": {
          "symbol": "Muscle",
          "label": "Muscle",
          "description": "",
          "uri": "",
          "createdAt": "2024-10-29T03:53:37.423Z",
          "updatedAt": "2024-12-02T06:33:57.216Z"
        }
      },
      {
        "id": 9,
        "attributes": {
          "symbol": "Fat",
          "label": "Fat",
          "description": "",
          "uri": "",
          "createdAt": "2024-10-29T03:53:37.434Z",
          "updatedAt": "2024-12-02T06:33:57.250Z"
        }
      },
      {
        "id": 10,
        "attributes": {
          "symbol": "Scale",
          "label": "Scale",
          "description": "",
          "uri": "",
          "createdAt": "2024-10-29T03:53:37.446Z",
          "updatedAt": "2024-12-02T06:33:57.280Z"
        }
      },
      {
        "id": 11,
        "attributes": {
          "symbol": "Skin",
          "label": "Skin",
          "description": "",
          "uri": "",
          "createdAt": "2024-10-29T03:53:37.457Z",
          "updatedAt": "2024-12-02T06:33:57.309Z"
        }
      },
      {
        "id": 12,
        "attributes": {
          "symbol": "Skull",
          "label": "Skull",
          "description": "",
          "uri": "",
          "createdAt": "2024-10-29T03:53:37.474Z",
          "updatedAt": "2024-12-02T06:33:57.343Z"
        }
      },
      {
        "id": 13,
        "attributes": {
          "symbol": "Bone",
          "label": "Bone",
          "description": "",
          "uri": "",
          "createdAt": "2024-10-29T03:53:37.485Z",
          "updatedAt": "2024-12-02T06:33:57.376Z"
        }
      },
      {
        "id": 14,
        "attributes": {
          "symbol": "SC",
          "label": "Stomach contents",
          "description": "",
          "uri": "",
          "createdAt": "2024-10-29T03:53:37.497Z",
          "updatedAt": "2024-12-02T06:33:57.415Z"
        }
      },
      {
        "id": 15,
        "attributes": {
          "symbol": "Tail",
          "label": "Tail",
          "description": "",
          "uri": "",
          "createdAt": "2024-10-29T03:53:37.508Z",
          "updatedAt": "2024-12-02T06:33:57.444Z"
        }
      },
      {
        "id": 16,
        "attributes": {
          "symbol": "Toe",
          "label": "Toe",
          "description": "",
          "uri": "",
          "createdAt": "2024-10-29T03:53:37.521Z",
          "updatedAt": "2024-12-02T06:33:57.473Z"
        }
      },
      {
        "id": 17,
        "attributes": {
          "symbol": "Wing",
          "label": "Wing",
          "description": "",
          "uri": "",
          "createdAt": "2024-10-29T03:53:37.533Z",
          "updatedAt": "2024-12-02T06:33:57.507Z"
        }
      },
      {
        "id": 18,
        "attributes": {
          "symbol": "BS",
          "label": "Blood smear",
          "description": "",
          "uri": "",
          "createdAt": "2024-10-29T03:53:37.546Z",
          "updatedAt": "2024-12-02T06:33:57.536Z"
        }
      },
      {
        "id": 19,
        "attributes": {
          "symbol": "WB",
          "label": "Whole blood",
          "description": "",
          "uri": "",
          "createdAt": "2024-10-29T03:53:37.562Z",
          "updatedAt": "2024-12-02T06:33:57.566Z"
        }
      },
      {
        "id": 20,
        "attributes": {
          "symbol": "Complete",
          "label": "Complete",
          "description": "",
          "uri": "",
          "createdAt": "2024-10-29T03:53:37.574Z",
          "updatedAt": "2024-12-02T06:33:57.610Z"
        }
      },
      {
        "id": 21,
        "attributes": {
          "symbol": "Partial",
          "label": "Partial",
          "description": "",
          "uri": "",
          "createdAt": "2024-10-29T03:53:37.585Z",
          "updatedAt": "2024-12-02T06:33:57.645Z"
        }
      }
    ],
    "meta": {
      "pagination": {
        "page": 1,
        "pageSize": 1000,
        "pageCount": 1,
        "total": 21
      }
    }
  }
}