{
  "url": "https://graphdb.tern.org.au/repositories/dawe_vocabs_core?query=%0A++PREFIX+skos%3A+%3Chttp%3A%2F%2Fwww.w3.org%2F2004%2F02%2Fskos%2Fcore%23%3E%0A++PREFIX+rdfs%3A+%3Chttp%3A%2F%2Fwww.w3.org%2F2000%2F01%2Frdf-schema%23%3E%0A++PREFIX+tern%3A+%3Chttps%3A%2F%2Fw3id.org%2Ftern%2Fontologies%2Ftern%2F%3E%0A++select+%3Fconcept+%3FfeatureType+%28sample%28%3F__label%29+as+%3Flabel%29+%28sample%28%3F_featureTypeLabel%29+as+%3FfeatureTypeLabel%29+%3FvalueType+%28sample%28%3F_valueTypeLabel%29+as+%3FvalueTypeLabel%29+%3FcategoricalCollection+%28sample%28%3F_categoricalCollectionLabel%29+as+%3FcategoricalCollectionLabel%29%0A++from+%3Chttp%3A%2F%2Fwww.ontotext.com%2Fexplicit%3E%0A++from+%3Chttps%3A%2F%2Flinked.data.gov.au%2Fdef%2Fnrm%3E%0A++where+%7B+%0A++++++%23+Collection+of+observable+properties.%0A++++++%3Chttps%3A%2F%2Flinked.data.gov.au%2Fdef%2Fnrm%2Fd1e0ed8d-04a4-43de-87be-e6863de148cb%3E+skos%3Amember+%3Fconcept+.%0A++++++%0A++++++%3Fconcept+skos%3AprefLabel+%3F_label+.%0A++++++bind%28str%28%3F_label%29+as+%3F__label%29%0A++%0A++++++optional+%7B+%0A++++++++++%3Fconcept+tern%3AhasFeatureType+%3FfeatureType+.%0A++++++++++service+%3Crepository%3Atern_vocabs_core%3E+%7B%0A++++++++++++++%3FfeatureType+skos%3AprefLabel+%3F_featureTypeLabel+.%0A++++++++++%7D%0A++++++%7D%0A++%0A++++++optional+%7B%0A++++++++%3Fconcept+tern%3AvalueType+%3FvalueType+.%0A++++++++service+%3Crepository%3Aknowledge_graph_core%3E+%7B%0A++++++++++%3FvalueType+skos%3AprefLabel+%3F_valueTypeLabel+.%0A++++++++%7D%0A++++++%7D%0A++%0A++++++optional+%7B%0A++++++++%3Fconcept+tern%3AhasCategoricalCollection+%3FcategoricalCollection+.%0A++++++++optional+%7B%0A++++++++++++%7B%0A++++++++++++++++service+%3Crepository%3Atern_vocabs_core%3E+%7B%0A++++++++++++++++++++%3FcategoricalCollection+skos%3AprefLabel+%3F_categoricalCollectionLabel+.%0A++++++++++++++++%7D%0A++++++++++++%7D%0A++++++++++++union+%7B%0A++++++++++++++++service+%3Crepository%3Aausplots_vocabs_core%3E+%7B%0A++++++++++++++++++++%3FcategoricalCollection+skos%3AprefLabel+%3F_categoricalCollectionLabel+.%0A++++++++++++++++%7D%0A++++++++++++%7D%0A++++++++++++union+%7B%0A++++++++++++++++%3FcategoricalCollection+skos%3AprefLabel+%3F_categoricalCollectionLabel+.%0A++++++++++++%7D%0A++++++++%7D%0A++++%7D%0A++%7D+%0A++group+by+%3Fconcept+%3FfeatureType+%3FvalueType+%3FcategoricalCollection%0A++order+by+lcase%28%3Flabel%29%0A++%0A++++++++",
  "method": "post",
  "params": {
    "query": "\n  PREFIX skos: <http://www.w3.org/2004/02/skos/core#>\n  PREFIX rdfs: <http://www.w3.org/2000/01/rdf-schema#>\n  PREFIX tern: <https://w3id.org/tern/ontologies/tern/>\n  select ?concept ?featureType (sample(?__label) as ?label) (sample(?_featureTypeLabel) as ?featureTypeLabel) ?valueType (sample(?_valueTypeLabel) as ?valueTypeLabel) ?categoricalCollection (sample(?_categoricalCollectionLabel) as ?categoricalCollectionLabel)\n  from <http://www.ontotext.com/explicit>\n  from <https://linked.data.gov.au/def/nrm>\n  where { \n      # Collection of observable properties.\n      <https://linked.data.gov.au/def/nrm/d1e0ed8d-04a4-43de-87be-e6863de148cb> skos:member ?concept .\n      \n      ?concept skos:prefLabel ?_label .\n      bind(str(?_label) as ?__label)\n  \n      optional { \n          ?concept tern:hasFeatureType ?featureType .\n          service <repository:tern_vocabs_core> {\n              ?featureType skos:prefLabel ?_featureTypeLabel .\n          }\n      }\n  \n      optional {\n        ?concept tern:valueType ?valueType .\n        service <repository:knowledge_graph_core> {\n          ?valueType skos:prefLabel ?_valueTypeLabel .\n        }\n      }\n  \n      optional {\n        ?concept tern:hasCategoricalCollection ?categoricalCollection .\n        optional {\n            {\n                service <repository:tern_vocabs_core> {\n                    ?categoricalCollection skos:prefLabel ?_categoricalCollectionLabel .\n                }\n            }\n            union {\n                service <repository:ausplots_vocabs_core> {\n                    ?categoricalCollection skos:prefLabel ?_categoricalCollectionLabel .\n                }\n            }\n            union {\n                ?categoricalCollection skos:prefLabel ?_categoricalCollectionLabel .\n            }\n        }\n    }\n  } \n  group by ?concept ?featureType ?valueType ?categoricalCollection\n  order by lcase(?label)\n  \n        "
  },
  "body": {},
  "headers": {
    "content-type": "application/x-www-form-urlencoded",
    "accept": "application/sparql-results+json",
    "store-key": "https://linked.data.gov.au/def/nrm/d1e0ed8d-04a4-43de-87be-e6863de148cb-graph_db_observable_properties"
  },
  "response": {
    "head": {
      "vars": [
        "concept",
        "featureType",
        "label",
        "featureTypeLabel",
        "valueType",
        "valueTypeLabel",
        "categoricalCollection",
        "categoricalCollectionLabel"
      ]
    },
    "results": {
      "bindings": [
        {
          "concept": {
            "type": "uri",
            "value": "https://linked.data.gov.au/def/nrm/507d7e56-8e1a-4c9e-af03-5ba3b2b03374"
          },
          "label": {
            "type": "literal",
            "value": "bioregion"
          },
          "valueType": {
            "type": "uri",
            "value": "https://w3id.org/tern/ontologies/tern/IRI"
          },
          "valueTypeLabel": {
            "type": "literal",
            "value": "IRI"
          },
          "categoricalCollection": {
            "type": "uri",
            "value": "http://linked.data.gov.au/dataset/bioregion/IBRA7"
          }
        },
        {
          "concept": {
            "type": "uri",
            "value": "https://linked.data.gov.au/def/nrm/0e260962-a359-4f5c-961b-4697ca007a72"
          },
          "label": {
            "type": "literal",
            "value": "fauna plot points"
          },
          "valueType": {
            "type": "uri",
            "value": "https://w3id.org/tern/ontologies/tern/IRI"
          },
          "valueTypeLabel": {
            "type": "literal",
            "value": "IRI"
          }
        },
        {
          "concept": {
            "type": "uri",
            "value": "https://linked.data.gov.au/def/nrm/2014005e-47ca-4c6c-a41c-7607d3c9e4e9"
          },
          "label": {
            "type": "literal",
            "value": "fauna plot reference point"
          },
          "valueType": {
            "type": "uri",
            "value": "https://w3id.org/tern/ontologies/tern/IRI"
          },
          "valueTypeLabel": {
            "type": "literal",
            "value": "IRI"
          },
          "categoricalCollection": {
            "type": "uri",
            "value": "https://linked.data.gov.au/def/nrm/3a60d9da-ddeb-4d70-b352-a3d03944a645"
          },
          "categoricalCollectionLabel": {
            "type": "literal",
            "value": "plot points"
          }
        },
        {
          "concept": {
            "type": "uri",
            "value": "https://linked.data.gov.au/def/nrm/df0598ae-e9cf-4433-8045-fc090a90b3bf"
          },
          "label": {
            "type": "literal",
            "value": "plot aligned to cardinal directions"
          },
          "valueType": {
            "type": "uri",
            "value": "https://w3id.org/tern/ontologies/tern/Boolean"
          },
          "valueTypeLabel": {
            "type": "literal",
            "value": "Boolean"
          }
        },
        {
          "concept": {
            "type": "uri",
            "value": "https://linked.data.gov.au/def/nrm/1b1c91ed-4a25-4ba6-9351-4048a308f936"
          },
          "label": {
            "type": "literal",
            "value": "plot dimension"
          },
          "valueType": {
            "type": "uri",
            "value": "https://w3id.org/tern/ontologies/tern/IRI"
          },
          "valueTypeLabel": {
            "type": "literal",
            "value": "IRI"
          },
          "categoricalCollection": {
            "type": "uri",
            "value": "https://linked.data.gov.au/def/nrm/05c7a145-a675-4753-88d1-d86fa19dac3b"
          },
          "categoricalCollectionLabel": {
            "type": "literal",
            "value": "plot dimensions"
          }
        },
        {
          "concept": {
            "type": "uri",
            "value": "https://linked.data.gov.au/def/nrm/4123f0a1-2189-48e6-bd69-b9007812433c"
          },
          "label": {
            "type": "literal",
            "value": "plot location point"
          },
          "valueType": {
            "type": "uri",
            "value": "https://w3id.org/tern/ontologies/tern/IRI"
          },
          "valueTypeLabel": {
            "type": "literal",
            "value": "IRI"
          },
          "categoricalCollection": {
            "type": "uri",
            "value": "https://linked.data.gov.au/def/nrm/21072cd8-f8df-42ad-a3b0-c7adee21bc6d"
          },
          "categoricalCollectionLabel": {
            "type": "literal",
            "value": "plot marker locations"
          }
        },
        {
          "concept": {
            "type": "uri",
            "value": "https://linked.data.gov.au/def/nrm/ac12fe2d-56fb-4e15-9fbb-6c2280b8585f"
          },
          "label": {
            "type": "literal",
            "value": "plot marker location"
          },
          "valueType": {
            "type": "uri",
            "value": "https://w3id.org/tern/ontologies/tern/IRI"
          },
          "valueTypeLabel": {
            "type": "literal",
            "value": "IRI"
          },
          "categoricalCollection": {
            "type": "uri",
            "value": "https://linked.data.gov.au/def/nrm/21072cd8-f8df-42ad-a3b0-c7adee21bc6d"
          },
          "categoricalCollectionLabel": {
            "type": "literal",
            "value": "plot marker locations"
          }
        },
        {
          "concept": {
            "type": "uri",
            "value": "https://linked.data.gov.au/def/nrm/54a2ffcb-744b-5713-afc1-f306858f5020"
          },
          "label": {
            "type": "literal",
            "value": "plot marker type"
          },
          "valueType": {
            "type": "uri",
            "value": "https://w3id.org/tern/ontologies/tern/Text"
          },
          "valueTypeLabel": {
            "type": "literal",
            "value": "Text"
          }
        },
        {
          "concept": {
            "type": "uri",
            "value": "https://linked.data.gov.au/def/nrm/8a4f71cc-7572-4b97-a3ef-c8061551b1fe"
          },
          "label": {
            "type": "literal",
            "value": "plot name"
          },
          "valueType": {
            "type": "uri",
            "value": "https://w3id.org/tern/ontologies/tern/Text"
          },
          "valueTypeLabel": {
            "type": "literal",
            "value": "Text"
          }
        },
        {
          "concept": {
            "type": "uri",
            "value": "https://linked.data.gov.au/def/nrm/638aae02-cfe8-472d-ae9d-252fe73cb7c4"
          },
          "label": {
            "type": "literal",
            "value": "plot orientation"
          },
          "valueType": {
            "type": "uri",
            "value": "https://w3id.org/tern/ontologies/tern/Integer"
          },
          "valueTypeLabel": {
            "type": "literal",
            "value": "Integer"
          }
        },
        {
          "concept": {
            "type": "uri",
            "value": "https://linked.data.gov.au/def/nrm/dea45399-6c80-4abc-a24b-0e2b152c6800"
          },
          "label": {
            "type": "literal",
            "value": "plot permanently marked"
          },
          "valueType": {
            "type": "uri",
            "value": "https://w3id.org/tern/ontologies/tern/Boolean"
          },
          "valueTypeLabel": {
            "type": "literal",
            "value": "Boolean"
          }
        },
        {
          "concept": {
            "type": "uri",
            "value": "https://linked.data.gov.au/def/nrm/d2afe2ba-af07-4b95-a565-5dbab6ea5f02"
          },
          "label": {
            "type": "literal",
            "value": "plot points"
          },
          "valueType": {
            "type": "uri",
            "value": "https://w3id.org/tern/ontologies/tern/IRI"
          },
          "valueTypeLabel": {
            "type": "literal",
            "value": "IRI"
          }
        },
        {
          "concept": {
            "type": "uri",
            "value": "https://linked.data.gov.au/def/nrm/196eab1f-b381-4283-9ee1-da369a59a26e"
          },
          "label": {
            "type": "literal",
            "value": "plot reference point"
          },
          "valueType": {
            "type": "uri",
            "value": "https://w3id.org/tern/ontologies/tern/IRI"
          },
          "valueTypeLabel": {
            "type": "literal",
            "value": "IRI"
          },
          "categoricalCollection": {
            "type": "uri",
            "value": "https://linked.data.gov.au/def/nrm/3a60d9da-ddeb-4d70-b352-a3d03944a645"
          },
          "categoricalCollectionLabel": {
            "type": "literal",
            "value": "plot points"
          }
        },
        {
          "concept": {
            "type": "uri",
            "value": "https://linked.data.gov.au/def/nrm/81cc5c4b-179b-4483-861a-65008517bd32"
          },
          "label": {
            "type": "literal",
            "value": "plot replicate number"
          },
          "valueType": {
            "type": "uri",
            "value": "https://w3id.org/tern/ontologies/tern/Integer"
          },
          "valueTypeLabel": {
            "type": "literal",
            "value": "Integer"
          }
        },
        {
          "concept": {
            "type": "uri",
            "value": "https://linked.data.gov.au/def/nrm/3a6367ab-ad31-431d-890d-31db6a1c7bed"
          },
          "label": {
            "type": "literal",
            "value": "plot selection comments"
          },
          "valueType": {
            "type": "uri",
            "value": "https://w3id.org/tern/ontologies/tern/Text"
          },
          "valueTypeLabel": {
            "type": "literal",
            "value": "Text"
          }
        },
        {
          "concept": {
            "type": "uri",
            "value": "https://linked.data.gov.au/def/nrm/39b4421f-d610-5202-8ab6-42618837717d"
          },
          "label": {
            "type": "literal",
            "value": "plot type"
          },
          "valueType": {
            "type": "uri",
            "value": "https://w3id.org/tern/ontologies/tern/IRI"
          },
          "valueTypeLabel": {
            "type": "literal",
            "value": "IRI"
          },
          "categoricalCollection": {
            "type": "uri",
            "value": "https://linked.data.gov.au/def/nrm/beaa6b82-a4ea-5e4d-a354-de3f5394bc6b"
          },
          "categoricalCollectionLabel": {
            "type": "literal",
            "value": "plot types"
          }
        },
        {
          "concept": {
            "type": "uri",
            "value": "https://linked.data.gov.au/def/nrm/13f7d5bb-ac64-4f1e-b07c-68f8823a85ea"
          },
          "label": {
            "type": "literal",
            "value": "program"
          },
          "valueType": {
            "type": "uri",
            "value": "https://w3id.org/tern/ontologies/tern/IRI"
          },
          "valueTypeLabel": {
            "type": "literal",
            "value": "IRI"
          }
        },
        {
          "concept": {
            "type": "uri",
            "value": "https://linked.data.gov.au/def/nrm/00df82dc-6851-57d3-9e25-9a8a1b3d5245"
          },
          "label": {
            "type": "literal",
            "value": "project code"
          },
          "valueType": {
            "type": "uri",
            "value": "https://w3id.org/tern/ontologies/tern/Text"
          },
          "valueTypeLabel": {
            "type": "literal",
            "value": "Text"
          }
        },
        {
          "concept": {
            "type": "uri",
            "value": "https://linked.data.gov.au/def/nrm/79e66285-9396-4b8f-a5ba-f957319bce9a"
          },
          "label": {
            "type": "literal",
            "value": "state"
          },
          "valueType": {
            "type": "uri",
            "value": "https://w3id.org/tern/ontologies/tern/IRI"
          },
          "valueTypeLabel": {
            "type": "literal",
            "value": "IRI"
          },
          "categoricalCollection": {
            "type": "uri",
            "value": "https://linked.data.gov.au/def/nrm/0a71eab7-3989-4c35-82c0-1e746c36b291"
          },
          "categoricalCollectionLabel": {
            "type": "literal",
            "value": "States and Territories"
          }
        },
        {
          "concept": {
            "type": "uri",
            "value": "https://linked.data.gov.au/def/nrm/e2396b81-e7cd-4ff4-adc4-d06e9643f592"
          },
          "label": {
            "type": "literal",
            "value": "unique digits"
          },
          "valueType": {
            "type": "uri",
            "value": "https://w3id.org/tern/ontologies/tern/Text"
          },
          "valueTypeLabel": {
            "type": "literal",
            "value": "Text"
          }
        },
        {
          "concept": {
            "type": "uri",
            "value": "https://linked.data.gov.au/def/nrm/f7d494fa-9309-5956-b7a8-27152fb005f3"
          },
          "label": {
            "type": "literal",
            "value": "visit field name"
          },
          "valueType": {
            "type": "uri",
            "value": "https://w3id.org/tern/ontologies/tern/Text"
          },
          "valueTypeLabel": {
            "type": "literal",
            "value": "Text"
          }
        }
      ]
    }
  }
}