{
  "url": "https://graphdb.tern.org.au/repositories/dawe_vocabs_core?query=PREFIX+urnp%3A+%3Curn%3Aproperty%3A%3E%0A++++++++PREFIX+skos%3A+%3Chttp%3A%2F%2Fwww.w3.org%2F2004%2F02%2Fskos%2Fcore%23%3E%0A++++++++select+%3Fattribute+%7B%0A++++++++++++%3Fs+urnp%3AobservableProperty+%3Chttps%3A%2F%2Flinked.data.gov.au%2Fdef%2Fnrm%2Fdd1769b9-c475-4732-915c-9b890a8d5f65%3E+%3B%0A++++++++++++++++urnp%3AobservablePropertiesCollection+%3Chttps%3A%2F%2Flinked.data.gov.au%2Fdef%2Fnrm%2Fbc009349-c1d0-4000-a5d0-1b1c18c3ea0e%3E+%3B%0A++++++++++++urnp%3AhasAttribute+%3Fattribute+.%0A++++++++%7D",
  "method": "post",
  "params": {
    "query": "PREFIX urnp: <urn:property:>\n        PREFIX skos: <http://www.w3.org/2004/02/skos/core#>\n        select ?attribute {\n            ?s urnp:observableProperty <https://linked.data.gov.au/def/nrm/dd1769b9-c475-4732-915c-9b890a8d5f65> ;\n                urnp:observablePropertiesCollection <https://linked.data.gov.au/def/nrm/bc009349-c1d0-4000-a5d0-1b1c18c3ea0e> ;\n            urnp:hasAttribute ?attribute .\n        }"
  },
  "body": {},
  "headers": {
    "content-type": "application/x-www-form-urlencoded",
    "accept": "application/sparql-results+json",
    "store-key": "https://linked.data.gov.au/def/nrm/dd1769b9-c475-4732-915c-9b890a8d5f65-https://linked.data.gov.au/def/nrm/bc009349-c1d0-4000-a5d0-1b1c18c3ea0e-get_attribute"
  },
  "response": {
    "head": {
      "vars": [
        "attribute"
      ]
    },
    "results": {
      "bindings": []
    }
  }
}