{
  "url": "https://core.vocabs.paratoo.tern.org.au/api/lut-disturbances",
  "method": "get",
  "params": {},
  "body": {},
  "headers": {},
  "response": {
    "data": [
      {
        "id": 11,
        "attributes": {
          "symbol": "8",
          "label": "Highly disturbed, e.g. quarrying, road words, mining, landfill, urban",
          "description": "A description of the type of disturbance in a study plot.",
          "uri": "https://linked.data.gov.au/def/nrm/f125acdb-8cf9-53f6-b02f-38afd3cb2155",
          "createdAt": "2024-10-29T03:53:23.821Z",
          "updatedAt": "2024-12-02T06:33:25.663Z"
        }
      },
      {
        "id": 1,
        "attributes": {
          "symbol": "0",
          "label": "No effective disturbance",
          "description": "No effective disturbance",
          "uri": "",
          "createdAt": "2024-10-29T03:53:23.663Z",
          "updatedAt": "2024-12-02T06:33:25.302Z"
        }
      },
      {
        "id": 2,
        "attributes": {
          "symbol": "1L",
          "label": "No effective disturbance except light grazing by hoofed animals",
          "description": "A description of the type of disturbance in a study plot.",
          "uri": "https://linked.data.gov.au/def/nrm/8457585c-9358-5bc0-b975-0a449b304006",
          "createdAt": "2024-10-29T03:53:23.677Z",
          "updatedAt": "2024-12-02T06:33:25.331Z"
        }
      },
      {
        "id": 12,
        "attributes": {
          "symbol": "9",
          "label": "Regrowth after clearing",
          "description": "A description of the type of disturbance in a study plot.",
          "uri": "https://linked.data.gov.au/def/nrm/5837f40e-8013-4050-800f-699058f4324b",
          "createdAt": "2024-10-29T03:53:23.837Z",
          "updatedAt": "2024-12-02T06:33:25.703Z"
        }
      },
      {
        "id": 3,
        "attributes": {
          "symbol": "1M",
          "label": "No effective disturbance except medium grazing by hoofed animals",
          "description": "A description of the type of disturbance in a study plot.",
          "uri": "https://linked.data.gov.au/def/nrm/49716af0-4f12-5886-87db-69297558c1e8",
          "createdAt": "2024-10-29T03:53:23.690Z",
          "updatedAt": "2024-12-02T06:33:25.365Z"
        }
      },
      {
        "id": 13,
        "attributes": {
          "symbol": "10",
          "label": "Significant natural disturbances, e.g. cyclonic impact",
          "description": "A description of the type of disturbance in a study plot.",
          "uri": "https://linked.data.gov.au/def/nrm/ea48040d-b81b-428a-b620-51bc019171aa",
          "createdAt": "2024-12-02T06:33:25.717Z",
          "updatedAt": "2024-12-02T06:33:25.717Z"
        }
      },
      {
        "id": 4,
        "attributes": {
          "symbol": "1H",
          "label": "No effective disturbance except high grazing by hoofed animals",
          "description": "A description of the type of disturbance in a study plot.",
          "uri": "https://linked.data.gov.au/def/nrm/f505c960-4d90-52f6-aee5-18102b784746",
          "createdAt": "2024-10-29T03:53:23.706Z",
          "updatedAt": "2024-12-02T06:33:25.401Z"
        }
      },
      {
        "id": 14,
        "attributes": {
          "symbol": "NC",
          "label": "Not Collected",
          "description": "",
          "uri": "",
          "createdAt": "2024-12-02T06:33:25.733Z",
          "updatedAt": "2024-12-02T06:33:25.733Z"
        }
      },
      {
        "id": 5,
        "attributes": {
          "symbol": "2",
          "label": "Limited clearing, for example limited logging",
          "description": "A description of the type of disturbance in a study plot.",
          "uri": "https://linked.data.gov.au/def/nrm/da08e0d3-2d54-5651-8499-8b2364e7c44d",
          "createdAt": "2024-10-29T03:53:23.731Z",
          "updatedAt": "2024-12-02T06:33:25.435Z"
        }
      },
      {
        "id": 6,
        "attributes": {
          "symbol": "3",
          "label": "Extensive clearing, for example poisoning, ringbarking",
          "description": "A description of the type of disturbance in a study plot.",
          "uri": "https://linked.data.gov.au/def/nrm/fcfc3e39-0508-5533-8a19-27f6f510e0aa",
          "createdAt": "2024-10-29T03:53:23.751Z",
          "updatedAt": "2024-12-02T06:33:25.474Z"
        }
      },
      {
        "id": 7,
        "attributes": {
          "symbol": "4",
          "label": "Complete clearing, pasture, native or improved, but never cultivated",
          "description": "A description of the type of disturbance in a study plot.",
          "uri": "https://linked.data.gov.au/def/nrm/afbe4699-68c2-5213-926e-a3baa6833383",
          "createdAt": "2024-10-29T03:53:23.766Z",
          "updatedAt": "2024-12-02T06:33:25.515Z"
        }
      },
      {
        "id": 8,
        "attributes": {
          "symbol": "5",
          "label": "Complete clearing, pasture, native or improved, cultivated at some stage",
          "description": "A description of the type of disturbance in a study plot.",
          "uri": "https://linked.data.gov.au/def/nrm/15f2b28b-e417-5073-b8d7-f1ef6e4ab1ad",
          "createdAt": "2024-10-29T03:53:23.779Z",
          "updatedAt": "2024-12-02T06:33:25.552Z"
        }
      },
      {
        "id": 9,
        "attributes": {
          "symbol": "6",
          "label": "Cultivated; rain fed",
          "description": "A description of the type of disturbance in a study plot.",
          "uri": "https://linked.data.gov.au/def/nrm/f86e5ee3-6e77-5c6c-a842-5ff43f659f6d",
          "createdAt": "2024-10-29T03:53:23.795Z",
          "updatedAt": "2024-12-02T06:33:25.594Z"
        }
      },
      {
        "id": 10,
        "attributes": {
          "symbol": "7",
          "label": "Cultivation, irrigated, past or present",
          "description": "A description of the type of disturbance in a study plot.",
          "uri": "https://linked.data.gov.au/def/nrm/72f73ab2-7c87-52c9-a32e-5243ad10990f",
          "createdAt": "2024-10-29T03:53:23.806Z",
          "updatedAt": "2024-12-02T06:33:25.629Z"
        }
      }
    ],
    "meta": {
      "pagination": {
        "page": 1,
        "pageSize": 1000,
        "pageCount": 1,
        "total": 14
      }
    }
  }
}