{
  "url": "https://core.vocabs.paratoo.tern.org.au/api/lut-substrates",
  "method": "get",
  "params": {},
  "body": {},
  "headers": {},
  "response": {
    "data": [
      {
        "id": 13,
        "attributes": {
          "symbol": "UK",
          "label": "Unknown",
          "description": "Unknown (unable to be determined, e.g. under dense shrub).",
          "uri": "https://linked.data.gov.au/def/nrm/f6b0f6d8-16d8-5dd7-b1b7-66b0c020b96f",
          "createdAt": "2024-10-29T03:53:55.445Z",
          "updatedAt": "2024-12-02T06:34:39.132Z"
        }
      },
      {
        "id": 1,
        "attributes": {
          "symbol": "BR",
          "label": "Bare",
          "description": "Bare soil.",
          "uri": "https://linked.data.gov.au/def/nrm/08f21bd5-b4f1-5cc1-9c16-50e7b1676f5b",
          "createdAt": "2024-10-29T03:53:55.189Z",
          "updatedAt": "2024-12-02T06:34:38.730Z"
        }
      },
      {
        "id": 2,
        "attributes": {
          "symbol": "CR",
          "label": "Crypto",
          "description": "Cryptogram - any moss, lichen, algae, etc. present on the soil surface with a different colour to the base soil.",
          "uri": "https://linked.data.gov.au/def/nrm/fd31a502-ab70-51c3-a10e-6901a35c87ce",
          "createdAt": "2024-10-29T03:53:55.222Z",
          "updatedAt": "2024-12-02T06:34:38.762Z"
        }
      },
      {
        "id": 14,
        "attributes": {
          "symbol": "O",
          "label": "Other",
          "description": "Substrate not listed.",
          "uri": "https://linked.data.gov.au/def/nrm/a96d7507-e823-5f3a-a26b-62313538e0bb",
          "createdAt": "2024-10-29T03:53:55.462Z",
          "updatedAt": "2024-12-02T06:34:39.180Z"
        }
      },
      {
        "id": 3,
        "attributes": {
          "symbol": "LT",
          "label": "Litter",
          "description": "Dead vegetation not attached or identifiable; if litter is attached and identifiable as a species, it should be recorded as this species but flagged as being dead.",
          "uri": "https://linked.data.gov.au/def/nrm/287cff17-cee5-5b26-ad61-0195d6127b82",
          "createdAt": "2024-10-29T03:53:55.267Z",
          "updatedAt": "2024-12-02T06:34:38.794Z"
        }
      },
      {
        "id": 4,
        "attributes": {
          "symbol": "CWD",
          "label": "CWD",
          "description": "Coarse Woody Debris - detached wood with >10 cm diameter at the intercept point.",
          "uri": "",
          "createdAt": "2024-10-29T03:53:55.287Z",
          "updatedAt": "2024-12-02T06:34:38.829Z"
        }
      },
      {
        "id": 15,
        "attributes": {
          "symbol": "NC",
          "label": "Not Collected",
          "description": "Point-intercept data not collected (e.g. cannot survey too dense area within plot).",
          "uri": "https://linked.data.gov.au/def/nrm/94ee6b46-e2f1-5101-8666-3cbcd8697f0f",
          "createdAt": "2024-10-29T03:53:55.473Z",
          "updatedAt": "2024-12-02T06:34:39.227Z"
        }
      },
      {
        "id": 5,
        "attributes": {
          "symbol": "GR",
          "label": "Gravel",
          "description": "Particles 2 mm - 2 cm.",
          "uri": "https://linked.data.gov.au/def/nrm/65069cb1-ae75-59be-9303-deb816fa8566",
          "createdAt": "2024-10-29T03:53:55.319Z",
          "updatedAt": "2024-12-02T06:34:38.859Z"
        }
      },
      {
        "id": 6,
        "attributes": {
          "symbol": "RK",
          "label": "Rock",
          "description": "Particles <20 cm.",
          "uri": "",
          "createdAt": "2024-10-29T03:53:55.351Z",
          "updatedAt": "2024-12-02T06:34:38.888Z"
        }
      },
      {
        "id": 7,
        "attributes": {
          "symbol": "OC",
          "label": "Outcrop",
          "description": "Exposed consolidated rock (bedrock).",
          "uri": "https://linked.data.gov.au/def/nrm/64af781a-b209-5206-835d-d6b4cbb13d46",
          "createdAt": "2024-10-29T03:53:55.372Z",
          "updatedAt": "2024-12-02T06:34:38.924Z"
        }
      },
      {
        "id": 8,
        "attributes": {
          "symbol": "LOR",
          "label": "Lichen on rock",
          "description": "Lichen growing on rock.",
          "uri": "https://linked.data.gov.au/def/nrm/ecc34667-f36a-5de2-814b-e7304bd970ca",
          "createdAt": "2024-10-29T03:53:55.385Z",
          "updatedAt": "2024-12-02T06:34:38.953Z"
        }
      },
      {
        "id": 9,
        "attributes": {
          "symbol": "LOO",
          "label": "Lichen on outcrop",
          "description": "Lichen growing on bedrock.",
          "uri": "https://linked.data.gov.au/def/nrm/fb36eb90-059a-553b-92d7-01d5a04345e7",
          "createdAt": "2024-10-29T03:53:55.398Z",
          "updatedAt": "2024-12-02T06:34:38.988Z"
        }
      },
      {
        "id": 10,
        "attributes": {
          "symbol": "WR",
          "label": "Water",
          "description": "Body of water (sheet water, Gilgai).",
          "uri": "",
          "createdAt": "2024-10-29T03:53:55.410Z",
          "updatedAt": "2024-12-02T06:34:39.024Z"
        }
      },
      {
        "id": 11,
        "attributes": {
          "symbol": "BA",
          "label": "Black ash",
          "description": "Powdery black residue remaining after the incomplete combustion of wood during a bushfire.",
          "uri": "https://linked.data.gov.au/def/nrm/0a8dd17b-eadd-5f60-bb97-2a61fc61ec76",
          "createdAt": "2024-10-29T03:53:55.422Z",
          "updatedAt": "2024-12-02T06:34:39.052Z"
        }
      },
      {
        "id": 12,
        "attributes": {
          "symbol": "WA",
          "label": "White ash",
          "description": "Powdery white residue remaining after the complete combustion of wood during a bushfire.",
          "uri": "https://linked.data.gov.au/def/nrm/67f0e621-e61d-55a6-9963-e0becc048aaa",
          "createdAt": "2024-10-29T03:53:55.434Z",
          "updatedAt": "2024-12-02T06:34:39.084Z"
        }
      }
    ],
    "meta": {
      "pagination": {
        "page": 1,
        "pageSize": 1000,
        "pageCount": 1,
        "total": 15
      }
    }
  }
}