{
  "url": "https://graphdb.tern.org.au/repositories/dawe_vocabs_core?query=%0ASELECT+%3Ftitle+%3Fvalue%0A%0A++++++++++++%7B+%0A%0A++++++++++++%3Chttps%3A%2F%2Flinked.data.gov.au%2Fdef%2Fnrm%2Fce3fd96d-e68d-4b14-b3fd-27690c566440%3E+%3Ftitle+%3Fvalue%0A%0A++++++++++++%7D",
  "method": "post",
  "params": {
    "query": "\nSELECT ?title ?value\n\n            { \n\n            <https://linked.data.gov.au/def/nrm/ce3fd96d-e68d-4b14-b3fd-27690c566440> ?title ?value\n\n            }"
  },
  "body": {},
  "headers": {
    "content-type": "application/x-www-form-urlencoded",
    "accept": "application/sparql-results+json",
    "store-key": "https://linked.data.gov.au/def/nrm/ce3fd96d-e68d-4b14-b3fd-27690c566440-sparql_query"
  },
  "response": {
    "head": {
      "vars": [
        "title",
        "value"
      ]
    },
    "results": {
      "bindings": [
        {
          "title": {
            "type": "uri",
            "value": "http://www.w3.org/1999/02/22-rdf-syntax-ns#type"
          },
          "value": {
            "type": "uri",
            "value": "http://www.w3.org/2004/02/skos/core#Concept"
          }
        },
        {
          "title": {
            "type": "uri",
            "value": "http://www.w3.org/2000/01/rdf-schema#isDefinedBy"
          },
          "value": {
            "type": "uri",
            "value": "https://linked.data.gov.au/def/nrm"
          }
        },
        {
          "title": {
            "type": "uri",
            "value": "http://www.w3.org/2004/02/skos/core#definition"
          },
          "value": {
            "type": "literal",
            "value": "The life stage of the biological individual(s) at the time the occurrence was recorded."
          }
        },
        {
          "title": {
            "type": "uri",
            "value": "http://www.w3.org/2004/02/skos/core#prefLabel"
          },
          "value": {
            "type": "literal",
            "value": "life stage"
          }
        },
        {
          "title": {
            "type": "uri",
            "value": "http://www.w3.org/2004/02/skos/core#altLabel"
          },
          "value": {
            "type": "literal",
            "value": "flora life stage"
          }
        },
        {
          "title": {
            "type": "uri",
            "value": "http://www.w3.org/2004/02/skos/core#altLabel"
          },
          "value": {
            "type": "literal",
            "value": "plant species life-stage"
          }
        },
        {
          "title": {
            "type": "uri",
            "value": "http://www.w3.org/2004/02/skos/core#note"
          },
          "value": {
            "type": "literal",
            "value": "Life stage and phenological stage are different. For example, a plant at a given life stage can undergo various phenological changes."
          }
        },
        {
          "title": {
            "type": "uri",
            "value": "http://www.w3.org/2004/02/skos/core#exactMatch"
          },
          "value": {
            "type": "uri",
            "value": "http://linked.data.gov.au/def/tern-cv/abb0ee19-b2e8-42f3-8a25-d1f39ca3ebc3"
          }
        },
        {
          "title": {
            "type": "uri",
            "value": "http://purl.org/dc/terms/source"
          },
          "value": {
            "type": "literal",
            "value": "McCallum K, Potter T, Cox B, Laws M, Bignall J, O’Neill S, Sparrow B. (2023) Recruitment Module. In ‘Ecological Field Monitoring Protocols Manual using the Ecological Monitoring System Australia’. (Eds S O’Neill, K Irvine, A Tokmakoff, B Sparrow). TERN, Adelaide."
          }
        },
        {
          "title": {
            "type": "uri",
            "value": "http://purl.org/dc/terms/source"
          },
          "value": {
            "type": "literal",
            "value": "McCallum K, Potter T, Cox, B, Laws M, Bignall J, O’Neill S, Sparrow B. (2023) Condition Module. In ‘Ecological Field Monitoring Protocols Manual using the Ecological Monitoring System Australia’. (Eds S O’Neill, K Irvine, A Tokmakoff, B Sparrow). TERN, Adelaide."
          }
        },
        {
          "title": {
            "type": "uri",
            "value": "http://purl.org/dc/terms/source"
          },
          "value": {
            "type": "literal",
            "value": "McCallum K, Laws M, Cox B, Bignall J, O’Neill S, Sparrow B. (2023) Plot Description Module. In ‘Ecological Field Monitoring Protocols Manual using the Ecological Monitoring System Australia’. (Eds S O’Neill, K Irvine, A Tokmakoff, B Sparrow). TERN, Adelaide."
          }
        },
        {
          "title": {
            "type": "uri",
            "value": "https://w3id.org/tern/ontologies/tern/hasMethod"
          },
          "value": {
            "type": "uri",
            "value": "https://linked.data.gov.au/def/nrm/c93922b2-3b0e-4ee1-b1ef-c9719d039f5f"
          }
        },
        {
          "title": {
            "type": "uri",
            "value": "https://w3id.org/tern/ontologies/tern/hasMethod"
          },
          "value": {
            "type": "uri",
            "value": "https://linked.data.gov.au/def/nrm/f470e27d-20ed-46dc-b64a-d67b39a9dffc"
          }
        },
        {
          "title": {
            "type": "uri",
            "value": "https://w3id.org/tern/ontologies/tern/hasMethod"
          },
          "value": {
            "type": "uri",
            "value": "https://linked.data.gov.au/def/nrm/6fd39a33-9c4f-469e-80a5-e76b5d5f04a6"
          }
        },
        {
          "title": {
            "type": "uri",
            "value": "https://w3id.org/tern/ontologies/tern/hasMethod"
          },
          "value": {
            "type": "uri",
            "value": "https://linked.data.gov.au/def/nrm/16a20c3f-e95d-4919-b2d1-a25c7a275109"
          }
        },
        {
          "title": {
            "type": "uri",
            "value": "https://w3id.org/tern/ontologies/tern/hasMethod"
          },
          "value": {
            "type": "uri",
            "value": "https://linked.data.gov.au/def/nrm/2084a9b6-2927-4651-bd88-781a01c38664"
          }
        },
        {
          "title": {
            "type": "uri",
            "value": "https://w3id.org/tern/ontologies/tern/hasMethod"
          },
          "value": {
            "type": "uri",
            "value": "https://linked.data.gov.au/def/nrm/c7d48965-c779-4398-9315-2cd465b08513"
          }
        },
        {
          "title": {
            "type": "uri",
            "value": "https://w3id.org/tern/ontologies/tern/hasMethod"
          },
          "value": {
            "type": "uri",
            "value": "https://linked.data.gov.au/def/nrm/e0cb4c61-eaa4-4c57-b627-2061cc9311bd"
          }
        },
        {
          "title": {
            "type": "uri",
            "value": "https://w3id.org/tern/ontologies/tern/hasMethod"
          },
          "value": {
            "type": "uri",
            "value": "https://linked.data.gov.au/def/nrm/88068941-4dc9-4b44-bcfe-5eeeb3ba1a21"
          }
        },
        {
          "title": {
            "type": "uri",
            "value": "https://w3id.org/tern/ontologies/tern/hasMethod"
          },
          "value": {
            "type": "uri",
            "value": "https://linked.data.gov.au/def/nrm/615edd85-ea58-4d3c-b737-d31d8447ad49"
          }
        },
        {
          "title": {
            "type": "uri",
            "value": "https://w3id.org/tern/ontologies/tern/hasFeatureType"
          },
          "value": {
            "type": "uri",
            "value": "http://linked.data.gov.au/def/tern-cv/d4fc54b1-0ad3-4512-86b7-d42b121ece45"
          }
        },
        {
          "title": {
            "type": "uri",
            "value": "https://w3id.org/tern/ontologies/tern/hasFeatureType"
          },
          "value": {
            "type": "uri",
            "value": "http://linked.data.gov.au/def/tern-cv/b311c0d3-4a1a-4932-a39c-f5cdc1afa611"
          }
        },
        {
          "title": {
            "type": "uri",
            "value": "https://w3id.org/tern/ontologies/tern/hasFeatureType"
          },
          "value": {
            "type": "uri",
            "value": "http://linked.data.gov.au/def/tern-cv/60d7edf8-98c6-43e9-841c-e176c334d270"
          }
        },
        {
          "title": {
            "type": "uri",
            "value": "https://w3id.org/tern/ontologies/tern/hasFeatureType"
          },
          "value": {
            "type": "uri",
            "value": "http://linked.data.gov.au/def/tern-cv/ae71c3f6-d430-400f-a1d4-97a333b4ee02"
          }
        },
        {
          "title": {
            "type": "uri",
            "value": "https://w3id.org/tern/ontologies/tern/valueType"
          },
          "value": {
            "type": "uri",
            "value": "https://w3id.org/tern/ontologies/tern/IRI"
          }
        },
        {
          "title": {
            "type": "uri",
            "value": "https://schema.org/url"
          },
          "value": {
            "datatype": "http://www.w3.org/2001/XMLSchema#anyURI",
            "type": "literal",
            "value": "https://github.com/ternaustralia/dawe-rlp-vocabs/tree/main/vocab_files/observable_property_concepts/life-stage.ttl"
          }
        },
        {
          "title": {
            "type": "uri",
            "value": "https://w3id.org/tern/ontologies/tern/hasCategoricalValuesCollection"
          },
          "value": {
            "type": "uri",
            "value": "https://linked.data.gov.au/def/nrm/5f82c583-167b-4ed2-b25e-4d67decb3f2d"
          }
        },
        {
          "title": {
            "type": "uri",
            "value": "https://w3id.org/tern/ontologies/tern/isMemberOf"
          },
          "value": {
            "type": "uri",
            "value": "https://linked.data.gov.au/def/nrm/1d6ca60e-4371-4248-a383-5d4bd4d88c65"
          }
        },
        {
          "title": {
            "type": "uri",
            "value": "https://w3id.org/tern/ontologies/tern/isMemberOf"
          },
          "value": {
            "type": "uri",
            "value": "https://linked.data.gov.au/def/nrm/36c493f1-6a2e-4d48-9c3a-df104d98124b"
          }
        },
        {
          "title": {
            "type": "uri",
            "value": "https://w3id.org/tern/ontologies/tern/isMemberOf"
          },
          "value": {
            "type": "uri",
            "value": "https://linked.data.gov.au/def/nrm/6bea1c41-0a98-465a-a146-1d3cfbf6f6fa"
          }
        },
        {
          "title": {
            "type": "uri",
            "value": "https://w3id.org/tern/ontologies/tern/isMemberOf"
          },
          "value": {
            "type": "uri",
            "value": "https://linked.data.gov.au/def/nrm/d3f85cc2-f3e8-4900-a2ac-19fc27fd14f9"
          }
        },
        {
          "title": {
            "type": "uri",
            "value": "https://w3id.org/tern/ontologies/tern/isMemberOf"
          },
          "value": {
            "type": "uri",
            "value": "https://linked.data.gov.au/def/nrm/84f645c7-9094-40e5-977c-82da64aeb85e"
          }
        },
        {
          "title": {
            "type": "uri",
            "value": "https://w3id.org/tern/ontologies/tern/isMemberOf"
          },
          "value": {
            "type": "uri",
            "value": "https://linked.data.gov.au/def/nrm/cdd61f02-261e-48c0-a4af-046c22bc8202"
          }
        },
        {
          "title": {
            "type": "uri",
            "value": "https://w3id.org/tern/ontologies/tern/isMemberOf"
          },
          "value": {
            "type": "uri",
            "value": "https://linked.data.gov.au/def/nrm/464e4910-ae4f-4104-a91c-4c1196114ed2"
          }
        },
        {
          "title": {
            "type": "uri",
            "value": "https://w3id.org/tern/ontologies/tern/isMemberOf"
          },
          "value": {
            "type": "uri",
            "value": "https://linked.data.gov.au/def/nrm/98d1a8ba-0755-4b79-a480-d280cd5eeaa4"
          }
        },
        {
          "title": {
            "type": "uri",
            "value": "https://w3id.org/tern/ontologies/tern/isMemberOf"
          },
          "value": {
            "type": "uri",
            "value": "https://linked.data.gov.au/def/nrm/c4daaf8e-ddf4-47e2-b82c-0e18647d3edc"
          }
        }
      ]
    }
  }
}