{
  "url": "https://graphdb.tern.org.au/repositories/dawe_vocabs_core?query=%0ASELECT+%3Ftitle+%3Fvalue%0A%0A++++++++++++%7B+%0A%0A++++++++++++%3Chttps%3A%2F%2Flinked.data.gov.au%2Fdef%2Fnrm%2F1b3904f4-df8c-49ba-a234-3b406fe11fa9%3E+%3Ftitle+%3Fvalue%0A%0A++++++++++++%7D",
  "method": "post",
  "params": {
    "query": "\nSELECT ?title ?value\n\n            { \n\n            <https://linked.data.gov.au/def/nrm/1b3904f4-df8c-49ba-a234-3b406fe11fa9> ?title ?value\n\n            }"
  },
  "body": {},
  "headers": {
    "content-type": "application/x-www-form-urlencoded",
    "accept": "application/sparql-results+json",
    "store-key": "https://linked.data.gov.au/def/nrm/1b3904f4-df8c-49ba-a234-3b406fe11fa9-sparql_query"
  },
  "response": {
    "head": {
      "vars": [
        "title",
        "value"
      ]
    },
    "results": {
      "bindings": [
        {
          "title": {
            "type": "uri",
            "value": "http://www.w3.org/1999/02/22-rdf-syntax-ns#type"
          },
          "value": {
            "type": "uri",
            "value": "http://www.w3.org/2004/02/skos/core#Concept"
          }
        },
        {
          "title": {
            "type": "uri",
            "value": "http://www.w3.org/2000/01/rdf-schema#isDefinedBy"
          },
          "value": {
            "type": "uri",
            "value": "https://linked.data.gov.au/def/nrm"
          }
        },
        {
          "title": {
            "type": "uri",
            "value": "http://purl.org/dc/terms/description"
          },
          "value": {
            "type": "literal",
            "value": "The broad taxon categories used here are Amphibian, Bird, Invertebrate, Mammal, Non-vascular plant, Reptile, and Vascular plant."
          }
        },
        {
          "title": {
            "type": "uri",
            "value": "http://www.w3.org/2004/02/skos/core#definition"
          },
          "value": {
            "type": "literal",
            "value": "A taxon (plural: taxa) is a group of organisms that are classified together based on their evolutionary relationships and shared characteristics."
          }
        },
        {
          "title": {
            "type": "uri",
            "value": "http://www.w3.org/2004/02/skos/core#prefLabel"
          },
          "value": {
            "type": "literal",
            "value": "taxa type"
          }
        },
        {
          "title": {
            "type": "uri",
            "value": "http://www.w3.org/2004/02/skos/core#historyNote"
          },
          "value": {
            "type": "literal",
            "value": "Updated the definition and the source during the version-2 changes of the EMSA modules (EMSA v2 Review process, March, 2024)."
          }
        },
        {
          "title": {
            "type": "uri",
            "value": "http://purl.org/dc/terms/source"
          },
          "value": {
            "type": "literal",
            "value": "Bignall J, Laws M, McCallum K, Cox B, O’Neill S, Potter T, Morgan R, Sparrow B. Opportune Module. In ‘Ecological Field Monitoring Protocols Manual using the Ecological Monitoring System Australia’. (Eds S O’Neill, K Irvine, A Tokmakoff, B Sparrow). TERN, Adelaide."
          }
        },
        {
          "title": {
            "type": "uri",
            "value": "https://w3id.org/tern/ontologies/tern/hasMethod"
          },
          "value": {
            "type": "uri",
            "value": "https://linked.data.gov.au/def/nrm/6fd39a33-9c4f-469e-80a5-e76b5d5f04a6"
          }
        },
        {
          "title": {
            "type": "uri",
            "value": "https://w3id.org/tern/ontologies/tern/hasFeatureType"
          },
          "value": {
            "type": "uri",
            "value": "http://linked.data.gov.au/def/tern-cv/b311c0d3-4a1a-4932-a39c-f5cdc1afa611"
          }
        },
        {
          "title": {
            "type": "uri",
            "value": "https://w3id.org/tern/ontologies/tern/hasFeatureType"
          },
          "value": {
            "type": "uri",
            "value": "http://linked.data.gov.au/def/tern-cv/2361dea8-598c-4b6f-a641-2b98ff199e9e"
          }
        },
        {
          "title": {
            "type": "uri",
            "value": "https://w3id.org/tern/ontologies/tern/valueType"
          },
          "value": {
            "type": "uri",
            "value": "https://w3id.org/tern/ontologies/tern/IRI"
          }
        },
        {
          "title": {
            "type": "uri",
            "value": "https://schema.org/url"
          },
          "value": {
            "datatype": "http://www.w3.org/2001/XMLSchema#anyURI",
            "type": "literal",
            "value": "https://github.com/ternaustralia/dawe-rlp-vocabs/tree/main/vocab_files/observable_property_concepts/taxa-type.ttl"
          }
        },
        {
          "title": {
            "type": "uri",
            "value": "https://w3id.org/tern/ontologies/tern/hasCategoricalValuesCollection"
          },
          "value": {
            "type": "uri",
            "value": "https://linked.data.gov.au/def/nrm/7ea12fed-6b87-4c20-9ab4-600b32ce15ec"
          }
        },
        {
          "title": {
            "type": "uri",
            "value": "https://w3id.org/tern/ontologies/tern/isMemberOf"
          },
          "value": {
            "type": "uri",
            "value": "https://linked.data.gov.au/def/nrm/d3f85cc2-f3e8-4900-a2ac-19fc27fd14f9"
          }
        }
      ]
    }
  }
}