{
  "url": "https://graphdb.tern.org.au/repositories/dawe_vocabs_core?query=%0ASELECT+%3Ftitle+%3Fvalue%0A%0A++++++++++++%7B+%0A%0A++++++++++++%3Chttps%3A%2F%2Flinked.data.gov.au%2Fdef%2Fnrm%2F40b39732-e10b-4c4e-968b-3404663a094d%3E+%3Ftitle+%3Fvalue%0A%0A++++++++++++%7D",
  "method": "post",
  "params": {
    "query": "\nSELECT ?title ?value\n\n            { \n\n            <https://linked.data.gov.au/def/nrm/40b39732-e10b-4c4e-968b-3404663a094d> ?title ?value\n\n            }"
  },
  "body": {},
  "headers": {
    "content-type": "application/x-www-form-urlencoded",
    "accept": "application/sparql-results+json",
    "store-key": "https://linked.data.gov.au/def/nrm/40b39732-e10b-4c4e-968b-3404663a094d-sparql_query"
  },
  "response": {
    "head": {
      "vars": [
        "title",
        "value"
      ]
    },
    "results": {
      "bindings": [
        {
          "title": {
            "type": "uri",
            "value": "http://www.w3.org/1999/02/22-rdf-syntax-ns#type"
          },
          "value": {
            "type": "uri",
            "value": "http://www.w3.org/2004/02/skos/core#Concept"
          }
        },
        {
          "title": {
            "type": "uri",
            "value": "http://www.w3.org/2000/01/rdf-schema#isDefinedBy"
          },
          "value": {
            "type": "uri",
            "value": "https://linked.data.gov.au/def/nrm"
          }
        },
        {
          "title": {
            "type": "uri",
            "value": "http://www.w3.org/2004/02/skos/core#definition"
          },
          "value": {
            "type": "literal",
            "value": "The sex of the biological individual(s) represented in the Occurrence."
          }
        },
        {
          "title": {
            "type": "uri",
            "value": "http://www.w3.org/2004/02/skos/core#prefLabel"
          },
          "value": {
            "type": "literal",
            "value": "sex"
          }
        },
        {
          "title": {
            "type": "uri",
            "value": "http://www.w3.org/2004/02/skos/core#altLabel"
          },
          "value": {
            "type": "literal",
            "value": "animal sex"
          }
        },
        {
          "title": {
            "type": "uri",
            "value": "http://www.w3.org/2004/02/skos/core#altLabel"
          },
          "value": {
            "type": "literal",
            "value": "fauna sex"
          }
        },
        {
          "title": {
            "type": "uri",
            "value": "http://purl.org/dc/terms/source"
          },
          "value": {
            "type": "uri",
            "value": "http://rs.tdwg.org/dwc/terms/version/sex-2017-10-06"
          }
        },
        {
          "title": {
            "type": "uri",
            "value": "http://purl.org/dc/terms/source"
          },
          "value": {
            "type": "literal",
            "value": "Ecological Field Monitoring protocols - Targeted survey , Vertebrate fauna module draft v0.1, 30/11/2021"
          }
        },
        {
          "title": {
            "type": "uri",
            "value": "https://w3id.org/tern/ontologies/tern/hasMethod"
          },
          "value": {
            "type": "uri",
            "value": "https://linked.data.gov.au/def/nrm/7942c1d3-8cfc-4d74-931d-850cacfa5a63"
          }
        },
        {
          "title": {
            "type": "uri",
            "value": "https://w3id.org/tern/ontologies/tern/hasMethod"
          },
          "value": {
            "type": "uri",
            "value": "https://linked.data.gov.au/def/nrm/37ed2dbb-b990-430c-9010-d0452588cf24"
          }
        },
        {
          "title": {
            "type": "uri",
            "value": "https://w3id.org/tern/ontologies/tern/hasMethod"
          },
          "value": {
            "type": "uri",
            "value": "https://linked.data.gov.au/def/nrm/98db8232-2c51-4907-99a7-0ccb8b825382"
          }
        },
        {
          "title": {
            "type": "uri",
            "value": "https://w3id.org/tern/ontologies/tern/hasMethod"
          },
          "value": {
            "type": "uri",
            "value": "https://linked.data.gov.au/def/nrm/6fd39a33-9c4f-469e-80a5-e76b5d5f04a6"
          }
        },
        {
          "title": {
            "type": "uri",
            "value": "https://w3id.org/tern/ontologies/tern/hasMethod"
          },
          "value": {
            "type": "uri",
            "value": "https://linked.data.gov.au/def/nrm/44c5567d-3437-4e89-b0b7-caefc07bb16c"
          }
        },
        {
          "title": {
            "type": "uri",
            "value": "https://w3id.org/tern/ontologies/tern/hasMethod"
          },
          "value": {
            "type": "uri",
            "value": "https://linked.data.gov.au/def/nrm/35239cb4-d7eb-4794-9148-7aed051d731c"
          }
        },
        {
          "title": {
            "type": "uri",
            "value": "https://w3id.org/tern/ontologies/tern/hasMethod"
          },
          "value": {
            "type": "uri",
            "value": "https://linked.data.gov.au/def/nrm/97c64ff0-455c-4e74-ba81-2aeb4adf042f"
          }
        },
        {
          "title": {
            "type": "uri",
            "value": "https://w3id.org/tern/ontologies/tern/hasFeatureType"
          },
          "value": {
            "type": "uri",
            "value": "http://linked.data.gov.au/def/tern-cv/ecb855ed-50e1-4299-8491-861759ef40b7"
          }
        },
        {
          "title": {
            "type": "uri",
            "value": "https://w3id.org/tern/ontologies/tern/hasFeatureType"
          },
          "value": {
            "type": "uri",
            "value": "http://linked.data.gov.au/def/tern-cv/8a68b4a9-167b-40f0-9222-293a2d20ffee"
          }
        },
        {
          "title": {
            "type": "uri",
            "value": "https://w3id.org/tern/ontologies/tern/hasFeatureType"
          },
          "value": {
            "type": "uri",
            "value": "http://linked.data.gov.au/def/tern-cv/2361dea8-598c-4b6f-a641-2b98ff199e9e"
          }
        },
        {
          "title": {
            "type": "uri",
            "value": "https://w3id.org/tern/ontologies/tern/hasFeatureType"
          },
          "value": {
            "type": "uri",
            "value": "http://linked.data.gov.au/def/tern-cv/0c30e871-63ae-4f84-a37c-ef6e7ce02928"
          }
        },
        {
          "title": {
            "type": "uri",
            "value": "https://w3id.org/tern/ontologies/tern/valueType"
          },
          "value": {
            "type": "uri",
            "value": "https://w3id.org/tern/ontologies/tern/IRI"
          }
        },
        {
          "title": {
            "type": "uri",
            "value": "https://schema.org/url"
          },
          "value": {
            "datatype": "http://www.w3.org/2001/XMLSchema#anyURI",
            "type": "literal",
            "value": "https://github.com/ternaustralia/dawe-rlp-vocabs/tree/main/vocab_files/observable_property_concepts/sex.ttl"
          }
        },
        {
          "title": {
            "type": "uri",
            "value": "https://w3id.org/tern/ontologies/tern/hasCategoricalValuesCollection"
          },
          "value": {
            "type": "uri",
            "value": "https://linked.data.gov.au/def/nrm/fcc3a1e1-3e35-4a4f-bd44-eface035025c"
          }
        },
        {
          "title": {
            "type": "uri",
            "value": "https://w3id.org/tern/ontologies/tern/isMemberOf"
          },
          "value": {
            "type": "uri",
            "value": "https://linked.data.gov.au/def/nrm/662320e4-4633-4aa3-9c78-4776d22e632e"
          }
        },
        {
          "title": {
            "type": "uri",
            "value": "https://w3id.org/tern/ontologies/tern/isMemberOf"
          },
          "value": {
            "type": "uri",
            "value": "https://linked.data.gov.au/def/nrm/a66e0c78-6f5c-4e24-8223-d03f14891e45"
          }
        },
        {
          "title": {
            "type": "uri",
            "value": "https://w3id.org/tern/ontologies/tern/isMemberOf"
          },
          "value": {
            "type": "uri",
            "value": "https://linked.data.gov.au/def/nrm/d2768d6b-769c-4355-9358-6d2d98de4baf"
          }
        },
        {
          "title": {
            "type": "uri",
            "value": "https://w3id.org/tern/ontologies/tern/isMemberOf"
          },
          "value": {
            "type": "uri",
            "value": "https://linked.data.gov.au/def/nrm/d3f85cc2-f3e8-4900-a2ac-19fc27fd14f9"
          }
        },
        {
          "title": {
            "type": "uri",
            "value": "https://w3id.org/tern/ontologies/tern/isMemberOf"
          },
          "value": {
            "type": "uri",
            "value": "https://linked.data.gov.au/def/nrm/c9fe51f4-8be6-4fdb-b8c7-7c289c574e86"
          }
        },
        {
          "title": {
            "type": "uri",
            "value": "https://w3id.org/tern/ontologies/tern/isMemberOf"
          },
          "value": {
            "type": "uri",
            "value": "https://linked.data.gov.au/def/nrm/2a153176-51f8-4426-9eab-db33c474942d"
          }
        },
        {
          "title": {
            "type": "uri",
            "value": "https://w3id.org/tern/ontologies/tern/isMemberOf"
          },
          "value": {
            "type": "uri",
            "value": "https://linked.data.gov.au/def/nrm/74f59e32-0f17-4909-8096-2b26d061aae9"
          }
        }
      ]
    }
  }
}