{
  "collectionName": "components_general_resprouting_locations",
  "info": {
    "displayName": "resprouting-location"
  },
  "options": {},
  "attributes": {
    "basal": {
      "type": "boolean",
      "default": false
    },
    "epicormic": {
      "type": "boolean",
      "default": false
    }
  }
}
