{
  "collectionName": "components_ground_counts_track_logs",
  "info": {
    "displayName": "track-log"
  },
  "options": {},
  "attributes": {
    "lat": {
      "type": "float",
      "required": true
    },
    "lng": {
      "type": "float",
      "required": true
    },
    "speed": {
      "type": "float"
    }
  }
}
