{
  "collectionName": "lut_soils_horizon_suffixes",
  "info": {
    "singularName": "lut-soils-horizon-suffix",
    "pluralName": "lut-soils-horizon-suffixs",
    "displayName": "Lut-soils-horizon-suffix",
    "name": "lut-soils-horizon-suffix"
  },
  "options": {
    "draftAndPublish": false,
    "increments": true,
    "timestamps": true,
    "comment": ""
  },
  "attributes": {
    "symbol": {
      "type": "string",
      "required": true,
      "unique": true
    },
    "label": {
      "type": "string",
      "required": true,
      "unique": true
    },
    "description": {
      "type": "text"
    },
    "uri": {
      "type": "string"
    }
  },
  "initialData": [
    [
      "b",
      "b",
      "Buried soil horizons. Used in mineral soils only.",
      ""
    ],
    [
      "c",
      "c",
      "Horizons with accumulation of concretions or nodules of iron and/or aluminium and/or manganese.",
      ""
    ],
    [
      "d",
      "d",
      "Densipans. Very fine, sandy, earthy pan.",
      ""
    ],
    [
      "e",
      "e",
      "Conspicuously bleached horizons.",
      ""
    ],
    [
      "f",
      "f",
      "Faunal accumulation, such as worm casts, dominates certain A1 horizons.",
      ""
    ],
    [
      "g",
      "g",
      "Indicates strong gleying.",
      ""
    ],
    [
      "h",
      "h",
      "Horizons that contain accumulation of amorphous, organic matter–aluminium complexes in which iron contents are very low.",
      ""
    ],
    [
      "j",
      "j",
      "Sporadically bleached horizons.",
      ""
    ],
    [
      "k",
      "k",
      "Horizons with accumulation of carbonates, commonly calcium carbonate.",
      ""
    ],
    [
      "m",
      "m",
      "Horizons with strong cementation or induration.",
      ""
    ],
    [
      "p",
      "p",
      "Horizons where ploughing, tillage practices or other disturbance by humans has occurred (e.g. deep ripping).",
      ""
    ],
    [
      "q",
      "q",
      "Horizons with accumulation of secondary silica. If silica cementation is continuous or nearly continuous, ‘qm’ is used.",
      ""
    ],
    [
      "r",
      "r",
      "Horizons with layers of weathered rock (including saprolite) that, although consolidated, can be dug with hand tools.",
      ""
    ],
    [
      "s",
      "s",
      "Horizons with an accumulation of sesquioxide– organic matter complexes in which iron is dominant relative to aluminium. Often used in combination with ‘h’.",
      ""
    ],
    [
      "t",
      "t",
      "Horizons with accumulation of silicate clay (from German ton, clay).",
      ""
    ],
    [
      "w",
      "w",
      "Development of colour and/or structure, or both, observed in the B horizon, with little or no accumulation of sesquioxide– organic matter complexes.",
      ""
    ],
    [
      "x",
      "x",
      "Fragipans or earthy pans.",
      ""
    ],
    [
      "y",
      "y",
      "Horizons with accumulation of calcium sulfate (gypsum).",
      ""
    ],
    [
      "z",
      "z",
      "Horizons with accumulation of salts more soluble than calcium sulfate and calcium carbonate.",
      ""
    ],
    [
      "?",
      "?",
      "Query. Used where doubt is associated with the nomenclature of the horizon, with the query following the horizon notation (e.g. ‘D?’)"
    ]
  ]
}