{
  "kind": "collectionType",
  "collectionName": "camera_trap_settings",
  "info": {
    "singularName": "camera-trap-setting",
    "pluralName": "camera-trap-settings",
    "displayName": "Camera Trap Setting"
  },
  "options": {
    "draftAndPublish": false
  },
  "attributes": {
    "media_type": {
      "type": "relation",
      "relation": "oneToOne",
      "target": "api::lut-camera-media-type.lut-camera-media-type",
      "x-paratoo-required": true
    },
    "images_per_trigger": {
      "type": "integer",
      "required": false,
      "min": 1
    },
    "image_interval": {
      "type": "decimal",
      "required": false,
      "x-paratoo-unit": "seconds",
      "x-paratoo-hint": "Time between images per capture"
    },
    "video_length": {
      "type": "string",
      "required": false,
      "x-paratoo-unit": "mm:ss",
      "regex": "([0-9][0-9]:[0-9][0-9])",
      "x-paratoo-regex-message": "Must match time format 'mm:ss'",
      "x-paratoo-description": "TimeInterval"
    },
    "sensor_sensitivity": {
      "type": "relation",
      "relation": "oneToOne",
      "target": "api::lut-camera-sensor-sensitivity.lut-camera-sensor-sensitivity",
      "x-paratoo-required": true
    },
    "quiet_period": {
      "type": "string",
      "required": true,
      "x-paratoo-unit": "mm:ss",
      "regex": "([0-9][0-9]:[0-9][0-9])",
      "x-paratoo-regex-message": "Must match time format 'mm:ss'",
      "x-paratoo-description": "TimeInterval",
      "x-paratoo-hint": "Specified time between triggers when activity in the sensor will not trigger the camera trap."
    },
    "aspect_ratio": {
      "type": "relation",
      "relation": "oneToOne",
      "target": "api::lut-camera-aspect-ratio.lut-camera-aspect-ratio",
      "x-paratoo-required": true
    },
    "image_quality": {
      "type": "decimal",
      "x-paratoo-unit": "megapixels",
      "required": false
    },
    "video_resolution": {
      "type": "relation",
      "relation": "oneToOne",
      "target": "api::lut-camera-resolution.lut-camera-resolution",
      "x-paratoo-required": false
    },
    "day_night_recording": {
      "type": "relation",
      "relation": "oneToOne",
      "target": "api::lut-day-night-recording.lut-day-night-recording",
      "x-paratoo-required": true
    },
    "night_mode_shutter_speed": {
      "type": "decimal",
      "required": false,
      "x-paratoo-unit": "seconds"
    },
    "time_format": {
      "type": "relation",
      "relation": "oneToOne",
      "target": "api::lut-time-format.lut-time-format",
      "x-paratoo-required": true
    },
    "datetime": {
      "type": "datetime",
      "required": true
    },
    "unit_of_temperature": {
      "type": "relation",
      "relation": "oneToOne",
      "target": "api::lut-temperature-unit.lut-temperature-unit",
      "x-paratoo-required": true
    },
    "battery_type": {
      "type": "relation",
      "relation": "oneToOne",
      "target": "api::lut-battery-type.lut-battery-type",
      "x-paratoo-required": true
    },
    "user_label": {
      "type": "string",
      "required": false,
      "x-paratoo-hint": "The user label entered in the camera trap settings"
    },
    "time_lapse": {
      "type": "boolean",
      "required": true,
      "default": false,
      "x-paratoo-has-dependencies": [
        "time_lapse_interval",
        "time_lapse_schedule"
      ]
    },
    "time_lapse_interval": {
      "type": "string",
      "required": false,
      "x-paratoo-unit": "mm:ss",
      "regex": "([0-9][0-9]:[0-9][0-9])",
      "x-paratoo-regex-message": "Must match time format 'mm:ss'",
      "x-paratoo-description": "TimeInterval",
      "x-paratoo-hint": "The time between time lapse captures"
    },
    "time_lapse_schedule": {
      "type": "component",
      "repeatable": true,
      "component": "camera-trap.time-lapse-schedule"
    },
    "abis_export_uuid": {
      "type": "string",
      "unique": true
    }
  },
  "initialData": [
    [
      3,
      1,
      "1",
      "00:30",
      3,
      "01:00",
      2,
      "10",
      4,
      3,
      1,
      1,
      "2023-03-27T09:52:00.000Z",
      1,
      1,
      "camera1",
      false,
      null,
      []
    ],
    [
      3,
      1,
      "1",
      "01:30",
      3,
      "01:30",
      2,
      "10",
      4,
      3,
      1,
      1,
      "2023-03-27T09:52:00.000Z",
      1,
      1,
      "camera2",
      false,
      null,
      []
    ]
  ]
}