{
  "kind": "collectionType",
  "collectionName": "recruitment_field_surveys",
  "info": {
    "singularName": "recruitment-field-survey",
    "pluralName": "recruitment-field-surveys",
    "displayName": "Recruitment – Age Structure Protocol",
    "description": "",
    "uri": "https://linked.data.gov.au/def/nrm/36c493f1-6a2e-4d48-9c3a-df104d98124b"
  },
  "options": {
    "draftAndPublish": false
  },
  "attributes": {
    "start_date_time": {
      "type": "datetime",
      "required": true
    },
    "end_date_time": {
      "type": "datetime",
      "required": true
    },
    "plot_visit": {
      "type": "relation",
      "relation": "oneToOne",
      "target": "api::plot-visit.plot-visit"
    },
    "survey_metadata": {
      "type": "component",
      "repeatable": false,
      "component": "survey-metadata.metadata",
      "x-paratoo-required": true
    },
    "abis_export_uuid": {
      "type": "string",
      "unique": true
    }
  }
}