{
  "kind": "collectionType",
  "collectionName": "lut_drone_white_balances",
  "info": {
    "singularName": "lut-drone-white-balance",
    "pluralName": "lut-drone-white-balances",
    "displayName": "Lut-drone-white-balance"
  },
  "options": {
    "draftAndPublish": false
  },
  "attributes": {
    "symbol": {
      "type": "string",
      "required": true,
      "unique": true
    },
    "label": {
      "type": "string",
      "required": true,
      "unique": true
    },
    "description": {
      "type": "text"
    },
    "uri": {
      "type": "string"
    }
  },
  "initialData": [
    ["SU", "Sunny (skycode 0 – 6)", "", ""],
    ["OV", "Overcast (skycode 7 – 9)", "", ""]
  ]
}
