{
  "kind": "collectionType",
  "collectionName": "ground_counts_vantage_points",
  "info": {
    "singularName": "ground-counts-vantage-point",
    "pluralName": "ground-counts-vantage-points",
    "displayName": "ground-counts-vantage-point",
    "description": ""
  },
  "options": {
    "draftAndPublish": false
  },
  "attributes": {
    "survey": {
      "type": "relation",
      "relation": "oneToOne",
      "target": "api::ground-counts-vantage-point-survey.ground-counts-vantage-point-survey"
    },
    "new_or_existing": {
      "type": "component",
      "repeatable": false,
      "component": "general.new-or-existing",
      "required": true,
      "x-paratoo-new-or-existing-site-name": "Vantage Point ID"
    },
    "vantage_point_location": {
      "type": "component",
      "repeatable": false,
      "component": "location.location"
    },
    "vantage_point_type": {
      "type": "component",
      "repeatable": false,
      "component": "custom-lut.custom-lut-vantage-point-type",
      "required": true
    },
    "outlook_zones": {
      "type": "component",
      "repeatable": true,
      "component": "ground-counts.additional-outlook-zones",
      "max": 6,
      "x-paratoo-hint": "Indicate the outlook zone the observation was made in e.g. NNE"
    },
    "abis_export_uuid": {
      "type": "string",
      "unique": true
    }
  }
}