{
  "collectionName": "components_plant_tissue_vouchering_replicate_replicates",
  "info": {
    "displayName": "Replicate",
    "icon": "leaf"
  },
  "options": {},
  "attributes": {
    "replicate_number": {
      "type": "integer",
      "min": 1,
      "required": true,
      "unique": false
    },
    "genetic_voucher_barcode": {      
      "type": "string",
      "required": true,
      "unique": true
    }
  }
}
