{
  "kind": "collectionType",
  "collectionName": "lut_condition_grazing_severities",
  "info": {
    "singularName": "lut-condition-grazing-severity",
    "pluralName": "lut-condition-grazing-severities",
    "displayName": "Lut-condition-grazing-severity"
  },
  "options": {
    "draftAndPublish": false
  },
  "attributes": {
    "symbol": {
      "type": "string",
      "required": true,
      "unique": true
    },
    "label": {
      "type": "string",
      "required": true,
      "unique": true
    },
    "description": {
      "type": "text"
    },
    "uri": {
      "type": "string"
    }
  },
  "initialData": [
    [
      "Severe",
      "Severe",
      "",
      ""
    ],
    [
      "Heavy",
      "Heavy",
      "",
      ""
    ],
    [
      "Light",
      "Light",
      "",
      ""
    ]
  ]
}