{
  "kind": "collectionType",
  "collectionName": "lut_recruitment_tree_statuses",
  "info": {
    "singularName": "lut-recruitment-tree-status",
    "pluralName": "lut-recruitment-tree-statuses",
    "displayName": "Lut-recruitment-tree-status",
    "uri": "https://linked.data.gov.au/def/nrm/b7368a37-a4ac-4c84-8a78-1fb9755ad849"
  },
  "options": {
    "draftAndPublish": false
  },
  "attributes": {
    "symbol": {
      "type": "string",
      "required": true,
      "unique": true
    },
    "label": {
      "type": "string",
      "required": true,
      "unique": true
    },
    "description": {
      "type": "text"
    },
    "uri": {
      "type": "string"
    }
  },
  "initialData": [
    [
      "Alive",
      "Alive",
      "Refers to the status of plant growth, i.e., alive.",
      "https://linked.data.gov.au/def/nrm/00e4dd62-fabe-5fb4-83b1-e2cf93e6a792"
    ],
    [
      "Dead",
      "Dead",
      "Refers to the status of plant growth, i.e. dead.",
      "https://linked.data.gov.au/def/nrm/2fd1ed97-3e7b-59a0-8d93-9be76f276071"
    ],
    [
      "Resprouting",
      "Resprouting",
      "The dominant 'Growth-stage'. Tree description: Woody perennial which is resprouting after significant loss of foliage. Shrub description: Woody perennial which is resprouting after significant loss of foliage.",
      "https://linked.data.gov.au/def/nrm/e237bdc2-8d42-52ba-9885-ee9ab013106d"
    ]
  ]
}