{
  "kind": "collectionType",
  "collectionName": "lut_intervention_initial_or_followups",
  "info": {
    "singularName": "lut-intervention-initial-or-followup",
    "pluralName": "lut-intervention-initial-or-followups",
    "displayName": "Lut-intervention-initial-or-followup",
    "uri": "https://linked.data.gov.au/def/nrm/1e5bc3df-4765-4478-a9d3-23679c2d7241"
  },
  "options": {
    "draftAndPublish": false
  },
  "attributes": {
    "symbol": {
      "type": "string",
      "required": true,
      "unique": true
    },
    "label": {
      "type": "string",
      "required": true,
      "unique": true
    },
    "description": {
      "type": "text"
    },
    "uri": {
      "type": "string"
    }
  },
  "initialData": [
    [
      "Initial",
      "Initial",
      "Refers to the an 'initial' or the baseline survey undertaken.",
      "https://linked.data.gov.au/def/nrm/99a2dc81-5f94-5a46-9709-9837d7abfca6"
    ],
    [
      "Revisit",
      "Revisit",
      "",
      ""
    ]
  ]
}