{
  "kind": "collectionType",
  "collectionName": "herbivory_off_plot_transects",
  "info": {
    "singularName": "herbivory-off-plot-transect",
    "pluralName": "herbivory-off-plot-transects",
    "displayName": "herbivory-off-plot-transect",
    "description": ""
  },
  "options": {
    "draftAndPublish": false
  },
  "attributes": {
    "off_plot_setup": {
      "type": "relation",
      "relation": "oneToOne",
      "target": "api::herbivory-off-plot-belt-transect-setup.herbivory-off-plot-belt-transect-setup"
    },
    "transect_number": {
      "type": "string",
      "required": true,
      "x-paratoo-rename": "Transect ID"
    },
    "setup_ID": {
      "type": "string",
      "required": true,
      "x-paratoo-rename": "Setup ID"
    },
    "transect_start_date_time": {
      "type": "datetime",
      "required": true
    },
    "transect_photo": {
      "type": "media",
      "multiple": false,
      "required": true,
      "allowedTypes": [
        "images"
      ]
    },
    "quadrat": {
      "type": "relation",
      "relation": "oneToMany",
      "target": "api::herbivory-and-physical-damage-quadrat.herbivory-and-physical-damage-quadrat",
      "x-paratoo-rename": "Herbivory and Physical Damage Quadrat"
    },
    "transect_end_date_time": {
      "type": "datetime",
      "required": true
    },
    "abis_export_uuid": {
      "type": "string",
      "unique": true
    }
  }
}