{
  "kind": "collectionType",
  "collectionName": "lut_basal_dbh_instruments",
  "info": {
    "singularName": "lut-basal-dbh-instrument",
    "pluralName": "lut-basal-dbh-instruments",
    "displayName": "Lut-basal-dbh-instrument",
    "name": "lut-basal-dbh-instrument",
    "uri": "https://linked.data.gov.au/def/nrm/b18974ea-7395-4c14-9d9f-3c1fa6b2c8a9"
  },
  "options": {
    "increments": true,
    "timestamps": true,
    "draftAndPublish": false
  },
  "attributes": {
    "symbol": {
      "type": "string",
      "required": true,
      "unique": true
    },
    "label": {
      "type": "string",
      "required": true,
      "unique": true
    },
    "description": {
      "type": "text"
    },
    "uri": {
      "type": "string"
    }
  },
  "initialData": [
    [
      "DIA",
      "Diameter Tape Measure",
      "The type of instrument used to measure the diameter of a stem/tree trunk, usually at 1.3 m height above ground as diameter at breast height (DBH).",
      "https://linked.data.gov.au/def/nrm/237b799a-a1f3-5a1e-b88a-69429d05523a"
    ],
    [
      "TAP",
      "Tape Measure",
      "The type of instrument used to measure the diameter of a stem/tree trunk, usually at 1.3 m height above ground as diameter at breast height (DBH).",
      "https://linked.data.gov.au/def/nrm/9ab8c8fe-0484-5280-a979-c13c32a1c675"
    ],
    [
      "CAL",
      "Tree Caliper",
      "The type of instrument used to measure the diameter of a stem/tree trunk with angular stems, usually at 1.3 m height above ground as diameter at breast height (DBH).",
      "https://linked.data.gov.au/def/nrm/6a7442bd-230f-5be2-aeb4-8afc7ba02725"
    ]
  ]
}