{
  "apiConfigs1": [
    ["POST", "<org>/validate-token", 200, { "data": true }],
    [
      "GET",
      "<org>/pdp/<project_id>/<protocol_id>/write",
      200,
      { "data": { "isAuthorised": true } }
    ],
    [
      "GET",
      "<org>/status/<org_minted_uuid>",
      200,
      { "data": { "isSubmitted": false } }
    ],
    ["POST", "<org>/collection", 200, { "success": true }]
  ],
  "bulkEndpoint1": "/api/soil-sub-pit-and-metagenomics-surveys/bulk",
  "validJwt1": "Bearer eyJhbGciOiJIUzI1NiIsInR5cCI6IkpXVCJ9.eyJpZCI6MSwiaWF0IjoxNjUxNDcwOTc5LCJleHAiOjE2NTQwNjI5Nzl9.LIDkASm6kbWfR9FbV5Bp48uPkEm3Dw4z0Q9oEoCggXc",
  "projectId1": "1",
  "projectId2": "2",
  "protocolId1": "1dd7d3ff-11b5-4690-8167-d8fe148656b9",
  "orgMintedUuid1": "b69d9409-cb14-4d4a-a619-906f83cda62d",
  "orgMintedUuid2": "06d58cbb-0c10-4515-a32c-7297ecc719e8",
  "body1": {
    "data": {
      "collections": [
        {
          "plot-layout": {
            "id": 4
          },
          "plot-visit": {
            "id": 6
          },
          "soil-sub-pit-and-metagenomics-survey": {
            "data": {
              "survey_variant": "F",
              "start_date_time": "2024-01-10T04:59:21.451Z",
              "end_date_time": "2024-01-10T04:59:21.451Z",
              "observers": [
                {
                  "observer": "Tom"
                },
                {
                  "observer": "Luke"
                },
                {
                  "observer": "Walid"
                },
                {
                  "observer": "Wildcardbt"
                }
              ],
              "variant": "full",
              "collect_metagenomics": false,
              "survey_metadata": {
                "survey_details": {
                  "survey_model": "soil-sub-pit-and-metagenomics-survey",
                  "time": "2022-09-14T01:39:21.635Z",
                  "uuid": "def92b55-b786-43ed-8e89-0e25b135454c",
                  "project_id": "1",
                  "protocol_id": "1dd7d3ff-11b5-4690-8167-d8fe148656b9",
                  "protocol_version": "1"
                },
                "provenance": {
                  "version_app": "0.0.1-xxxxx",
                  "version_core": "0.0.1-xxxxx",
                  "version_core_documentation": "0.0.1-xxxxx",
                  "version_org": "4.4-SNAPSHOT",
                  "system_app": "monitor",
                  "system_core": "Monitor FDCP API",
                  "system_org": "monitor"
                },
                "orgMintedUUID": "b69d9409-cb14-4d4a-a619-906f83cda62d"
              },
              "protocol_variant": null,
              "date_time": "2024-01-01T00:00:00.000Z"
            }
          },
          "soil-sub-pit": [
            {
              "data": {
                "soil_sub_pit_id": "SATFLB0001-1",
                "collection_method": "DG",
                "location": {
                  "lat": -23.7,
                  "lng": 132.8
                },
                "start_date": "2024-01-10T04:59:32.752Z",
                "end_date": "2024-01-11T04:59:32.752Z",
                "microhabitat": [
                  {
                    "photo": 1,
                    "microhabitat_description": "Test comment for expansion 1"
                  },
                  {
                    "photo": 1,
                    "microhabitat_description": "Test comment for expansion 2"
                  }
                ],
                "sub_pit_observation": [
                  {
                    "data": {
                      "observation_type": "P",
                      "soil_pit_depth": 5,
                      "digging_stopped_by": "R",
                      "soil_pit_photo": 1,
                      "comment": "Test comment"
                    }
                  },
                  {
                    "data": {
                      "observation_type": "P",
                      "soil_pit_depth": 5,
                      "digging_stopped_by": "R",
                      "soil_pit_photo": 1,
                      "comment": "Test comment"
                    }
                  },
                  {
                    "data": {
                      "observation_type": "P",
                      "soil_pit_depth": 5,
                      "digging_stopped_by": "R",
                      "soil_pit_photo": 1,
                      "comment": "Test comment"
                    }
                  }
                ]
              }
            },
            {
              "data": {
                "soil_sub_pit_id": "SATFLB0001-2",
                "collection_method": "DG",
                "location": {
                  "lat": -23.7,
                  "lng": 132.8
                },
                "start_date": "2024-01-10T05:00:11.752Z",
                "end_date": "2024-01-11T05:04:09.171Z",
                "microhabitat": [
                  {
                    "photo": 1,
                    "microhabitat_description": "Test comment for expansion 1"
                  },
                  {
                    "photo": 1,
                    "microhabitat_description": "Test comment for expansion 2"
                  }
                ],
                "sub_pit_observation": [
                  {
                    "data": {
                      "observation_type": "P",
                      "soil_pit_depth": 5,
                      "digging_stopped_by": "R",
                      "soil_pit_photo": 1,
                      "comment": "Test comment"
                    }
                  },
                  {
                    "data": {
                      "observation_type": "P",
                      "soil_pit_depth": 5,
                      "digging_stopped_by": "R",
                      "soil_pit_photo": 1,
                      "comment": "Test comment"
                    }
                  },
                  {
                    "data": {
                      "observation_type": "P",
                      "soil_pit_depth": 5,
                      "digging_stopped_by": "R",
                      "soil_pit_photo": 1,
                      "comment": "Test comment"
                    }
                  }
                ]
              }
            },
            {
              "data": {
                "soil_sub_pit_id": "SATFLB0001-3",
                "collection_method": "DG",
                "location": {
                  "lat": -23.7,
                  "lng": 132.8
                },
                "start_date": "2024-01-10T05:00:50.557Z",
                "end_date": "2024-01-11T05:04:09.171Z",
                "microhabitat": [
                  {
                    "photo": 1,
                    "microhabitat_description": "Test comment for expansion 1"
                  },
                  {
                    "photo": 1,
                    "microhabitat_description": "Test comment for expansion 2"
                  }
                ],
                "sub_pit_observation": [
                  {
                    "data": {
                      "observation_type": "P",
                      "soil_pit_depth": 5,
                      "digging_stopped_by": "R",
                      "soil_pit_photo": 1,
                      "comment": "Test comment"
                    }
                  },
                  {
                    "data": {
                      "observation_type": "P",
                      "soil_pit_depth": 5,
                      "digging_stopped_by": "R",
                      "soil_pit_photo": 1,
                      "comment": "Test comment"
                    }
                  },
                  {
                    "data": {
                      "observation_type": "P",
                      "soil_pit_depth": 5,
                      "digging_stopped_by": "R",
                      "soil_pit_photo": 1,
                      "comment": "Test comment"
                    }
                  }
                ]
              }
            },
            {
              "data": {
                "soil_sub_pit_id": "SATFLB0001-4",
                "collection_method": "DG",
                "location": {
                  "lat": -23.7,
                  "lng": 132.8
                },
                "start_date": "2024-01-10T05:01:30.869Z",
                "end_date": "2024-01-11T05:04:09.171Z",
                "microhabitat": [
                  {
                    "photo": 1,
                    "microhabitat_description": "Test comment for expansion 1"
                  },
                  {
                    "photo": 1,
                    "microhabitat_description": "Test comment for expansion 2"
                  }
                ],
                "sub_pit_observation": [
                  {
                    "data": {
                      "observation_type": "P",
                      "soil_pit_depth": 5,
                      "digging_stopped_by": "R",
                      "soil_pit_photo": 1,
                      "comment": "Test comment"
                    }
                  },
                  {
                    "data": {
                      "observation_type": "P",
                      "soil_pit_depth": 5,
                      "digging_stopped_by": "R",
                      "soil_pit_photo": 1,
                      "comment": "Test comment"
                    }
                  },
                  {
                    "data": {
                      "observation_type": "P",
                      "soil_pit_depth": 5,
                      "digging_stopped_by": "R",
                      "soil_pit_photo": 1,
                      "comment": "Test comment"
                    }
                  }
                ]
              }
            },
            {
              "data": {
                "soil_sub_pit_id": "SATFLB0001-5",
                "collection_method": "DG",
                "location": {
                  "lat": -23.7,
                  "lng": 132.8
                },
                "start_date": "2024-01-10T05:02:09.954Z",
                "end_date": "2024-01-11T05:04:09.171Z",
                "microhabitat": [
                  {
                    "photo": 1,
                    "microhabitat_description": "Test comment for expansion 1"
                  },
                  {
                    "photo": 1,
                    "microhabitat_description": "Test comment for expansion 2"
                  }
                ],
                "sub_pit_observation": [
                  {
                    "data": {
                      "observation_type": "P",
                      "soil_pit_depth": 5,
                      "digging_stopped_by": "R",
                      "soil_pit_photo": 1,
                      "comment": "Test comment"
                    }
                  },
                  {
                    "data": {
                      "observation_type": "P",
                      "soil_pit_depth": 5,
                      "digging_stopped_by": "R",
                      "soil_pit_photo": 1,
                      "comment": "Test comment"
                    }
                  },
                  {
                    "data": {
                      "observation_type": "P",
                      "soil_pit_depth": 5,
                      "digging_stopped_by": "R",
                      "soil_pit_photo": 1,
                      "comment": "Test comment"
                    }
                  }
                ]
              }
            },
            {
              "data": {
                "soil_sub_pit_id": "SATFLB0001-6",
                "collection_method": "DG",
                "location": {
                  "lat": -23.7,
                  "lng": 132.8
                },
                "start_date": "2024-01-10T05:02:50.193Z",
                "end_date": "2024-01-11T05:04:09.171Z",
                "microhabitat": [
                  {
                    "photo": 1,
                    "microhabitat_description": "Test comment for expansion 1"
                  },
                  {
                    "photo": 1,
                    "microhabitat_description": "Test comment for expansion 2"
                  }
                ],
                "sub_pit_observation": [
                  {
                    "data": {
                      "observation_type": "P",
                      "soil_pit_depth": 5,
                      "digging_stopped_by": "R",
                      "soil_pit_photo": 1,
                      "comment": "Test comment"
                    }
                  },
                  {
                    "data": {
                      "observation_type": "P",
                      "soil_pit_depth": 5,
                      "digging_stopped_by": "R",
                      "soil_pit_photo": 1,
                      "comment": "Test comment"
                    }
                  },
                  {
                    "data": {
                      "observation_type": "P",
                      "soil_pit_depth": 5,
                      "digging_stopped_by": "R",
                      "soil_pit_photo": 1,
                      "comment": "Test comment"
                    }
                  }
                ]
              }
            },
            {
              "data": {
                "soil_sub_pit_id": "SATFLB0001-7",
                "collection_method": "DG",
                "location": {
                  "lat": -23.7,
                  "lng": 132.8
                },
                "start_date": "2024-01-10T05:03:29.715Z",
                "end_date": "2024-01-11T05:04:09.171Z",
                "microhabitat": [
                  {
                    "photo": 1,
                    "microhabitat_description": "Test comment for expansion 1"
                  },
                  {
                    "photo": 1,
                    "microhabitat_description": "Test comment for expansion 2"
                  }
                ],
                "sub_pit_observation": [
                  {
                    "data": {
                      "observation_type": "P",
                      "soil_pit_depth": 5,
                      "digging_stopped_by": "R",
                      "soil_pit_photo": 1,
                      "comment": "Test comment"
                    }
                  },
                  {
                    "data": {
                      "observation_type": "P",
                      "soil_pit_depth": 5,
                      "digging_stopped_by": "R",
                      "soil_pit_photo": 1,
                      "comment": "Test comment"
                    }
                  },
                  {
                    "data": {
                      "observation_type": "P",
                      "soil_pit_depth": 5,
                      "digging_stopped_by": "R",
                      "soil_pit_photo": 1,
                      "comment": "Test comment"
                    }
                  }
                ]
              }
            },
            {
              "data": {
                "soil_sub_pit_id": "SATFLB0001-8",
                "collection_method": "DG",
                "location": {
                  "lat": -23.7,
                  "lng": 132.8
                },
                "start_date": "2024-01-10T05:04:09.171Z",
                "end_date": "2024-01-11T05:04:09.171Z",
                "microhabitat": [
                  {
                    "photo": 1,
                    "microhabitat_description": "Test comment for expansion 1"
                  },
                  {
                    "photo": 1,
                    "microhabitat_description": "Test comment for expansion 2"
                  }
                ],
                "sub_pit_observation": [
                  {
                    "data": {
                      "observation_type": "P",
                      "soil_pit_depth": 5,
                      "digging_stopped_by": "R",
                      "soil_pit_photo": 1,
                      "comment": "Test comment"
                    }
                  },
                  {
                    "data": {
                      "observation_type": "P",
                      "soil_pit_depth": 5,
                      "digging_stopped_by": "R",
                      "soil_pit_photo": 1,
                      "comment": "Test comment"
                    }
                  },
                  {
                    "data": {
                      "observation_type": "P",
                      "soil_pit_depth": 5,
                      "digging_stopped_by": "R",
                      "soil_pit_photo": 1,
                      "comment": "Test comment"
                    }
                  }
                ]
              }
            },
            {
              "data": {
                "soil_sub_pit_id": "SATFLB0001-9",
                "collection_method": "DG",
                "location": {
                  "lat": -23.7,
                  "lng": 132.8
                },
                "start_date": "2024-01-10T05:04:48.779Z",
                "end_date": "2024-01-11T05:04:09.171Z",
                "microhabitat": [
                  {
                    "photo": 1,
                    "microhabitat_description": "Test comment for expansion 1"
                  },
                  {
                    "photo": 1,
                    "microhabitat_description": "Test comment for expansion 2"
                  }
                ],
                "sub_pit_observation": [
                  {
                    "data": {
                      "observation_type": "P",
                      "soil_pit_depth": 5,
                      "digging_stopped_by": "R",
                      "soil_pit_photo": 1,
                      "comment": "Test comment"
                    }
                  },
                  {
                    "data": {
                      "observation_type": "P",
                      "soil_pit_depth": 5,
                      "digging_stopped_by": "R",
                      "soil_pit_photo": 1,
                      "comment": "Test comment"
                    }
                  },
                  {
                    "data": {
                      "observation_type": "P",
                      "soil_pit_depth": 5,
                      "digging_stopped_by": "R",
                      "soil_pit_photo": 1,
                      "comment": "Test comment"
                    }
                  }
                ]
              }
            }
          ],
          "orgMintedIdentifier": "ewoJInVzZXJJZCI6IDEsCgkiZXZlbnRUaW1lIjogIjIwMjMtMTEtMTZUMDc6NDU6NDYuODMwWiIsCgkic3VydmV5X21ldGFkYXRhIjogewoJCSJzdXJ2ZXlfZGV0YWlscyI6IHsKCQkJInN1cnZleV9tb2RlbCI6ICJzb2lsLXN1Yi1waXQtYW5kLW1ldGFnZW5vbWljcy1zdXJ2ZXkiLAoJCQkidGltZSI6ICIyMDIyLTA5LTE0VDAxOjM5OjIxLjYzNVoiLAoJCQkidXVpZCI6ICJkZWY5MmI1NS1iNzg2LTQzZWQtOGU4OS0wZTI1YjEzNTQ1NGMiLAoJCQkicHJvamVjdF9pZCI6ICIxIiwKCQkJInByb3RvY29sX2lkIjogIjFkZDdkM2ZmLTExYjUtNDY5MC04MTY3LWQ4ZmUxNDg2NTZiOSIsCgkJCSJwcm90b2NvbF92ZXJzaW9uIjogIjEiCgkJfSwKCQkicHJvdmVuYW5jZSI6IHsKCQkJInZlcnNpb25fYXBwIjogIjAuMC4xLXh4eHh4IiwKCQkJInZlcnNpb25fY29yZSI6ICIwLjAuMS14eHh4eCIsCgkJCSJ2ZXJzaW9uX2NvcmVfZG9jdW1lbnRhdGlvbiI6ICIwLjAuMS14eHh4eCIsCgkJCSJ2ZXJzaW9uX29yZyI6ICI0LjQtU05BUFNIT1QiLAoJCQkic3lzdGVtX2FwcCI6ICJtb25pdG9yIiwKCQkJInN5c3RlbV9jb3JlIjogIk1vbml0b3IgRkRDUCBBUEkiLAoJCQkic3lzdGVtX29yZyI6ICJtb25pdG9yIgoJCX0sCgkJIm9yZ01pbnRlZFVVSUQiOiAiYjY5ZDk0MDktY2IxNC00ZDRhLWE2MTktOTA2ZjgzY2RhNjJkIgoJfQp9"
        }
      ]
    },
    "role": "collector"
  },
  "body2": {
    "data": {
      "collections": [
        {
          "plot-layout": {
            "id": 4
          },
          "plot-visit": {
            "id": 6
          },
          "soil-sub-pit-and-metagenomics-survey": {
            "data": {
              "survey_variant": "L",
              "field_survey_id": 1,
              "survey_metadata": {
                "survey_details": {
                  "survey_model": "soil-sub-pit-and-metagenomics-survey",
                  "time": "2022-09-14T01:39:21.615Z",
                  "uuid": "a7b18362-9be1-4c8b-a0ba-254ccfaa9024",
                  "project_id": "1",
                  "protocol_id": "1dd7d3ff-11b5-4690-8167-d8fe148656b9",
                  "protocol_version": "1"
                },
                "provenance": {
                  "version_app": "1.0.1-xxxxx",
                  "version_core": "0.0.1-xxxxx",
                  "version_core_documentation": "0.0.1-xxxxx",
                  "version_org": "4.4-SNAPSHOT",
                  "system_app": "monitor",
                  "system_core": "Monitor FDCP API",
                  "system_org": "monitor"
                },
                "orgMintedUUID": "06d58cbb-0c10-4515-a32c-7297ecc719e8"
              },
              "protocol_variant": null,
              "start_date_time": "2024-01-10T04:59:21.451Z",
              "end_date_time": "2024-01-10T04:59:21.451Z"
            }
          },
          "soil-sub-pit-sampling": [
            {
              "data": {
                "soil_sub_pit": 1,
                "sample": [
                  {
                    "not_collected": true,
                    "sampling_interval": "1"
                  },
                  {
                    "not_collected": true,
                    "sampling_interval": "2"
                  },
                  {
                    "not_collected": false,
                    "barcode": "dev_foo_barcode_1704863176703",
                    "sampling_interval": "3"
                  }
                ]
              }
            }
          ],
          "orgMintedIdentifier": "ewoJInVzZXJJZCI6IDEsCgkiZXZlbnRUaW1lIjogIjIwMjMtMTEtMTZUMDc6NDU6NDYuODMwWiIsCgkic3VydmV5X21ldGFkYXRhIjogewoJCSJzdXJ2ZXlfZGV0YWlscyI6IHsKCQkJInN1cnZleV9tb2RlbCI6ICJzb2lsLXN1Yi1waXQtYW5kLW1ldGFnZW5vbWljcy1zdXJ2ZXkiLAoJCQkidGltZSI6ICIyMDIyLTA5LTE0VDAxOjM5OjIxLjYxNVoiLAoJCQkidXVpZCI6ICJhN2IxODM2Mi05YmUxLTRjOGItYTBiYS0yNTRjY2ZhYTkwMjQiLAoJCQkicHJvamVjdF9pZCI6ICIxIiwKCQkJInByb3RvY29sX2lkIjogIjFkZDdkM2ZmLTExYjUtNDY5MC04MTY3LWQ4ZmUxNDg2NTZiOSIsCgkJCSJwcm90b2NvbF92ZXJzaW9uIjogIjEiCgkJfSwKCQkicHJvdmVuYW5jZSI6IHsKCQkJInZlcnNpb25fYXBwIjogIjEuMC4xLXh4eHh4IiwKCQkJInZlcnNpb25fY29yZSI6ICIwLjAuMS14eHh4eCIsCgkJCSJ2ZXJzaW9uX2NvcmVfZG9jdW1lbnRhdGlvbiI6ICIwLjAuMS14eHh4eCIsCgkJCSJ2ZXJzaW9uX29yZyI6ICI0LjQtU05BUFNIT1QiLAoJCQkic3lzdGVtX2FwcCI6ICJtb25pdG9yIiwKCQkJInN5c3RlbV9jb3JlIjogIk1vbml0b3IgRkRDUCBBUEkiLAoJCQkic3lzdGVtX29yZyI6ICJtb25pdG9yIgoJCX0sCgkJIm9yZ01pbnRlZFVVSUQiOiAiMDZkNThjYmItMGMxMC00NTE1LWEzMmMtNzI5N2VjYzcxOWU4IgoJfQp9"
        }
      ]
    },
    "role": "collector"
  }
}
