{
  "kind": "collectionType",
  "collectionName": "lut_veg_associations",
  "info": {
    "singularName": "lut-veg-association",
    "pluralName": "lut-veg-associations",
    "displayName": "Lut-veg-association",
    "uri": "https://linked.data.gov.au/def/nrm/eb6e9a4c-e277-4cb3-9792-9c91311b7e03"
  },
  "options": {
    "draftAndPublish": false,
    "increments": true,
    "timestamps": true,
    "comment": ""
  },
  "attributes": {
    "symbol": {
      "type": "string",
      "required": true,
      "unique": true
    },
    "label": {
      "type": "string",
      "required": true,
      "unique": true
    },
    "description": {
      "type": "text"
    },
    "uri": {
      "type": "string"
    }
  },
  "initialData": [
    [
      "U",
      "Upper Storey",
      "",
      ""
    ],
    [
      "M",
      "Mid Storey",
      "",
      ""
    ],
    [
      "G",
      "Ground Storey",
      "",
      ""
    ]
  ]
}