{
  "collectionName": "lut_soils_texture_grades",
  "info": {
    "singularName": "lut-soils-texture-grade",
    "pluralName": "lut-soils-texture-grades",
    "displayName": "Lut-soils-texture-grade",
    "name": "lut-soils-texture-grade",
    "uri": "https://linked.data.gov.au/def/nrm/ecdcb81a-cbe9-4113-b9e9-422a0e6c751f"
  },
  "options": {
    "draftAndPublish": false,
    "increments": true,
    "timestamps": true,
    "comment": ""
  },
  "attributes": {
    "symbol": {
      "type": "string",
      "required": true,
      "unique": true
    },
    "label": {
      "type": "string",
      "required": true,
      "unique": true
    },
    "description": {
      "type": "text"
    },
    "uri": {
      "type": "string"
    }
  },
  "initialData": [
    [
      "S",
      "Sand",
      "Refers to the soil texture. Coherence nil to very slight; cannot be moulded; sand grains of medium size; single sand grains adhere to fingers.",
      "https://linked.data.gov.au/def/nrm/cbc99014-2280-59e3-b381-dfcee73e301d"
    ],
    [
      "SL",
      "Sandy loam",
      "Refers to the soil texture. Bolus coherent but very sandy to touch; will form ribbon of 15-25mm; dominant sand grains are of medium size and are readily visible.",
      "https://linked.data.gov.au/def/nrm/dc8d3653-4b29-5d3d-a80d-23e6e85a922e"
    ],
    [
      "SCL",
      "Sandy clay loam",
      "Refers to the soil texture. Strongly coherent bolus; sandy to touch; medium size sand grains visible in finer matrix; will form ribbon of 25-40mm.",
      "https://linked.data.gov.au/def/nrm/0e40af07-4ebd-56d2-8de4-2a6ce998abc3"
    ],
    [
      "CLS",
      "Clay loam sandy",
      "Refers to the soil texture. Coherent plastic bolus; medium sized sand grains visible in the finer matrix; will form ribbon of 40-50mm.",
      "https://linked.data.gov.au/def/nrm/3f60f399-ab5c-54bd-af68-bb6016c0c485"
    ],
    [
      "CS",
      "Clayey sand",
      "Refers to the soil texture. Slight coherence; sand grains of medium size; sticky when wet; many sand grains stick to fingers; will form minimal ribbon of 5-15mm; discolours fingers with clay stain.",
      "https://linked.data.gov.au/def/nrm/ef5d653b-7d5a-52b8-9bcf-7adfd6ef77ad"
    ],
    [
      "CL",
      "Clay loam",
      "Refers to the soil texture. Coherent plastic bolus; smooth to manipulate; will form ribbon of 40-50mm.",
      "https://linked.data.gov.au/def/nrm/4fc26d95-cc5e-5b14-80f4-1a3acf8569a6"
    ],
    [
      "HC",
      "Heavy clay",
      "Refers to the soil texture. Smooth plastic bolus; handles like stiff plasticine; can be moulded into rods without fracture; has firm resistance to ribboning shear; will form ribbon of 75mm or more.",
      "https://linked.data.gov.au/def/nrm/f3c2fb29-5975-5370-8873-d0ef91200524"
    ],
    [
      "L",
      "Loam",
      "Refers to the soil texture. Bolus coherent and rather spongy; smooth feel when manipulated but with no obvious sandiness or 'silkiness'; may be somewhat greasy to the touch if organic matter present; will form ribbon of about 25mm.",
      "https://linked.data.gov.au/def/nrm/057de404-300b-5a80-b9ce-4dee368ba91a"
    ],
    [
      "LC",
      "Light clay",
      "Refers to the soil texture. Plastic bolus; smooth to touch; slight resistance to shearing between thumb and forefinger; will form ribbon of 50-75mm.",
      "https://linked.data.gov.au/def/nrm/3247291a-a766-5b32-9c2e-9a1e8cb197dc"
    ],
    [
      "LMC",
      "Light medium clay",
      "Refers to the soil texture. Plastic bolus; smooth to touch; slight to moderate resistance to ribboning shear; will form ribbon of about 75mm.",
      "https://linked.data.gov.au/def/nrm/39155a96-3ae9-51fa-9eef-592f05fcf7b6"
    ],
    [
      "LS",
      "Loamy sand",
      "Refers to the soil texture. Slight coherence; sand grains of medium size; can be sheared between thumb and forefinger to give minimal ribbon of about 5mm.",
      "https://linked.data.gov.au/def/nrm/86b2e947-62b1-52a5-b205-9fcc60b1eee9"
    ],
    [
      "MC",
      "Medium clay",
      "Refers to the soil texture. Smooth plastic bolus; handles like plasticine and can be moulded into rods without fracture; has some resistance to ribboning shear; will form ribbon of 75mm or more.",
      "https://linked.data.gov.au/def/nrm/1785f66b-3dd8-52a9-979a-4ec5f8cc32e9"
    ],
    [
      "MHC",
      "Medium heavy clay",
      "Refers to the soil texture. Smooth plastic bolus; handles like plasticine and can be moulded into rods without fracture; has moderate to firm resistance to ribboning shear; will form ribbon of 75mm or more.",
      "https://linked.data.gov.au/def/nrm/59b5495b-258d-5133-9131-b0ce3ed70b4c"
    ],
    [
      "ZCL",
      "Silty clay loam",
      "Refers to the soil texture. Coherent smooth bolus; plastic and silky to the touch; will form ribbon of 40-50 mm.",
      "https://linked.data.gov.au/def/nrm/04bded35-e5d8-5b55-84d0-02cd90193be7"
    ],
    [
      "ZL",
      "Silty loam",
      "Refers to the soil texture. Coherent bolus; very smooth to often silky when manipulated; will form ribbon of about 25mm.",
      "https://linked.data.gov.au/def/nrm/a9526e2b-9058-571a-a22d-b798d682431d"
    ],
    [
      "NA",
      "Not Applicable",
      "Refers to any categorical values/attributes that are 'Not Applicable' to a particular observation in the study.",
      "https://linked.data.gov.au/def/nrm/5488c9ea-e3a2-5348-887b-065d29b848ab"
    ],
    [
      "NC",
      "Not Collected",
      "Refers to the 'No Information/data' collected.",
      "https://linked.data.gov.au/def/nrm/94ee6b46-e2f1-5101-8666-3cbcd8697f0f"
    ]
  ]
}