{
  "collectionName": "lut_soils_coarse_frag_sizes",
  "info": {
    "singularName": "lut-soils-coarse-frag-size",
    "pluralName": "lut-soils-coarse-frag-sizes",
    "displayName": "Lut-soils-coarse-frag-size",
    "name": "lut-soils-coarse-frag-size",
    "uri": "https://linked.data.gov.au/def/nrm/06d01bf1-3863-44ea-95fe-4c62bb47b996"
  },
  "options": {
    "draftAndPublish": false,
    "increments": true,
    "timestamps": true,
    "comment": ""
  },
  "attributes": {
    "symbol": {
      "type": "string",
      "required": true,
      "unique": true
    },
    "label": {
      "type": "string",
      "required": true,
      "unique": true
    },
    "description": {
      "type": "text"
    },
    "uri": {
      "type": "string"
    }
  },
  "initialData": [
    [
      "1",
      "Fine gravelly or small pebbles (2-6mm)",
      "Refers to the size class of '1' on a scale of '1-7' size class of the soil coarse fragments substrate. '1' being the lowest (fine gravelly) and '7' being the highest (large boulders).",
      "https://linked.data.gov.au/def/nrm/f18f0758-20d4-516f-a7b5-f01c884520b2"
    ],
    [
      "2",
      "Medium gravelly or medium pebbles (6-20mm)",
      "Refers to the size class of '2' on a scale of '1-7' size class of the soil coarse fragments substrate. '1' being the lowest (fine gravelly) and '7' being the highest (large boulders).",
      "https://linked.data.gov.au/def/nrm/1b1a0c2e-70a2-5aad-954e-52eab30320c5"
    ],
    [
      "3",
      "Coarse gravelly or large pebbles (20-60mm)",
      "Refers to the size class of '3' on a scale of '1-7' size class of the soil coarse fragments substrate. '1' being the lowest (fine gravelly) and '7' being the highest (large boulders).",
      "https://linked.data.gov.au/def/nrm/b9e01bed-982b-5feb-858a-e7d374e6a244"
    ],
    [
      "4",
      "Cobbly or cobbles (60-200mm)",
      "Refers to the size class of '4' on a scale of '1-7' size class of the soil coarse fragments substrate. '1' being the lowest (fine gravelly) and '7' being the highest (large boulders).",
      "https://linked.data.gov.au/def/nrm/08e3ba0e-6ef8-59b3-87c5-7943f9895820"
    ],
    [
      "5",
      "Stony or stones (200-600mm)",
      "Refers to the size class of '5' on a scale of '1-7' size class of the soil coarse fragments substrate. '1' being the lowest (fine gravelly) and '7' being the highest (large boulders).",
      "https://linked.data.gov.au/def/nrm/ac37dbbc-c655-5dbd-b204-2923f3135e8c"
    ],
    [
      "6",
      "Bouldery or boulders (600-2000mm)",
      "Refers to the size class of '6' on a scale of '1-7' size class of the soil coarse fragments substrate. '1' being the lowest (fine gravelly) and '7' being the highest (large boulders).",
      "https://linked.data.gov.au/def/nrm/0fc1f1d2-a9c0-51a1-a26f-0bc7af65e708"
    ],
    [
      "7",
      "Large Boulders (>2000mm)",
      "Refers to the size class of '7' on a scale of '1-7' size class of the soil coarse fragments substrate. '1' being the lowest (fine gravelly) and '7' being the highest (large boulders).",
      "https://linked.data.gov.au/def/nrm/65f4fafb-2255-5026-ab8d-56c3d5fa3edb"
    ],
    [
      "NC",
      "Not Collected",
      "Refers to the 'No Information/data' collected.",
      "https://linked.data.gov.au/def/nrm/94ee6b46-e2f1-5101-8666-3cbcd8697f0f"
    ],
    [
      "n/a",
      "Not Applicable",
      "Refers to any categorical values/attributes that are 'Not Applicable' to a particular observation in the study.",
      "https://linked.data.gov.au/def/nrm/5488c9ea-e3a2-5348-887b-065d29b848ab"
    ]
  ]
}