{
  "collectionName": "components_basal_area_buttressed_trees",
  "info": {
    "displayName": "Buttressed_tree"
  },
  "options": {},
  "attributes": {
    "reach_POM": {
      "type": "decimal",
      "x-paratoo-unit": "m",
      "x-paratoo-hint": "The height at which the reach diameter or reach circumference is recorded (approximatey 2.2 m)"
    },
    "reach_circumference_at_breast_height": {
      "type": "integer",
      "x-paratoo-unit": "cm",
      "x-paratoo-rename": "Reach Circumference",
      "x-paratoo-hint": "The tree circumference measured at highest point the observer can reach (e.g. approximately 2.2 m)"
    },
    "reach_DBH": {
      "type": "integer",
      "x-paratoo-unit": "cm",
      "x-paratoo-rename": "Reach Diameter",
      "x-paratoo-hint": "The tree diameter measured at highest point the observer can reach (e.g. approximately 2.2 m). When tool is Tape Measure, will be auto-calculated from Reach Circumference."
    },
    "ellipse_DBH_measurement": {
      "type": "component",
      "repeatable": false,
      "component": "basal-area.tree-caliper-ellipse",
      "required": false,
      "x-paratoo-unit": "cm"
    },
    "POM_50_CM_above_buttress": {
      "type": "decimal",
      "x-paratoo-unit": "m",
      "x-paratoo-rename": "POM 50 cm Above Buttress"
    },
    "circumference_50_cm_above_buttress": {
      "type": "integer",
      "x-paratoo-unit": "cm",
      "x-paratoo-rename": "Circumference 50 cm Above Buttress"
    },
    "DBH_50_CM_above_buttress": {
      "type": "integer",
      "x-paratoo-unit": "cm",
      "x-paratoo-rename": "Diameter 50 cm Above Buttress",
      "x-paratoo-hint": "When tool is Tape Measure, will be auto-calculated from Circumference 50cm Above"
    },
    "ellipse_DBH_50_CM_above_buttress": {
      "type": "component",
      "repeatable": false,
      "component": "basal-area.tree-caliper-ellipse",
      "required": false,
      "x-paratoo-unit": "cm"
    }
  }
}
