{
  "kind": "collectionType",
  "collectionName": "lut_camera_makes",
  "info": {
    "singularName": "lut-camera-make",
    "pluralName": "lut-camera-makes",
    "displayName": "LUT Camera Make"
  },
  "options": {
    "draftAndPublish": false
  },
  "attributes": {
    "symbol": {
      "type": "string",
      "required": true,
      "unique": true
    },
    "label": {
      "type": "string",
      "required": true,
      "unique": true
    },
    "description": {
      "type": "text"
    },
    "uri": {
      "type": "string"
    }
  },
  "initialData": [
    [
      "Browning",
      "Browning",
      "",
      ""
    ],
    [
      "Bushnell",
      "Bushnell",
      "",
      ""
    ],
    [
      "Covert",
      "Covert",
      "",
      ""
    ],
    [
      "Moultrie",
      "Moultrie",
      "",
      ""
    ],
    [
      "Muddy",
      "Muddy",
      "",
      ""
    ],
    [
      "Primos",
      "Primos",
      "",
      ""
    ],
    [
      "Reconyx",
      "Reconyx",
      "",
      ""
    ],
    [
      "ScoutGuard",
      "ScoutGuard",
      "",
      ""
    ],
    [
      "Spartan",
      "Spartan",
      "",
      ""
    ],
    [
      "Spypoint",
      "Spypoint",
      "",
      ""
    ],
    [
      "Stealth Cam",
      "Stealth Cam",
      "",
      ""
    ],
    [
      "Swift",
      "Swift",
      "",
      ""
    ],
    [
      "Other",
      "Other",
      "",
      ""
    ]
  ]
}