{
  "collectionName": "components_location_locations",
  "info": {
    "name": "Location",
    "icon": "ad",
    "description": ""
  },
  "options": {},
  "attributes": {
    "lat": {
      "type": "float"
    },
    "lng": {
      "type": "float"
    }
  }
}
