{
  "collectionName": "vegetation_association_nvis",
  "info": {
    "displayName": "vegetation_association_nvis"
  },
  "options": {},
  "attributes": {
    "stratum": {
      "type": "relation",
      "x-paratoo-required": false,
      "relation": "oneToOne",
      "target": "api::lut-veg-association.lut-veg-association"
    },
    "vegetation_species": {
      "type": "string",
      "x-paratoo-csv-list-taxa": ["NVP", "FN", "VP"],
      "x-paratoo-rename": "Species"
    },
    "growth_form": {
      "type": "relation",
      "x-paratoo-required": false,
      "relation": "oneToOne",
      "target": "api::lut-veg-growth-form.lut-veg-growth-form"
    },
    "height_range": {
      "type": "decimal",
      "x-paratoo-rename": "Average Height",
      "x-paratoo-unit": "m",
      "min": 0,
      "max": 200
    },
    "cover_percentage": {
      "type": "integer",
      "x-paratoo-required": false,
      "min": 1,
      "max": 100,
      "x-paratoo-unit": "%"
    },
    "photo": {
      "type": "media",
      "multiple": false,
      "required": false,
      "allowedTypes": ["images"]
    }
  }
}
