{
  "kind": "collectionType",
  "collectionName": "lut_protocol_families",
  "info": {
    "singularName": "lut-protocol-family",
    "pluralName": "lut-protocol-families",
    "displayName": "LUT Protocol Family"
  },
  "options": {
    "draftAndPublish": false
  },
  "pluginOptions": {},
  "attributes": {
    "symbol": {
      "type": "string",
      "required": true,
      "unique": true
    },
    "label": {
      "type": "string",
      "required": true,
      "unique": true
    },
    "description": {
      "type": "text"
    },
    "uri": {
      "type": "string"
    }
  },
  "initialData": [
    [
      "E",
      "EMSA",
      "",
      ""
    ],
    [
      "O",
      "Other",
      "",
      ""
    ]
  ]
}