{
  "kind": "collectionType",
  "collectionName": "soil_horizon_pans",
  "info": {
    "singularName": "soil-horizon-pan",
    "pluralName": "soil-horizon-pans",
    "displayName": "soil-horizon-pan"
  },
  "options": {
    "draftAndPublish": false
  },
  "attributes": {
    "pan_cementation": {
      "type": "relation",
      "relation": "oneToOne",
      "x-paratoo-rename": "Cementation",
      "target": "api::lut-soils-pan-cementation.lut-soils-pan-cementation",
      "x-paratoo-hint": "Place a 30 mm diameter piece of the pan in water for 1 hour. If it slakes, it is uncimented; if not it is cemented. the frgree of cementation is assessed on the following scale after the 1 hour of soaking in water."
    },
    "pan_type": {
      "type": "relation",
      "relation": "oneToOne",
      "x-paratoo-rename": "Type",
      "target": "api::lut-soils-pan-type.lut-soils-pan-type",
      "x-paratoo-description": "Pans"
    },
    "pan_continuity": {
      "type": "relation",
      "relation": "oneToOne",
      "x-paratoo-rename": "Continuity",
      "target": "api::lut-soils-pan-continuity.lut-soils-pan-continuity",
      "x-paratoo-description": "Pans"
    },
    "pan_structure": {
      "type": "relation",
      "relation": "oneToOne",
      "x-paratoo-rename": "Structure",
      "target": "api::lut-soils-pan-structure.lut-soils-pan-structure",
      "x-paratoo-description": "Pans"
    },
    "abis_export_uuid": {
      "type": "string",
      "unique": true
    }
  }
}