{
  "kind": "collectionType",
  "collectionName": "plot_definition_surveys",
  "info": {
    "singularName": "plot-definition-survey",
    "pluralName": "plot-definition-surveys",
    "displayName": "Plot-Definition-Survey"
  },
  "options": {
    "draftAndPublish": false
  },
  "attributes": {
    "survey_metadata": {
      "type": "component",
      "repeatable": false,
      "component": "survey-metadata.metadata",
      "x-paratoo-required": true
    },
    "plot_visit": {
      "type": "relation",
      "relation": "oneToOne",
      "target": "api::plot-visit.plot-visit"
    },
    "abis_export_uuid": {
      "type": "string",
      "unique": true
    }
  },
  "initialData": [
    [
      {
        "survey_details": {
          "survey_model": "plot-definition-survey",
          "time": "2022-12-21T03:58:31.149Z",
          "uuid": "afb222b8-f8ef-4987-bca3-cbf630b96cef",
          "project_id": "1",
          "protocol_id": "d7179862-1be3-49fc-8ec9-2e219c6f3854",
          "protocol_version": "1"
        },
        "provenance": {
          "version_app": "0.0.1-xxxxx",
          "version_core": "0.0.1-xxxxx",
          "version_core_documentation": "0.0.1-xxxxx",
          "version_org": "4.4-SNAPSHOT",
          "system_app": "monitor",
          "system_core": "Monitor FDCP API",
          "system_org": "monitor"
        },
        "orgMintedUUID": "a89bf644-676d-4748-acb4-ebf368809c62"
      },
      1
    ],
    [
      {
        "survey_details": {
          "survey_model": "plot-definition-survey",
          "time": "2022-12-21T03:58:31.349Z",
          "uuid": "234dfe78-b533-4962-b2ea-9e936c780a02",
          "project_id": "1",
          "protocol_id": "d7179862-1be3-49fc-8ec9-2e219c6f3854",
          "protocol_version": "1"
        },
        "provenance": {
          "version_app": "0.0.1-xxxxx",
          "version_core": "0.0.1-xxxxx",
          "version_core_documentation": "0.0.1-xxxxx",
          "version_org": "4.4-SNAPSHOT",
          "system_app": "monitor",
          "system_core": "Monitor FDCP API",
          "system_org": "monitor"
        },
        "orgMintedUUID": "7a2e0105-55b8-49a2-829a-a19459f79a5b"
      },
      1
    ],
    [
      {
        "survey_details": {
          "survey_model": "plot-definition-survey",
          "time": "2022-12-21T03:58:31.349Z",
          "uuid": "aecf0e89-ca92-454b-b03d-8a70da8bff22",
          "project_id": "1",
          "protocol_id": "d7179862-1be3-49fc-8ec9-2e219c6f3854",
          "protocol_version": "1"
        },
        "provenance": {
          "version_app": "0.0.1-xxxxx",
          "version_core": "0.0.1-xxxxx",
          "version_core_documentation": "0.0.1-xxxxx",
          "version_org": "4.4-SNAPSHOT",
          "system_app": "monitor",
          "system_core": "Monitor FDCP API",
          "system_org": "monitor"
        },
        "orgMintedUUID": "6eb73f4b-185d-474b-b8fd-a7d54ec1623c"
      },
      1
    ],
    [
      {
        "survey_details": {
          "survey_model": "plot-definition-survey",
          "time": "2022-12-21T03:58:31.349Z",
          "uuid": "fb531be5-e775-4a7b-90e4-3d7f479f0000",
          "project_id": "1",
          "protocol_id": "d7179862-1be3-49fc-8ec9-2e219c6f3854",
          "protocol_version": "1"
        },
        "provenance": {
          "version_app": "0.0.1-xxxxx",
          "version_core": "0.0.1-xxxxx",
          "version_core_documentation": "0.0.1-xxxxx",
          "version_org": "4.4-SNAPSHOT",
          "system_app": "monitor",
          "system_core": "Monitor FDCP API",
          "system_org": "monitor"
        },
        "orgMintedUUID": "b9754325-c79b-400b-862a-069b88ebc92c"
      },
      1
    ],
    [
      {
        "survey_details": {
          "survey_model": "plot-definition-survey",
          "time": "2022-12-21T03:58:31.349Z",
          "uuid": "cc986b6a-4102-42a6-be59-2d54025be09b",
          "project_id": "1",
          "protocol_id": "d7179862-1be3-49fc-8ec9-2e219c6f3854",
          "protocol_version": "1"
        },
        "provenance": {
          "version_app": "0.0.1-xxxxx",
          "version_core": "0.0.1-xxxxx",
          "version_core_documentation": "0.0.1-xxxxx",
          "version_org": "4.4-SNAPSHOT",
          "system_app": "monitor",
          "system_core": "Monitor FDCP API",
          "system_org": "monitor"
        },
        "orgMintedUUID": "dda66f3d-f030-402e-bddc-2bea592e937d"
      },
      1
    ],
    [
      {
        "survey_details": {
          "survey_model": "plot-definition-survey",
          "time": "2022-12-21T03:58:31.349Z",
          "uuid": "6c9f1338-5602-427b-b1ed-39f697cd5c7e",
          "project_id": "1",
          "protocol_id": "d7179862-1be3-49fc-8ec9-2e219c6f3854",
          "protocol_version": "1"
        },
        "provenance": {
          "version_app": "0.0.1-xxxxx",
          "version_core": "0.0.1-xxxxx",
          "version_core_documentation": "0.0.1-xxxxx",
          "version_org": "4.4-SNAPSHOT",
          "system_app": "monitor",
          "system_core": "Monitor FDCP API",
          "system_org": "monitor"
        },
        "orgMintedUUID": "ed868fea-cc45-4ffa-86c3-1784dc528d55"
      },
      1
    ],
    [
      {
        "survey_details": {
          "survey_model": "plot-definition-survey",
          "time": "2022-12-21T03:58:31.349Z",
          "uuid": "99daf43f-1e34-44ce-8ea1-dba46bb6cad3",
          "project_id": "1",
          "protocol_id": "d7179862-1be3-49fc-8ec9-2e219c6f3854",
          "protocol_version": "1"
        },
        "provenance": {
          "version_app": "0.0.1-xxxxx",
          "version_core": "0.0.1-xxxxx",
          "version_core_documentation": "0.0.1-xxxxx",
          "version_org": "4.4-SNAPSHOT",
          "system_app": "monitor",
          "system_core": "Monitor FDCP API",
          "system_org": "monitor"
        },
        "orgMintedUUID": "d19bbf4b-02f0-4326-a36b-661af4c047e2"
      },
      11
    ]
  ]
}