{
  "kind": "collectionType",
  "collectionName": "vertebrate_check_traps",
  "info": {
    "singularName": "vertebrate-check-trap",
    "pluralName": "vertebrate-check-traps",
    "displayName": "vertebrate-check-trap"
  },
  "options": {
    "draftAndPublish": false
  },
  "attributes": {
    "trap_check_survey": {
      "type": "relation",
      "relation": "oneToOne",
      "target": "api::vertebrate-trap-check-survey.vertebrate-trap-check-survey"
    },
    "trap_setup_survey": {
      "type": "relation",
      "relation": "oneToOne",
      "target": "api::vertebrate-trapping-setup-survey.vertebrate-trapping-setup-survey"
    },
    "trap_setup": {
      "type": "relation",
      "relation": "oneToOne",
      "target": "api::vertebrate-trap.vertebrate-trap"
    },
    "trap_check_status": {
      "type": "relation",
      "relation": "oneToOne",
      "x-paratoo-required": true,
      "target": "api::lut-vertebrate-trap-check-status.lut-vertebrate-trap-check-status"
    },
    "comment": {
      "type": "string",
      "x-paratoo-rename": "Comments"
    },
    "trap_check_photo": {
      "type": "media",
      "multiple": true,
      "allowedTypes": [
        "images"
      ]
    },
    "setup_status": {
      "type": "relation",
      "relation": "oneToOne",
      "target": "api::lut-vertebrate-trap-status.lut-vertebrate-trap-status",
      "x-paratoo-required": true
    },
    "captured_individual": {
      "type": "relation",
      "relation": "oneToMany",
      "x-paratoo-rename": "Captured Individual",
      "target": "api::vertebrate-captured-individual.vertebrate-captured-individual"
    },
    "date_time": {
      "type": "datetime",
      "required": true
    },
    "abis_export_uuid": {
      "type": "string",
      "unique": true
    }
  }
}