{
  "kind": "collectionType",
  "collectionName": "vertebrate_trap_check_surveys",
  "info": {
    "singularName": "vertebrate-trap-check-survey",
    "pluralName": "vertebrate-trap-check-surveys",
    "displayName": "vertebrate-trap-check-survey"
  },
  "options": {
    "draftAndPublish": false
  },
  "attributes": {
    "plot_visit": {
      "type": "relation",
      "relation": "oneToOne",
      "target": "api::plot-visit.plot-visit"
    },
    "trap_check_interval": {
      "type": "component",
      "repeatable": false,
      "component": "custom-lut.custom-lut-trap-check-interval",
      "required": true
    },
    "comment": {
      "type": "string",
      "x-paratoo-rename": "Comments"
    },
    "trap_checked_by": {
      "type": "component",
      "repeatable": true,
      "component": "observers.observers",
      "required": true
    },
    "start_date_time": {
      "type": "datetime"
    },
    "end_date_time": {
      "type": "datetime",
      "required": true
    },
    "survey_metadata": {
      "type": "component",
      "repeatable": false,
      "component": "survey-metadata.metadata",
      "x-paratoo-required": true
    },
    "abis_export_uuid": {
      "type": "string",
      "unique": true
    }
  }
}