{
  "kind": "collectionType",
  "collectionName": "camera_trap_retrieval_points",
  "info": {
    "singularName": "camera-trap-retrieval-point",
    "pluralName": "camera-trap-retrieval-points",
    "displayName": "Camera Trap Retrieval Point"
  },
  "options": {
    "draftAndPublish": false
  },
  "attributes": {
    "camera_trap_survey": {
      "type": "relation",
      "relation": "oneToOne",
      "target": "api::camera-trap-retrieval-survey.camera-trap-retrieval-survey"
    },
    "deployment_id": {
      "type": "string",
      "required": true,
      "x-paratoo-soft-relation-target": "camera-trap-deployment-point",
      "x-paratoo-rename": "Deployment ID",
      "x-paratoo-hint": "The Deployment ID of the camera (combination of Camera Trap Point ID and Deployment Start Date)"
    },
    "retrieval_date": {
      "type": "date",
      "required": true,
      "x-paratoo-hint": "Make a selection to auto-calculate the Deployment Period"
    },
    "operational_status": {
      "type": "relation",
      "relation": "oneToOne",
      "target": "api::lut-camera-operational-status.lut-camera-operational-status",
      "x-paratoo-required": true
    },
    "number_of_images": {
      "type": "biginteger"
    },
    "deployment_period": {
      "type": "integer",
      "required": true,
      "minimum": 0,
      "x-paratoo-unit": "Number of camera trap nights"
    },
    "retrieval_comments": {
      "type": "text"
    },
    "abis_export_uuid": {
      "type": "string",
      "unique": true
    }
  }
}